%!PS-Adobe-3.0
%%Title: stdin
%%For: Brett
%%Creator: a2ps version 4.13
%%CreationDate: Sun Dec  1 18:48:19 2002
%%BoundingBox: 24 24 588 768
%%DocumentData: Clean7Bit
%%Orientation: Landscape
%%Pages: 4
%%PageOrder: Ascend
%%DocumentMedia: Letter 612 792 0 () ()
%%DocumentNeededResources: font Courier
%%+ font Courier-Bold
%%+ font Courier-Oblique
%%+ font Helvetica
%%+ font Helvetica-Bold
%%+ font Symbol
%%+ font Times-Bold
%%+ font Times-Roman
%%DocumentProcessColors: Black 
%%DocumentSuppliedResources: procset a2ps-a2ps-hdr
%%+ procset a2ps-diff-Prolog
%%+ encoding ISO-8859-1Encoding
%%EndComments
/a2psdict 200 dict def
a2psdict begin
%%BeginProlog
%%BeginResource: procset a2ps-diff-Prolog 2.0 1
%%Copyright: (c) 1988, 89, 90, 91, 92, 93 Miguel Santana
%%Copyright: (c) 1995, 96, 97, 98 Akim Demaille, Miguel Santana
% Check PostScript language level.
/languagelevel where {
  pop /gs_languagelevel languagelevel def
} {
  /gs_languagelevel 1 def
} ifelse

% EPSF import as in the Red Book
/BeginInclude {
  /b4_Inc_state save def    		% Save state for cleanup
  /dict_count countdictstack def	% Count objects on dict stack
  /op_count count 1 sub def		% Count objects on operand stack 
  userdict begin
    0 setgray 0 setlinecap
    1 setlinewidth 0 setlinejoin
    10 setmiterlimit [ ] 0 setdash newpath
    gs_languagelevel 1 ne {
      false setstrokeadjust false setoverprint 
    } if
} bind def

/EndInclude {
  count op_count sub { pos } repeat	% Clean up stacks
  countdictstack dict_count sub { end } repeat
  b4_Inc_state restore
} bind def

/BeginEPSF {
  BeginInclude
  /showpage { } def
} bind def

/EndEPSF {
  EndInclude
} bind def

% Page prefeed
/page_prefeed {         % bool -> -
  statusdict /prefeed known {
    statusdict exch /prefeed exch put
  } {
    pop
  } ifelse
} bind def

/deffont {
  findfont exch scalefont def
} bind def

/reencode_font {
  findfont reencode 2 copy definefont pop def
} bind def

% Function c-show (str => -)
% centers text only according to x axis.
/c-show { 
  dup stringwidth pop
  2 div neg 0 rmoveto
  show
} bind def

% Function l-show (str => -)
% prints texts so that it ends at currentpoint
/l-show {
  dup stringwidth pop neg 
  0 
  rmoveto show
} bind def

% center-fit show (str w => -)
% show centered, and scale currentfont so that the width is less than w
/cfshow {
  exch dup stringwidth pop
  % If the title is too big, try to make it smaller
  3 2 roll 2 copy
  gt
  { % if, i.e. too big
    exch div
    currentfont exch scalefont setfont
  } { % ifelse
    pop pop 
  }
  ifelse
  c-show			% center title
} bind def

% Return the y size of the current font
% - => fontsize
/currentfontsize {
  currentfont /FontMatrix get 3 get 1000 mul
} bind def

% reencode the font
% <encoding-vector> <fontdict> -> <newfontdict>
/reencode { %def
  dup length 5 add dict begin
    { %forall
      1 index /FID ne 
      { def }{ pop pop } ifelse
    } forall
    /Encoding exch def

    % Use the font's bounding box to determine the ascent, descent,
    % and overall height; don't forget that these values have to be
    % transformed using the font's matrix.
    % We use `load' because sometimes BBox is executable, sometimes not.
    % Since we need 4 numbers an not an array avoid BBox from being executed
    /FontBBox load aload pop
    FontMatrix transform /Ascent exch def pop
    FontMatrix transform /Descent exch def pop
    /FontHeight Ascent Descent sub def

    % Define these in case they're not in the FontInfo (also, here
    % they're easier to get to.
    /UnderlinePosition 1 def
    /UnderlineThickness 1 def
    
    % Get the underline position and thickness if they're defined.
    currentdict /FontInfo known {
      FontInfo
      
      dup /UnderlinePosition known {
	dup /UnderlinePosition get
	0 exch FontMatrix transform exch pop
	/UnderlinePosition exch def
      } if
      
      dup /UnderlineThickness known {
	/UnderlineThickness get
	0 exch FontMatrix transform exch pop
	/UnderlineThickness exch def
      } if
      
    } if
    currentdict 
  end 
} bind def

% Function print line number (<string> # -)
/# {
  gsave
    sx cw mul neg 2 div 0 rmoveto
    f# setfont
    c-show
  grestore
} bind def

% -------- Some routines to enlight plain b/w printings ---------

% Underline
% width --
/dounderline {
  currentpoint
  gsave
    moveto
    0 currentfont /Descent get currentfontsize mul rmoveto
    0 rlineto
    stroke
  grestore
} bind def

% Underline a string
% string --
/dounderlinestring {
  stringwidth pop
  dounderline
} bind def

/UL {
  /ul exch store
} bind def

% Draw a box of WIDTH wrt current font
% width --
/dobox {
  currentpoint
  gsave
    newpath
    moveto
    0 currentfont /Descent get currentfontsize mul rmoveto
    dup 0 rlineto
    0 currentfont /FontHeight get currentfontsize mul rlineto
    neg 0 rlineto
    closepath
    stroke
  grestore
} bind def

/BX {
  /bx exch store
} bind def

% Box a string
% string --
/doboxstring {
  stringwidth pop
  dobox
} bind def

%
% ------------- Color routines ---------------
%
/FG /setrgbcolor load def

% Draw the background
% width --
/dobackground {
  currentpoint
  gsave
    newpath
    moveto
    0 currentfont /Descent get currentfontsize mul rmoveto
    dup 0 rlineto
    0 currentfont /FontHeight get currentfontsize mul rlineto
    neg 0 rlineto
    closepath
    bgcolor aload pop setrgbcolor
    fill
  grestore
} bind def

% Draw bg for a string
% string --
/dobackgroundstring {
  stringwidth pop
  dobackground
} bind def


/BG {
  dup /bg exch store
  { mark 4 1 roll ] /bgcolor exch store } if
} bind def


/Show {
  bg { dup dobackgroundstring } if
  ul { dup dounderlinestring } if
  bx { dup doboxstring } if
  show
} bind def

% Function T(ab), jumps to the n-th tabulation in the current line
/T {
  cw mul x0 add
  bg { dup currentpoint pop sub dobackground } if
  ul { dup currentpoint pop sub dounderline } if
  bx { dup currentpoint pop sub dobox } if
  y0 moveto
} bind def

% Function n: move to the next line
/n {
  /y0 y0 bfs sub store
  x0 y0 moveto
} bind def

% Function N: show and move to the next line
/N {
  Show
  /y0 y0 bfs sub store
  x0 y0 moveto
} bind def

/S {
  Show
} bind def

%%BeginResource: procset a2ps-a2ps-hdr 2.0 2
%%Copyright: (c) 1988, 89, 90, 91, 92, 93 Miguel Santana
%%Copyright: (c) 1995, 96, 97, 98 Akim Demaille, Miguel Santana
% Function title: prints page header.
% <ct> <rt> <lt> are passed as argument
/title { 
  % 1. Draw the background
  x v get y v get moveto
  gsave
    0 th 2 div neg rmoveto 
    th setlinewidth
    0.95 setgray
    pw 0 rlineto stroke
  grestore
  % 2. Border it
  gsave
    0.7 setlinewidth
    pw 0 rlineto
    0 th neg rlineto
    pw neg 0 rlineto
    closepath stroke
  grestore
  % stk: ct rt lt
  x v get y v get th sub 1 add moveto
%%IncludeResource: font Helvetica
  fHelvetica fnfs 0.8 mul scalefont setfont
  % 3. The left title
  gsave
    dup stringwidth pop fnfs 0.8 mul add exch % leave space took on stack
    fnfs 0.8 mul hm rmoveto
    show			% left title
  grestore
  exch
  % stk: ct ltw rt
  % 4. the right title
  gsave
    dup stringwidth pop fnfs 0.8 mul add exch % leave space took on stack
    dup
    pw exch stringwidth pop fnfs 0.8 mul add sub
    hm
    rmoveto
    show			% right title
  grestore
  % stk: ct ltw rtw
  % 5. the center title
  gsave
    pw 3 1 roll
    % stk: ct pw ltw rtw
    3 copy 
    % Move to the center of the left room
    sub add 2 div hm rmoveto
    % What is the available space in here?
    add sub fnfs 0.8 mul sub fnfs 0.8 mul sub
    % stk: ct space_left
%%IncludeResource: font Helvetica-Bold
  fHelvetica-Bold fnfs scalefont setfont
    cfshow
  grestore
} bind def

% Function border: prints virtual page border
/border { %def
  gsave				% print four sides
    0 setgray
    x v get y v get moveto
    0.7 setlinewidth		% of the square
    pw 0 rlineto
    0 ph neg rlineto
    pw neg 0 rlineto
    closepath stroke
  grestore
} bind def

% Function water: prints a water mark in background
/water { %def
  gsave
    scx scy moveto rotate
%%IncludeResource: font Times-Bold
  fTimes-Bold 100 scalefont setfont
    .97 setgray
    dup stringwidth pop 2 div neg -50 rmoveto
    show
  grestore
} bind def

% Function rhead: prints the right header
/rhead {  %def
  lx ly moveto
  fHelvetica fnfs 0.8 mul scalefont setfont
  l-show
} bind def

% Function footer (cf rf lf -> -)
/footer {
  fHelvetica fnfs 0.8 mul scalefont setfont
  dx dy moveto
  show

  snx sny moveto
  l-show
  
  fnx fny moveto
  c-show
} bind def
%%EndResource

% Another version of `dounderline' which strikes through the string,
% not under.
% width --
/dounderline {
  currentpoint
  gsave
    moveto
    0
    currentfont /UnderlineThickness get currentfontsize mul setlinewidth
    % Move to half the height of the font
    currentfontsize 4 div rmoveto
    0 rlineto
    stroke
  grestore
} bind def

/p {
  0 0 0 FG
  false BG
  false UL
  false BX
  fCourier bfs scalefont setfont
  Show
} bind def

/sy {
  0 0 0 FG
  false BG
  false UL
  false BX
  fSymbol bfs scalefont setfont
  Show
} bind def

% Removed
/k {
  0 0 0 FG
  false BG
  true UL
  false BX
  fCourier bfs scalefont setfont
  Show
} bind def

% Added
/K {
  0 0 0 FG
  0.9 0.9 0.9 true BG
  false UL
  false BX
  fCourier bfs scalefont setfont
  Show
} bind def

/c {
  0 0 0 FG
  0.9 0.9 0.9 true BG
  false UL
  false BX
  fCourier-Oblique bfs scalefont setfont
  Show 
} bind def

/C {
  1.0 1.0 1.0 FG
  false BG
  false UL
  false BX
  fCourier-Bold bfs scalefont setfont
  Show 
} bind def

/l {
  0 0 0 FG
  0.9 0.9 0.9 true BG
  false UL
  false BX
  fCourier bfs scalefont setfont
  Show 
} bind def

/L {
  0 0 0 true BG
  false UL
  false BX
  1.0 1.0 1.0 FG
  fCourier-Bold bfs scalefont setfont
  Show 
} bind def

/str {
  0 0 0 FG
  false BG
  false UL
  false BX
  fTimes-Roman bfs scalefont setfont
  Show
} bind def

/e{
  0 0 0 true BG
  false UL
  false BX
  1.0 1.0 1.0 FG
  fHelvetica-Bold bfs scalefont setfont
  Show
} bind def
%%EndResource
%%EndProlog
%%BeginSetup
%%IncludeResource: font Courier
%%IncludeResource: font Courier-Bold
%%IncludeResource: font Times-Roman
%%IncludeResource: font Symbol
%%IncludeResource: font Courier-Oblique
%%BeginResource: encoding ISO-8859-1Encoding
/ISO-8859-1Encoding [
/.notdef /.notdef /.notdef /.notdef /.notdef /.notdef /.notdef /.notdef 
/.notdef /.notdef /.notdef /.notdef /.notdef /.notdef /.notdef /.notdef 
/.notdef /.notdef /.notdef /.notdef /.notdef /.notdef /.notdef /.notdef 
/.notdef /.notdef /.notdef /.notdef /.notdef /.notdef /.notdef /.notdef 
/space /exclam /quotedbl /numbersign /dollar /percent /ampersand /quoteright 
/parenleft /parenright /asterisk /plus /comma /minus /period /slash 
/zero /one /two /three /four /five /six /seven 
/eight /nine /colon /semicolon /less /equal /greater /question 
/at /A /B /C /D /E /F /G 
/H /I /J /K /L /M /N /O 
/P /Q /R /S /T /U /V /W 
/X /Y /Z /bracketleft /backslash /bracketright /asciicircum /underscore 
/quoteleft /a /b /c /d /e /f /g 
/h /i /j /k /l /m /n /o 
/p /q /r /s /t /u /v /w 
/x /y /z /braceleft /bar /braceright /asciitilde /.notdef 
/.notdef /.notdef /.notdef /.notdef /.notdef /.notdef /.notdef /.notdef 
/.notdef /.notdef /.notdef /.notdef /.notdef /.notdef /.notdef /.notdef 
/.notdef /.notdef /.notdef /.notdef /.notdef /.notdef /.notdef /.notdef 
/.notdef /.notdef /.notdef /.notdef /.notdef /.notdef /.notdef /.notdef 
/space /exclamdown /cent /sterling /currency /yen /brokenbar /section 
/dieresis /copyright /ordfeminine /guillemotleft /logicalnot /hyphen /registered /macron 
/degree /plusminus /twosuperior /threesuperior /acute /mu /paragraph /bullet 
/cedilla /onesuperior /ordmasculine /guillemotright /onequarter /onehalf /threequarters /questiondown 
/Agrave /Aacute /Acircumflex /Atilde /Adieresis /Aring /AE /Ccedilla 
/Egrave /Eacute /Ecircumflex /Edieresis /Igrave /Iacute /Icircumflex /Idieresis 
/Eth /Ntilde /Ograve /Oacute /Ocircumflex /Otilde /Odieresis /multiply 
/Oslash /Ugrave /Uacute /Ucircumflex /Udieresis /Yacute /Thorn /germandbls 
/agrave /aacute /acircumflex /atilde /adieresis /aring /ae /ccedilla 
/egrave /eacute /ecircumflex /edieresis /igrave /iacute /icircumflex /idieresis 
/eth /ntilde /ograve /oacute /ocircumflex /otilde /odieresis /divide 
/oslash /ugrave /uacute /ucircumflex /udieresis /yacute /thorn /ydieresis 
] def
%%EndResource
% Initialize page description variables.
/sh 612 def
/sw 792 def
/llx 24 def
/urx 768 def
/ury 588 def
/lly 24 def
/#copies 1 def
/th 15.000000 def
/fnfs 11 def
/bfs 7.493857 def
/cw 4.496314 def

% Dictionary for ISO-8859-1 support
/iso1dict 7 dict begin
  /fCourier ISO-8859-1Encoding /Courier reencode_font
  /fCourier-Bold ISO-8859-1Encoding /Courier-Bold reencode_font
  /fCourier-Oblique ISO-8859-1Encoding /Courier-Oblique reencode_font
  /fHelvetica ISO-8859-1Encoding /Helvetica reencode_font
  /fHelvetica-Bold ISO-8859-1Encoding /Helvetica-Bold reencode_font
  /fTimes-Bold ISO-8859-1Encoding /Times-Bold reencode_font
  /fTimes-Roman ISO-8859-1Encoding /Times-Roman reencode_font
currentdict end def
/bgcolor [ 0 0 0 ] def
/bg false def
/ul false def
/bx false def
% The font for line numbering
/f# /Helvetica findfont bfs .6 mul scalefont def
/fSymbol /Symbol findfont def
/hm fnfs 0.25 mul def
/pw
   cw 81.400000 mul
def
/ph
   522.321860 th add
def
/pmw urx llx sub pw 2 mul sub 1 div def
/pmh 0 def
/v 0 def
/x [
  0
  dup pmw add pw add
] def
/y [
  pmh ph add 0 mul ph add
  dup
] def
/scx sw 2 div def
/scy sh 2 div def
/snx urx def
/sny lly 2 add def
/dx llx def
/dy sny def
/fnx scx def
/fny dy def
/lx snx def
/ly ury fnfs 0.8 mul sub def
/sx 0 def
/tab 8 def
/x0 0 def
/y0 0 def
%%EndSetup

%%Page: (1-2) 1
%%BeginPageSetup
/pagesave save def
sh 0 translate 90 rotate
%%EndPageSetup
iso1dict begin
gsave
llx lly 12 add translate
/v 0 store
/x0 x v get 3.147420 add sx cw mul add store
/y0 y v get bfs th add sub store
x0 y0 moveto
() p 8 T () S 16 T (GNU Free Documentation License) N
() S 8 T () S 16 T (  Version ) S
(1.1, March 2000) k
( ) p
(1.2, November 2002) K n
() p n
() N
( Copyright \(C\) ) S
(2000) k
( ) p
(2000,2001,2002) K
(  Free Software Foundation, Inc.) p n
(     <https://fsf.org/>
( Everyone is permitted to copy and distribute verbatim copies) N
( of this license document, but changing it is not allowed.) N
() N
() N
(0. PREAMBLE) N
() N
(The purpose of this License is to make a manual, textbook, or other) N
(written) k n
(functional and useful) K
( document "free" in the sense of freedom: to) p n
(assure everyone the effective freedom to copy and redistribute it,) N
(with or without modifying it, either commercially or noncommercially.) N
(Secondarily, this License preserves for the author and publisher a way) N
(to get credit for their work, while not being considered responsible) N
(for modifications made by others.) N
() N
(This License is a kind of "copyleft", which means that derivative) N
(works of the document must themselves be free in the same sense.  It) N
(complements the GNU General Public License, which is a copyleft) N
(license designed for free software.) N
() N
(We have designed this License in order to use it for manuals for free) N
(software, because free software needs free documentation: a free) N
(program should come with manuals providing the same freedoms that the) N
(software does.  But this License is not limited to software manuals;) N
(it can be used for any textual work, regardless of subject matter or) N
(whether it is published as a printed book.  We recommend this License) N
(principally for works whose purpose is instruction or reference.) N
() N
() N
(1. APPLICABILITY AND DEFINITIONS) N
() N
(This License applies to any manual or other ) S
(work) k
( ) p
(work, in any medium,) K
( that) p n
(contains a notice placed by the copyright holder saying it can be) N
(distributed under the terms of this License.  ) S
(Such a notice grants a) K n
(world-wide, royalty-free license, unlimited in duration, to use that) N
(work under the conditions stated herein.) S
(  The "Document", below,) p n
(refers to any such manual or work.  Any member of the public is a) N
(licensee, and is addressed as "you".  ) S
(You accept the license if you) K n
(copy, modify or distribute the work in a way requiring permission) N
(under copyright law.) N
() p n
(A "Modified Version" of the Document means any work containing the) N
(Document or a portion of it, either copied verbatim, or with) N
(modifications and/or translated into another language.) N
() N
(A "Secondary Section" is a named appendix or a front-matter section of) N
(the Document that deals exclusively with the relationship of the) N
(publishers or authors of the Document to the Document's overall subject) N
(\(or to related matters\) and contains nothing that could fall directly) N
(within that overall subject.  ) S
(\(For example,) k
(  ) p
(\(Thus,) K
( if the Document is in part a) p n
(textbook of mathematics, a Secondary Section may not explain any) N
(mathematics.\)  The relationship could be a matter of historical) N
(connection with the subject or with related matters, or of legal,) N
(commercial, philosophical, ethical or political position regarding) N
(them.) N
() N
(The "Invariant Sections" are certain Secondary Sections whose titles) N
(are designated, as being those of Invariant Sections, in the notice) N
(that says that the Document is released under this License.  ) S
(If a) K n
(section does not fit the above definition of Secondary then it is not) N
(allowed to be designated as Invariant.  The Document may contain zero) N
(Invariant Sections.  If the Document does not identify any Invariant) N
(Sections then there are none.) N
() (fdl.txt) (old-licenses/fdl-1.1.txt) title
border
/v 1 store
/x0 x v get 3.147420 add sx cw mul add store
/y0 y v get bfs th add sub store
x0 y0 moveto
() p n
(The "Cover Texts" are certain short passages of text that are listed,) N
(as Front-Cover Texts or Back-Cover Texts, in the notice that says that) N
(the Document is released under this License.  A ) S
(Front-Cover Text may) K n
(be at most 5 words, and a Back-Cover Text may be at most 25 words.) N
() N
(A) S
( "Transparent" copy of the Document means a machine-readable copy,) p n
(represented in a format whose specification is available to the) N
(general public, ) S
(whose contents can be viewed and edited directly and) k
( ) p
(that is sui) K n
(table for revising the document) N
(straightforwardly with generic text editors or \(for images composed of) p n
(pixels\) generic paint programs or \(for drawings\) some widely available) N
(drawing editor, and that is suitable for input to text formatters or) N
(for automatic translation to a variety of formats suitable for input) N
(to text formatters.  A copy made in an otherwise Transparent file) N
(format whose ) S
(markup) k
( ) p
(markup, or absence of markup,) K
( has been ) p
(designed) k
( ) p
(arranged) K
( to ) p n
(thwart) N
(or discourage subsequent modification by readers is not Transparent.) N
(An image format is not Transparent if used for any substantial amount) K n
(of text.) S
(  A copy that is not "Transparent" is called "Opaque".) p n
() N
(Examples of suitable formats for Transparent copies include plain) N
(ASCII without markup, Texinfo input format, LaTeX input format, SGML) N
(or XML using a publicly available DTD, and standard-conforming simple) N
(HTML) k n
(HTML, PostScript or PDF) K
( designed for human modification.  ) p
(Examples of) K n
(transparent image formats include PNG, XCF and JPG.) S
(  Opaque formats) p n
(include) N
(PostScript, PDF,) k
( proprietary formats that can be read and edited only by) p n
(proprietary word processors, SGML or XML for which the DTD and/or) N
(processing tools are not generally available, and the) N
(machine-generated ) S
(HTML) k
( ) p
(HTML, PostScript or PDF) K
( produced by some word) p n
(processors for output purposes only.) N
() N
(The "Title Page" means, for a printed book, the title page itself,) N
(plus such following pages as are needed to hold, legibly, the material) N
(this License requires to appear in the title page.  For works in) N
(formats which do not have any title page as such, "Title Page" means) N
(the text near the most prominent appearance of the work's title,) N
(preceding the beginning of the body of the text.) N
() N
(A section "Entitled XYZ" means a named subunit of the Document whose) K n
(title either is precisely XYZ or contains XYZ in parentheses following) N
(text that translates XYZ in another language.  \(Here XYZ stands for a) N
(specific section name mentioned below, such as "Acknowledgements",) N
("Dedications", "Endorsements", or "History".\)  To "Preserve the Title") N
(of such a section when you modify the Document means that it remains a) N
(section "Entitled XYZ" according to this definition.) N
() N
(The Document may include Warranty Disclaimers next to the notice which) N
(states that this License applies to the Document.  These Warranty) N
(Disclaimers are considered to be included by reference in this) N
(License, but only as regards disclaiming warranties: any other) N
(implication that these Warranty Disclaimers may have is void and has) N
(no effect on the meaning of this License.) N
() p n
() N
(2. VERBATIM COPYING) N
() N
(You may copy and distribute the Document in any medium, either) N
(commercially or noncommercially, provided that this License, the) N
(copyright notices, and the license notice saying this License applies) N
(to the Document are reproduced in all copies, and that you add no other) N
(conditions whatsoever to those of this License.  You may not use) N
(technical measures to obstruct or control the reading or further) N
(copying of the copies you make or distribute.  However, you may accept) N
(compensation in exchange for copies.  If you distribute a large enough) N
(number of copies you must also follow the conditions in section 3.) N
() N
() (fdl.txt) (old-licenses/fdl-1.1.txt) title
border
grestore
(Printed by Brett) rhead
(stdin) (1/4) (Sunday December 01, 2002) footer
end % of iso1dict
pagesave restore
showpage
%%Page: (3-4) 2
%%BeginPageSetup
/pagesave save def
sh 0 translate 90 rotate
%%EndPageSetup
iso1dict begin
gsave
llx lly 12 add translate
/v 0 store
/x0 x v get 3.147420 add sx cw mul add store
/y0 y v get bfs th add sub store
x0 y0 moveto
(You may also lend copies, under the same conditions stated above, and) p n
(you may publicly display copies.) N
() N
() N
(3. COPYING IN QUANTITY) N
() N
(If you publish printed copies ) S
(\(or copies in media that commonly have) K n
(printed covers\)) S
( of the ) p
(Document) k
( ) p
(Document,) K
( numbering more than 100, and the) p n
(Document's license notice requires Cover Texts, you must enclose the) N
(copies in covers that carry, clearly and legibly, all these Cover) N
(Texts: Front-Cover Texts on the front cover, and Back-Cover Texts on) N
(the back cover.  Both covers must also clearly and legibly identify) N
(you as the publisher of these copies.  The front cover must present) N
(the full title with all words of the title equally prominent and) N
(visible.  You may add other material on the covers in addition.) N
(Copying with changes limited to the covers, as long as they preserve) N
(the title of the Document and satisfy these conditions, can be treated) N
(as verbatim copying in other respects.) N
() N
(If the required texts for either cover are too voluminous to fit) N
(legibly, you should put the first ones listed \(as many as fit) N
(reasonably\) on the actual cover, and continue the rest onto adjacent) N
(pages.) N
() N
(If you publish or distribute Opaque copies of the Document numbering) N
(more than 100, you must either include a machine-readable Transparent) N
(copy along with each Opaque copy, or state in or with each Opaque copy) N
(a ) S
(publicly-accessible) k
( computer-network location ) p
(containing a complete) k n
(Transparent copy of the Document, free of added material,) S
( ) p
(from) K
( which the general) p n
( network-using) N
(public has access to download ) S
(anonymously at no) k n
(charge) S
( using public-standard network ) p
(protocols.) k
( ) p
(protocols) K n
(a complete Transparent copy of the Document, free of added material.) N
(If you use the latter option, you must take reasonably prudent steps,) p n
(when you begin distribution of Opaque copies in quantity, to ensure) N
(that this Transparent copy will remain thus accessible at the stated) N
(location until at least one year after the last time you distribute an) N
(Opaque copy \(directly or through your agents or retailers\) of that) N
(edition to the public.) N
() N
(It is requested, but not required, that you contact the authors of the) N
(Document well before redistributing any large number of copies, to give) N
(them a chance to provide you with an updated version of the Document.) N
() N
() N
(4. MODIFICATIONS) N
() N
(You may copy and distribute a Modified Version of the Document under) N
(the conditions of sections 2 and 3 above, provided that you release) N
(the Modified Version under precisely this License, with the Modified) N
(Version filling the role of the Document, thus licensing distribution) N
(and modification of the Modified Version to whoever possesses a copy) N
(of it.  In addition, you must do these things in the Modified Version:) N
() N
(A. Use in the Title Page \(and on the covers, if any\) a title distinct) N
(   from that of the Document, and from those of previous versions) N
(   \(which should, if there were any, be listed in the History section) N
(   of the Document\).  You may use the same title as a previous version) N
(   if the original publisher of that version gives permission.) N
(B. List on the Title Page, as authors, one or more persons or entities) N
(   responsible for authorship of the modifications in the Modified) N
(   Version, together with at least five of the principal authors of the) N
(   Document \(all of its principal authors, if it has ) S
(less) k
( ) p
(fewer) K
( than ) p
(five\).) k
( ) p
(five) K n
(\),) N
(   unless they release you from this requirement.) N
(C. State on the Title page the name of the publisher of the) p n
(   Modified Version, as the publisher.) N
(D. Preserve all the copyright notices of the Document.) N
(E. Add an appropriate copyright notice for your modifications) N
() (fdl.txt) (old-licenses/fdl-1.1.txt) title
border
/v 1 store
/x0 x v get 3.147420 add sx cw mul add store
/y0 y v get bfs th add sub store
x0 y0 moveto
(   adjacent to the other copyright notices.) p n
(F. Include, immediately after the copyright notices, a license notice) N
(   giving the public permission to use the Modified Version under the) N
(   terms of this License, in the form shown in the Addendum below.) N
(G. Preserve in that license notice the full lists of Invariant Sections) N
(   and required Cover Texts given in the Document's license notice.) N
(H. Include an unaltered copy of this License.) N
(I. Preserve the section ) S
(entitled) k
( ) p
(Entitled) K
( "History", ) p
(and) k
( ) p
(Preserve) K
( its ) p
(title,) k
( ) p
(Tit) K n
(le,) S
( and add) p n
(   to it an item stating at least the title, year, new authors, and) N
(   publisher of the Modified Version as given on the Title Page.  If) N
(   there is no section ) S
(entitled) k
( ) p
(Entitled) K
( "History" in the Document, create one) p n
(   stating the title, year, authors, and publisher of the Document as) N
(   given on its Title Page, then add an item describing the Modified) N
(   Version as stated in the previous sentence.) N
(J. Preserve the network location, if any, given in the Document for) N
(   public access to a Transparent copy of the Document, and likewise) N
(   the network locations given in the Document for previous versions) N
(   it was based on.  These may be placed in the "History" section.) N
(   You may omit a network location for a work that was published at) N
(   least four years before the Document itself, or if the original) N
(   publisher of the version it refers to gives permission.) N
(K. ) S
(In) k
( ) p
(For) K
( any section ) p
(entitled) k
( ) p
(Entitled) K
( "Acknowledgements" or "Dedications",) p n
(   ) S
(preserve) k n
(   ) p
(Preserve) K
( the ) p
(section's title,) k
( ) p
(Title of the section,) K
( and preserve in the secti) p n
(on all) N
(   the substance and tone of each of the contributor acknowledgements) N
(   and/or dedications given therein.) N
(L. Preserve all the Invariant Sections of the Document,) N
(   unaltered in their text and in their titles.  Section numbers) N
(   or the equivalent are not considered part of the section titles.) N
(M. Delete any section ) S
(entitled) k
( ) p
(Entitled) K
( "Endorsements".  Such a section) p n
(   may not be included in the Modified Version.) N
(N. Do not retitle any existing section ) S
(as) k
( ) p
(to be Entitled) K
( "Endorsements") p n
(   or to conflict in title with any Invariant Section.) N
(O. Preserve any Warranty Disclaimers.) K n
() p n
(If the Modified Version includes new front-matter sections or) N
(appendices that qualify as Secondary Sections and contain no material) N
(copied from the Document, you may at your option designate some or all) N
(of these sections as invariant.  To do this, add their titles to the) N
(list of Invariant Sections in the Modified Version's license notice.) N
(These titles must be distinct from any other section titles.) N
() N
(You may add a section ) S
(entitled) k
( ) p
(Entitled) K
( "Endorsements", provided it contains) p n
(nothing but endorsements of your Modified Version by various) N
(parties--for example, statements of peer review or that the text has) N
(been approved by an organization as the authoritative definition of a) N
(standard.) N
() N
(You may add a passage of up to five words as a Front-Cover Text, and a) N
(passage of up to 25 words as a Back-Cover Text, to the end of the list) N
(of Cover Texts in the Modified Version.  Only one passage of) N
(Front-Cover Text and one of Back-Cover Text may be added by \(or) N
(through arrangements made by\) any one entity.  If the Document already) N
(includes a cover text for the same cover, previously added by you or) N
(by arrangement made by the same entity you are acting on behalf of,) N
(you may not add another; but you may replace the old one, on explicit) N
(permission from the previous publisher that added the old one.) N
() N
(The author\(s\) and publisher\(s\) of the Document do not by this License) N
(give permission to use their names for publicity for or to assert or) N
(imply endorsement of any Modified Version.) N
() N
() N
(5. COMBINING DOCUMENTS) N
() N
(You may combine the Document with other documents released under this) N
(License, under the terms defined in section 4 above for modified) N
() (fdl.txt) (old-licenses/fdl-1.1.txt) title
border
grestore
(Printed by Brett) rhead
(stdin) (2/4) (Sunday December 01, 2002) footer
end % of iso1dict
pagesave restore
showpage
%%Page: (5-6) 3
%%BeginPageSetup
/pagesave save def
sh 0 translate 90 rotate
%%EndPageSetup
iso1dict begin
gsave
llx lly 12 add translate
/v 0 store
/x0 x v get 3.147420 add sx cw mul add store
/y0 y v get bfs th add sub store
x0 y0 moveto
(versions, provided that you include in the combination all of the) p n
(Invariant Sections of all of the original documents, unmodified, and) N
(list them all as Invariant Sections of your combined work in its) N
(license ) S
(notice.) k
( ) p
(notice, and that you preserve all their Warranty Disclaimers.) K n
() p n
(The combined work need only contain one copy of this License, and) N
(multiple identical Invariant Sections may be replaced with a single) N
(copy.  If there are multiple Invariant Sections with the same name but) N
(different contents, make the title of each such section unique by) N
(adding at the end of it, in parentheses, the name of the original) N
(author or publisher of that section if known, or else a unique number.) N
(Make the same adjustment to the section titles in the list of) N
(Invariant Sections in the license notice of the combined work.) N
() N
(In the combination, you must combine any sections ) S
(entitled) k
( ) p
(Entitled) K
( "History") p n
(in the various original documents, forming one section ) S
(entitled) k
( ) p
(Entitled) K n
("History"; likewise combine any sections ) p
(entitled) k
( ) p
(Entitled) K
( "Acknowledgements",) p n
(and any sections ) S
(entitled) k
( ) p
(Entitled) K
( "Dedications".  You must delete all sections) p n
(entitled "Endorsements.") k n
(Entitled "Endorsements".) K n
() p n
() N
(6. COLLECTIONS OF DOCUMENTS) N
() N
(You may make a collection consisting of the Document and other documents) N
(released under this License, and replace the individual copies of this) N
(License in the various documents with a single copy that is included in) N
(the collection, provided that you follow the rules of this License for) N
(verbatim copying of each of the documents in all other respects.) N
() N
(You may extract a single document from such a collection, and distribute) N
(it individually under this License, provided you insert a copy of this) N
(License into the extracted document, and follow this License in all) N
(other respects regarding verbatim copying of that document.) N
() N
() N
(7. AGGREGATION WITH INDEPENDENT WORKS) N
() N
(A compilation of the Document or its derivatives with other separate) N
(and independent documents or works, in or on a volume of a storage or) N
(distribution medium, ) S
(does not as a whole count as a Modified Version) k n
(of) S
( ) p
(is called an "aggregate" if) K
( the ) p
(Document, provided no compilation) k
( copyright ) p
(i) k n
(s claimed for) N
(resulting from) K
( the) p n
(compilation.  Such a) k
( compilation is ) p
(called) k
( ) p
(not used to limit the legal rights) K n
(of the compilation's users beyond what the individual works permit.) N
(When the Document is included) S
( an ) p
("aggregate", and) k
( ) p
(aggregate,) K
( this License does n) p n
(ot) N
(apply to the other ) S
(self-contained) k
( works ) p
(thus compiled) k n
(with) S
( ) p
(in) K
( the ) p
(Document, on account of their being thus compiled, if they) k
( ) p
(aggregate) K n
( which) S
( are not themselves) p n
(derivative works of the Document.) N
() N
(If the Cover Text requirement of section 3 is applicable to these) N
(copies of the Document, then if the Document is less than one ) S
(quarter) k
( ) p
(half) K
( of) p n
(the entire aggregate, the Document's Cover Texts may be placed on) N
(covers that ) S
(surround only) k
( ) p
(bracket) K
( the Document within the ) p
(aggregate.) k
( ) p
(aggregate, ) K n
(or the) N
(electronic equivalent of covers if the Document is in electronic form.) N
(Otherwise they must appear on ) p
(printed) K
( covers ) p
(around) k
( ) p
(that bracket) K
( the whole) p n
(aggregate.) N
() N
() N
(8. TRANSLATION) N
() N
(Translation is considered a kind of modification, so you may) N
(distribute translations of the Document under the terms of section 4.) N
(Replacing Invariant Sections with translations requires special) N
(permission from their copyright holders, but you may include) N
() (fdl.txt) (old-licenses/fdl-1.1.txt) title
border
/v 1 store
/x0 x v get 3.147420 add sx cw mul add store
/y0 y v get bfs th add sub store
x0 y0 moveto
(translations of some or all Invariant Sections in addition to the) p n
(original versions of these Invariant Sections.  You may include a) N
(translation of this ) S
(License) k
( ) p
(License, and all the license notices in the) K n
(Document, and any Warrany Disclaimers,) S
( provided that you also include) p n
(the original English version of this ) S
(License.) k
( ) p
(License and the original versions) K n
(of those notices and disclaimers.) S
(  In case of a disagreement between) p n
(the translation and the original ) S
(English) k
( version of this) p n
(License,) k
( ) p
(License or a notice) K n
(or disclaimer,) S
( the original ) p
(English) k
( version will prevail.) p n
() N
(If a section in the Document is Entitled "Acknowledgements",) K n
("Dedications", or "History", the requirement \(section 4\) to Preserve) N
(its Title \(section 1\) will typically require changing the actual) N
(title.) N
() p n
() N
(9. TERMINATION) N
() N
(You may not copy, modify, sublicense, or distribute the Document except) N
(as expressly provided for under this License.  Any other attempt to) N
(copy, modify, sublicense or distribute the Document is void, and will) N
(automatically terminate your rights under this License.  However,) N
(parties who have received copies, or rights, from you under this) N
(License will not have their licenses terminated so long as such) N
(parties remain in full compliance.) N
() N
() N
(10. FUTURE REVISIONS OF THIS LICENSE) N
() N
(The Free Software Foundation may publish new, revised versions) N
(of the GNU Free Documentation License from time to time.  Such new) N
(versions will be similar in spirit to the present version, but may) N
(differ in detail to address new problems or concerns.  See) N
(https://www.gnu.org/licenses/.) N
() N
(Each version of the License is given a distinguishing version number.) N
(If the Document specifies that a particular numbered version of this) N
(License "or any later version" applies to it, you have the option of) N
(following the terms and conditions either of that specified version or) N
(of any later version that has been published \(not as a draft\) by the) N
(Free Software Foundation.  If the Document does not specify a version) N
(number of this License, you may choose any version ever published \(not) N
(as a draft\) by the Free Software Foundation.) N
() N
() N
(ADDENDUM: How to use this License for your documents) N
() N
(To use this License in a document you have written, include a copy of) N
(the License in the document and put the following copyright and) N
(license notices just after the title page:) N
() N
(    Copyright \(c\)  YEAR  YOUR NAME.) N
(    Permission is granted to copy, distribute and/or modify this document) N
(    under the terms of the GNU Free Documentation License, Version ) S
(1.1) k
( ) p
(1.2) K n
(    or any later version published by the Free Software Foundation;) p n
(    with ) S
(the) k
( ) p
(no) K
( Invariant ) p
(Sections being LIST THEIR TITLES, with the) k
( ) p
(Sections, n) K n
(o) S
( Front-Cover ) p
(Texts being LIST,) k
( ) p
(Texts,) K
( and ) p
(with the) k
( ) p
(no) K
( Back-Cover ) p
(Texts being LI) k n
(ST.) S
( ) p
(Texts.) K n
(    A copy of the license is included in the section entitled "GNU) p n
(    Free Documentation License".) N
() N
(If you have ) S
(no) k
( Invariant Sections, ) p
(write "with no Invariant Sections") k n
(instead of saying which ones are invariant.  If you have no) S
( Front-Cover ) p
(Texts an) K n
(d Back-Cover) S
( Texts, ) p
(write "no) k n
(replace the "with...Texts." line with this:) K n
() N
(    with the Invariant Sections being LIST THEIR TITLES, with the) N
(    Front-Cover ) p
(Texts" instead of) k n
("Front-Cover) S
( Texts being ) p
(LIST"; likewise for) k
( ) p
(LIST, and with the) K
( Back-Cover ) p
(Texts) k n
() (fdl.txt) (old-licenses/fdl-1.1.txt) title
border
grestore
(Printed by Brett) rhead
(stdin) (3/4) (Sunday December 01, 2002) footer
end % of iso1dict
pagesave restore
showpage
%%Page: (7) 4
%%BeginPageSetup
/pagesave save def
sh 0 translate 90 rotate
%%EndPageSetup
iso1dict begin
gsave
llx lly 12 add translate
/v 0 store
/x0 x v get 3.147420 add sx cw mul add store
/y0 y v get bfs th add sub store
x0 y0 moveto
(.) k
( ) p
(Texts being LIST.) K n
() N
(If you have Invariant Sections without Cover Texts, or some other) N
(combination of the three, merge those two alternatives to suit the) N
(situation.) N
() p n
(If your document contains nontrivial examples of program code, we) N
(recommend releasing these examples in parallel under your choice of) N
(free software license, such as the GNU General Public License,) N
(to permit their use in free software.) N
() (fdl.txt) (old-licenses/fdl-1.1.txt) title
border
grestore
(Printed by Brett) rhead
(stdin) (4/4) (Sunday December 01, 2002) footer
end % of iso1dict
pagesave restore
showpage

%%Trailer
end
%%EOF
