<?xml version="1.0" encoding="UTF-8" standalone="no"?>
<!-- Created with Inkscape (http://www.inkscape.org/) -->
<svg
   xmlns:dc="http://purl.org/dc/elements/1.1/"
   xmlns:cc="http://creativecommons.org/ns#"
   xmlns:rdf="http://www.w3.org/1999/02/22-rdf-syntax-ns#"
   xmlns:svg="http://www.w3.org/2000/svg"
   xmlns="http://www.w3.org/2000/svg"
   xmlns:sodipodi="http://sodipodi.sourceforge.net/DTD/sodipodi-0.dtd"
   xmlns:inkscape="http://www.inkscape.org/namespaces/inkscape"
   width="210mm"
   height="297mm"
   id="svg2"
   sodipodi:version="0.32"
   inkscape:version="0.46"
   sodipodi:docname="linuxlibre.svg"
   inkscape:output_extension="org.inkscape.output.svg.inkscape">
  <defs
     id="defs4">
    <linearGradient
       id="linearGradient3228">
      <stop
         style="stop-color:#7f7f7f;stop-opacity:1;"
         offset="0"
         id="stop3230" />
      <stop
         style="stop-color:#ffffff;stop-opacity:1;"
         offset="1"
         id="stop3232" />
    </linearGradient>
    <inkscape:perspective
       sodipodi:type="inkscape:persp3d"
       inkscape:vp_x="0 : 526.18109 : 1"
       inkscape:vp_y="0 : 1000 : 0"
       inkscape:vp_z="744.09448 : 526.18109 : 1"
       inkscape:persp3d-origin="372.04724 : 350.78739 : 1"
       id="perspective10" />
    <inkscape:perspective
       id="perspective2390"
       inkscape:persp3d-origin="372.04724 : 350.78739 : 1"
       inkscape:vp_z="744.09448 : 526.18109 : 1"
       inkscape:vp_y="0 : 1000 : 0"
       inkscape:vp_x="0 : 526.18109 : 1"
       sodipodi:type="inkscape:persp3d" />
  </defs>
  <sodipodi:namedview
     id="base"
     pagecolor="#ffffff"
     bordercolor="#666666"
     borderopacity="1.0"
     inkscape:pageopacity="0.0"
     inkscape:pageshadow="2"
     inkscape:zoom="0.48961695"
     inkscape:cx="133.43736"
     inkscape:cy="567.57863"
     inkscape:document-units="px"
     inkscape:current-layer="layer1"
     showgrid="false"
     showguides="true"
     inkscape:guide-bbox="true"
     inkscape:window-width="1017"
     inkscape:window-height="707"
     inkscape:window-x="-1"
     inkscape:window-y="0" />
  <metadata
     id="metadata7">
    <rdf:RDF>
      <cc:Work
         rdf:about="">
        <dc:format>image/svg+xml</dc:format>
        <dc:type
           rdf:resource="http://purl.org/dc/dcmitype/StillImage" />
      </cc:Work>
    </rdf:RDF>
  </metadata>
  <g
     inkscape:label="Capa 1"
     inkscape:groupmode="layer"
     id="layer1">
    <path
       style="fill:#a7d4ff;fill-opacity:1;fill-rule:evenodd;stroke:#000000;stroke-width:12.62656021;stroke-linecap:butt;stroke-linejoin:round;stroke-miterlimit:4;stroke-dasharray:none;stroke-opacity:1"
       d="M 333.07182,414.10326 L 333.20018,364.59154 C 324.23364,378.41443 276.19588,408.70193 266.037,418.96428 C 245.87159,438.50259 195.37681,446.11965 169.77234,460.76024 C 178.74155,485.40417 206.81984,464.40005 201.60986,501.65858 C 214.23733,500.13821 238.7882,500.68968 256.14932,476.65348 L 333.07182,414.10326 z"
       id="path3186"
       sodipodi:nodetypes="ccccccc" />
    <path
       style="opacity:1;fill:#b17020;fill-opacity:1;fill-rule:evenodd;stroke:#000000;stroke-width:12.62656021;stroke-linecap:butt;stroke-linejoin:round;stroke-miterlimit:4;stroke-dasharray:none;stroke-opacity:1"
       d="M 232.78579,582.19562 C 226.04681,597.64358 210.54035,597.56798 194.88306,597.22535 L 139.56017,409.08004 C 154.0628,368.62206 143.70616,310.6798 104.06143,300.28902 C 118.85537,268.82152 140.50993,279.77422 159.64713,275.16188 C 195.37666,282.51721 236.41097,386.69513 188.04773,416.57982 L 231.58253,562.82245 L 232.78579,582.19562 z"
       id="path3188"
       sodipodi:nodetypes="cccccccc" />
    <path
       style="fill:#fab74f;fill-opacity:1;fill-rule:evenodd;stroke:#000000;stroke-width:12.62656021;stroke-linecap:butt;stroke-linejoin:round;stroke-miterlimit:4;stroke-dasharray:none;stroke-opacity:1"
       d="M 437.77598,732.73615 C 436.96854,776.82554 477.65594,826.13688 505.49916,832.17444 C 512.76852,820.20044 516.8265,809.12528 516.84961,797.3776 C 533.7004,806.52945 542.47167,807.54768 558.54177,808.62095 C 562.70542,794.90127 562.67382,785.96087 552.16059,772.4929 C 567.14041,774.33918 581.72655,770.26674 593.21728,764.7738 C 585.1282,742.71541 516.35684,716.75615 489.11759,712.01102 C 451.56467,735.91547 400.55436,682.91735 437.77598,732.73615 z"
       id="path2402"
       sodipodi:nodetypes="cccccccc" />
    <path
       style="fill:#f8b44d;fill-opacity:1;fill-rule:evenodd;stroke:#000000;stroke-width:12.62656021;stroke-linecap:butt;stroke-linejoin:round;stroke-miterlimit:4;stroke-dasharray:none;stroke-opacity:1"
       d="M 287.3637,713.8739 C 248.45543,710.77886 205.03724,733.81388 183.5072,752.33349 C 191.66671,756.2286 207.88759,766.26106 223.99767,764.44389 C 215.58602,776.78417 215.38132,787.68787 216.95299,797.86642 C 227.32779,800.20994 245.52316,798.21018 259.22989,794.54871 C 253.00655,807.12822 251.37073,817.83881 255.14277,829.35829 C 273.73936,829.71689 333.34083,793.36258 356.88746,740.38264 C 306.03496,726.43201 314.47782,750.07504 287.3637,713.8739 z"
       id="path2400"
       sodipodi:nodetypes="cccccccc" />
    <path
       style="fill:#a7d4ff;fill-opacity:1;fill-rule:evenodd;stroke:#000000;stroke-width:12.62656021;stroke-linecap:butt;stroke-linejoin:round;stroke-miterlimit:4;stroke-dasharray:none;stroke-opacity:1"
       d="M 286.46164,358.55307 C 286.46164,358.55307 293.86706,295.12745 320.71986,267.8719 C 387.75007,199.83638 474.37604,237.70706 510.67842,321.44349 C 544.36522,399.14669 608.90859,626.81643 555.98816,702.04432 C 499.84492,788.15163 374.40077,789.12857 291.84119,762.41854 C 266.76369,756.4621 234.37105,716.6321 228.311,693.05924 C 213.9095,637.15889 201.34116,559.77159 256.38906,443.68607 L 272.21893,404.06221 L 286.46164,358.55307 z"
       id="path2396"
       sodipodi:nodetypes="csscccccc" />
    <path
       style="fill:#ffffff;fill-opacity:1;fill-rule:evenodd;stroke:#000000;stroke-width:12.62656021;stroke-linecap:butt;stroke-linejoin:round;stroke-miterlimit:4;stroke-dasharray:none;stroke-opacity:1"
       d="M 274.13845,750.57869 C 228.89355,633.80602 238.82131,462.61543 375.87262,466.54611 C 511.66075,470.44056 524.67902,691.49403 444.09644,771.09541 C 388.76324,787.55708 298.53422,774.19755 274.13845,750.57869 z"
       id="path2398"
       sodipodi:nodetypes="czcc" />
    <path
       style="fill:#ffffff;fill-opacity:1;fill-rule:evenodd;stroke:#000000;stroke-width:12.62656021;stroke-linecap:butt;stroke-linejoin:round;stroke-miterlimit:4;stroke-dasharray:none;stroke-opacity:1"
       d="M 504.02056,369.32641 C 507.79633,393.37651 509.4761,416.22106 522.72984,445.72278 C 513.70446,470.17128 519.27718,481.63253 525.80593,492.24321 C 539.45317,512.28899 543.5922,532.64229 543.48986,553.13275 C 542.81347,574.22287 535.44325,588.65115 553.47659,613.57283 C 566.46392,628.84727 581.57075,642.5725 591.07778,664.04022 C 604.07068,646.33737 607.26252,626.07208 608.03136,605.17332 C 591.78068,589.20361 577.47908,570.73369 580.40822,542.79843 C 577.14313,570.56337 591.56322,590.17092 601.65325,598.45352 C 620.92964,609.39887 619.45605,608.47025 643.13725,613.43601 C 637.44225,586.42754 646.44993,582.34931 644.18493,565.40223 C 641.29259,543.76087 632.37796,517.70894 624.05788,496.04972 L 609.84727,472.15546 C 590.70639,437.74756 576.55265,266.07588 521.31123,304.68658 C 505.82623,325.66549 504.38181,347.46435 504.02056,369.32641 z"
       id="path2406"
       sodipodi:nodetypes="ccccccccccscccc" />
    <path
       style="fill:#a7d4ff;fill-opacity:1;fill-rule:evenodd;stroke:#000000;stroke-width:12.62656021;stroke-linecap:butt;stroke-linejoin:round;stroke-miterlimit:4;stroke-dasharray:none;stroke-opacity:1"
       d="M 553.37829,383.79383 C 575.32532,429.48539 605.90229,475.68083 637.99157,521.96464 C 637.99157,521.96464 657.15641,502.53997 662.49014,492.30593 C 666.56335,484.49047 670.33957,463.99667 670.33957,463.99667 C 658.24785,435.84861 618.87313,379.04778 588.0018,352.9909 C 548.37535,325.25306 545.63783,347.43394 553.37829,383.79383 z"
       id="path2404"
       sodipodi:nodetypes="ccsscc" />
    <path
       style="fill:#f8b44d;fill-opacity:1;fill-rule:evenodd;stroke:#000000;stroke-width:12.09115696;stroke-linecap:butt;stroke-linejoin:round;stroke-miterlimit:4;stroke-dasharray:none;stroke-opacity:1"
       d="M 349.00653,340.00481 C 331.60369,349.45374 309.37732,378.20978 322.77277,429.75126 C 356.76601,453.12067 464.7043,394.30433 419.50941,345.16517 C 398.42559,330.2865 370.67787,331.92387 349.00653,340.00481 z"
       id="path2408"
       sodipodi:nodetypes="cccc" />
    <path
       style="fill:#000001;fill-opacity:1;fill-rule:evenodd;stroke:#000000;stroke-width:12.62656021;stroke-linecap:butt;stroke-linejoin:round;stroke-miterlimit:4;stroke-dasharray:none;stroke-opacity:1"
       d="M 362.41266,284.72895 C 357.46413,293.79788 356.20852,298.15476 356.76458,310.99101 C 357.2323,316.68676 362.34879,316.72944 366.1469,311.983 C 367.08169,299.31603 367.25786,299.43848 371.60173,287.1708 C 370.1856,281.57035 365.14128,282.28505 362.41266,284.72895 z"
       id="path2412"
       sodipodi:nodetypes="ccccc" />
    <path
       style="fill:#a7d4ff;fill-opacity:1;fill-rule:evenodd;stroke:#000000;stroke-width:12.62656021;stroke-linecap:butt;stroke-linejoin:round;stroke-miterlimit:4;stroke-dasharray:none;stroke-opacity:1"
       d="M 124.53456,509.24265 C 136.07586,535.63954 174.06193,524.1701 182.46209,521.89564 C 200.94337,515.91443 193.4478,489.78791 177.24925,486.50126 C 165.52063,484.38262 165.42838,487.15731 153.73706,491.36295 L 162.56908,486.64917 C 159.02836,474.84914 157.26462,471.138 154.45724,460.92358 C 136.2401,459.68312 114.51018,490.41597 124.53456,509.24265 z"
       id="path3190"
       sodipodi:nodetypes="ccccccc" />
    <path
       style="fill:#000001;fill-opacity:1;fill-rule:evenodd;stroke:#000000;stroke-width:12.62656021;stroke-linecap:butt;stroke-linejoin:round;stroke-miterlimit:4;stroke-dasharray:none;stroke-opacity:1"
       d="M 410.11769,285.38263 C 405.16916,294.45154 403.91355,298.80843 404.46961,311.64467 C 404.93731,317.34045 410.05381,317.38314 413.85192,312.63667 C 414.78672,299.96973 414.96289,300.09215 419.30672,287.82445 C 417.8906,282.22401 412.84628,282.93872 410.11769,285.38263 z"
       id="path3192"
       sodipodi:nodetypes="ccccc" />
    <path
       style="fill:none;fill-rule:evenodd;stroke:#000000;stroke-width:12.62656021;stroke-linecap:round;stroke-linejoin:round;stroke-miterlimit:4;stroke-dasharray:none;stroke-opacity:1"
       d="M 120.36954,280.51938 C 171.76187,272.31808 190.66088,361.44238 181.40258,389.95376"
       id="path3198"
       sodipodi:nodetypes="cc" />
    <g
       id="g2406"
       transform="matrix(0.9996543,2.6292132e-2,-2.6292132e-2,0.9996543,28.357124,-21.436183)">
      <path
         sodipodi:nodetypes="ccccc"
         id="path3200"
         d="M 102.78942,314.27247 L 51.346983,324.3802 C 18.721084,333.87073 50.098259,454.6059 84.780172,448.93342 L 143.04585,423.98295 C 157.45446,359.72465 123.73714,316.56691 102.78942,314.27247 z"
         style="opacity:1;fill:#ececec;fill-opacity:1;fill-rule:evenodd;stroke:#000000;stroke-width:12.62656021;stroke-linecap:butt;stroke-linejoin:round;stroke-miterlimit:4;stroke-dasharray:none;stroke-opacity:1" />
      <path
         sodipodi:nodetypes="ccc"
         id="path3202"
         d="M 53.694461,327.3368 C 82.155965,320.60776 110.24728,430.12397 82.675506,450.08604 L 94.12002,445.41744"
         style="fill:none;fill-rule:evenodd;stroke:#000000;stroke-width:3.08632779px;stroke-linecap:butt;stroke-linejoin:miter;stroke-opacity:1" />
      <path
         sodipodi:nodetypes="cc"
         id="path3206"
         d="M 71.623085,335.87881 L 123.78687,325.53132"
         style="fill:none;fill-rule:evenodd;stroke:#000000;stroke-width:3.15664005px;stroke-linecap:butt;stroke-linejoin:miter;stroke-opacity:1" />
      <path
         sodipodi:nodetypes="cc"
         id="path3208"
         d="M 79.799668,349.28292 L 130.4626,338.88732"
         style="fill:none;fill-rule:evenodd;stroke:#000000;stroke-width:3.15664005px;stroke-linecap:butt;stroke-linejoin:miter;stroke-opacity:1" />
      <path
         sodipodi:nodetypes="cc"
         id="path3210"
         d="M 85.264414,364.51494 L 135.2178,354.08808"
         style="fill:none;fill-rule:evenodd;stroke:#000000;stroke-width:3.15664005px;stroke-linecap:butt;stroke-linejoin:miter;stroke-opacity:1" />
      <path
         sodipodi:nodetypes="cc"
         id="path3212"
         d="M 91.139169,380.4253 L 140.32531,369.61482"
         style="fill:none;fill-rule:evenodd;stroke:#000000;stroke-width:3.15664005px;stroke-linecap:butt;stroke-linejoin:miter;stroke-opacity:1" />
      <path
         sodipodi:nodetypes="cc"
         id="path3214"
         d="M 92.824619,396.52371 L 144.28609,383.61998"
         style="fill:none;fill-rule:evenodd;stroke:#000000;stroke-width:3.15664005px;stroke-linecap:butt;stroke-linejoin:miter;stroke-opacity:1" />
      <path
         sodipodi:nodetypes="cc"
         id="path3216"
         d="M 94.128331,411.69752 L 145.12027,397.19873"
         style="fill:none;fill-rule:evenodd;stroke:#000000;stroke-width:3.15664005px;stroke-linecap:butt;stroke-linejoin:miter;stroke-opacity:1" />
      <path
         sodipodi:nodetypes="cc"
         id="path3220"
         d="M 92.948272,426.55921 L 144.3423,409.27041"
         style="fill:none;fill-rule:evenodd;stroke:#000000;stroke-width:3.15664005px;stroke-linecap:butt;stroke-linejoin:miter;stroke-opacity:1" />
    </g>
    <path
       style="fill:none;fill-rule:evenodd;stroke:#000000;stroke-width:12;stroke-linecap:round;stroke-linejoin:round;stroke-miterlimit:4;stroke-dasharray:none;stroke-opacity:1"
       d="M 547.89544,430.39802 C 550.34073,447.08027 554.18884,453.22629 558.6229,461.10916 C 563.05696,468.99204 568.54977,477.28445 569.32936,477.50127"
       id="path3189"
       sodipodi:nodetypes="czc" />
    <path
       style="fill:none;fill-rule:evenodd;stroke:#000000;stroke-width:12;stroke-linecap:round;stroke-linejoin:round;stroke-miterlimit:4;stroke-dasharray:none;stroke-opacity:1"
       d="M 570.17172,498.40641 C 570.66939,499.47082 572.76776,505.56798 572.55169,513.78318"
       id="path3191" />
  </g>
</svg>
