<?xml version="1.0" encoding="UTF-8" standalone="no"?>
<!-- Created with Inkscape (http://www.inkscape.org/) -->

<svg
   xmlns:dc="http://purl.org/dc/elements/1.1/"
   xmlns:cc="http://creativecommons.org/ns#"
   xmlns:rdf="http://www.w3.org/1999/02/22-rdf-syntax-ns#"
   xmlns:svg="http://www.w3.org/2000/svg"
   xmlns="http://www.w3.org/2000/svg"
   xmlns:sodipodi="http://sodipodi.sourceforge.net/DTD/sodipodi-0.dtd"
   xmlns:inkscape="http://www.inkscape.org/namespaces/inkscape"
   version="1.1"
   id="svg2"
   width="1950.72"
   height="211.2"
   viewBox="0 0 1950.72 211.2"
   sodipodi:docname="banner1-acoplado.svg"
   inkscape:version="0.92.1 r15371">
  <metadata
     id="metadata8">
    <rdf:RDF>
      <cc:Work
         rdf:about="">
        <dc:format>image/svg+xml</dc:format>
        <dc:type
           rdf:resource="http://purl.org/dc/dcmitype/StillImage" />
        <dc:title></dc:title>
      </cc:Work>
    </rdf:RDF>
  </metadata>
  <defs
     id="defs6" />
  <sodipodi:namedview
     pagecolor="#ffffff"
     bordercolor="#666666"
     borderopacity="1"
     objecttolerance="10"
     gridtolerance="10"
     guidetolerance="10"
     inkscape:pageopacity="0"
     inkscape:pageshadow="2"
     inkscape:window-width="1920"
     inkscape:window-height="1012"
     id="namedview4"
     showgrid="false"
     showguides="true"
     inkscape:guide-bbox="true"
     inkscape:zoom="0.405"
     inkscape:cx="145.53925"
     inkscape:cy="122.87786"
     inkscape:window-x="0"
     inkscape:window-y="0"
     inkscape:window-maximized="1"
     inkscape:current-layer="layer2">
    <sodipodi:guide
       position="-19.20537,55.433681"
       orientation="0,1"
       id="guide5313"
       inkscape:locked="false" />
    <sodipodi:guide
       position="-30.990483,204.2753"
       orientation="0,1"
       id="guide6267"
       inkscape:locked="false" />
    <sodipodi:guide
       position="75.075536,6.9837708"
       orientation="0,1"
       id="guide6269"
       inkscape:locked="false" />
    <sodipodi:guide
       position="8.7297135,180.70507"
       orientation="1,0"
       id="guide6271"
       inkscape:locked="false" />
    <sodipodi:guide
       position="262.76438,-117.85113"
       orientation="1,0"
       id="guide6273"
       inkscape:locked="false" />
  </sodipodi:namedview>
  <g
     inkscape:groupmode="layer"
     id="layer2"
     inkscape:label="logo"
     style="display:inline">
    <path
       inkscape:connector-curvature="0"
       id="path1557-3"
       style="display:inline;fill:#5da2de;fill-opacity:1;fill-rule:evenodd;stroke:none;stroke-width:0.30409762px;stroke-linecap:butt;stroke-linejoin:miter;stroke-opacity:1"
       d="m 87.604156,18.56464 9.50305,5.16966 4.409414,2.204707 c 0,0 1.74857,-1.748561 5.39775,-3.953268 3.64917,-2.204708 7.67846,-4.48544 11.70775,-5.549782 4.0293,-1.064341 7.22232,-1.21639 7.22232,-1.21639 V 204.21622 h -1.67254 c 0,0 -2.20471,-1.48247 -2.5088,-1.63452 -0.3041,-0.15205 -1.52048,-0.038 -1.52048,-0.038 l 0.60818,1.67253 -20.868704,-0.19006 -4.523452,-3.07898 0.15205,-43.9421 -47.819346,-0.076 c 0,0 -1.140366,-0.6082 -1.90061,-2.66085 -0.760244,-2.05266 -0.836269,-4.40942 0,-4.94159 0.836268,-0.53218 3.117,-0.98832 3.040975,-2.28073 -0.07602,-1.29244 -1.444463,-1.44447 -2.736877,-1.52049 -1.292416,-0.076 -3.117001,0.53216 -4.105318,-0.15206 -0.988317,-0.68421 -1.444464,-2.35675 -1.520488,-3.49712 -0.07602,-1.14036 -0.836268,-1.74856 -1.596512,-1.90061 -0.760245,-0.15205 -4.181342,-0.076 -5.777855,-1.52049 -1.596512,-1.44447 -1.368439,-4.25736 -1.596512,-6.53809 -0.228073,-2.28073 0,-2.20471 -0.684219,-2.96495 -0.68422,-0.76024 -3.421099,-1.14037 -4.257367,-2.66085 -0.836268,-1.5205 -0.152048,-5.16966 -0.152048,-6.69015 0,-1.52048 -0.608196,-4.3334 -0.68422,-4.86555 -0.07602,-0.53218 -0.608195,-3.95329 -0.608195,-3.95329 l -0.152049,-1.14036 z M 81.978351,95.881452 56.282105,133.36149 h 25.696246 z" />
    <path
       style="display:inline;fill:#5da2de;fill-opacity:1;fill-rule:evenodd;stroke:none;stroke-width:0.30409762px;stroke-linecap:butt;stroke-linejoin:miter;stroke-opacity:1"
       d="m 134.73932,15.143543 c 0,0 5.16966,0.380122 8.66679,1.368439 3.49711,0.988317 11.2516,4.485439 14.29258,6.690147 3.04097,2.204708 6.91823,5.70183 9.80715,8.362684 2.88892,2.660853 7.1463,7.222317 8.97088,9.198952 1.82459,1.976634 6.08195,5.777854 9.42703,8.362683 3.34506,2.58483 7.60244,3.953269 8.51472,4.333391 0.9123,0.380122 8.81884,2.052659 12.77211,-2.432781 3.95326,-4.485439 4.94159,-5.777854 6.31001,-13.380294 1.36845,-7.60244 -1.36842,-12.772098 -3.04096,-15.356928 -1.67254,-2.584829 -5.70184,-7.526416 -7.37437,-8.81883 -1.67255,-1.292415 -3.7252,-2.812902 -6.46208,-4.1813407 C 193.88631,7.921226 191.52955,7.160982 191.52955,7.160982 l 42.42162,0.076025 c 0,0 2.5088,1.9766343 4.48544,4.86556 1.97663,2.888927 4.18133,6.310025 5.09363,8.210635 0.91229,1.90061 3.11699,9.198951 3.34507,20.75466 0.22808,11.555708 -3.80122,18.093807 -7.22232,22.731295 -3.42109,4.637487 -6.53809,9.198951 -12.468,13.076196 -5.9299,3.877245 -10.94752,6.386049 -10.94752,6.386049 l 0.15203,-21.590928 h -33.83086 l -0.0153,36.385276 -0.13683,2.1591 c 0,0 -1.97663,-0.988324 -3.80121,-1.292422 -1.82458,-0.304098 -6.46207,-1.292414 -9.50305,-2.204708 -3.04098,-0.912292 -7.14629,-3.573147 -10.18727,-4.941585 -3.04097,-1.368439 -3.64917,-0.836268 -3.64917,-0.836268 0,0 -0.53217,0.380121 0.22808,1.444463 0.76024,1.064341 0.91228,1.748561 1.36843,3.725195 0.45615,1.976635 0.3041,3.953275 1.29243,5.549785 0.9883,1.59651 1.44445,2.28073 3.04096,2.73689 1.59652,0.45614 3.34507,0 5.16966,-0.22808 1.82458,-0.22808 5.54979,-1.52049 8.74281,-0.15205 3.19303,1.36843 4.40942,4.63749 4.94158,7.90653 0.53218,3.26905 0.0759,6.91823 -0.98831,8.89486 -1.06434,1.97663 -5.70183,5.16966 -8.81883,6.69014 -3.117,1.5205 -5.32171,2.73689 -5.47376,3.49714 -0.15204,0.76023 0.53217,1.97663 1.44446,2.5088 0.9123,0.53217 3.95328,2.20469 5.39774,3.42108 1.44446,1.21639 1.44446,3.95328 0.76024,5.01761 -0.68422,1.06435 -3.87724,2.58483 -5.70183,3.11701 -1.82458,0.53217 -4.86556,1.29241 -5.09363,1.82458 -0.22808,0.53218 0.15204,1.52049 0.30409,2.73689 0.15205,1.21639 -0.15205,4.18134 -0.30409,5.85387 -0.15206,1.67254 -1.06434,4.02931 -2.20471,4.86557 -1.14036,0.83626 -5.09364,0.76024 -6.84219,0.68422 -1.74857,-0.076 -7.4504,0.15204 -9.35101,0.98831 -1.90061,0.83626 -3.26905,2.73688 -3.87724,3.49712 -0.6082,0.76025 -0.68422,2.35676 -0.38012,3.26906 0.3041,0.91228 1.2924,2.12868 2.28073,3.95326 0.98832,1.82458 1.29241,3.95327 1.21638,5.24569 -0.076,1.29241 -4.18134,4.63748 -4.18134,4.63748 l -3.37044,1.70634 z"
       id="path1978-67"
       inkscape:connector-curvature="0"
       sodipodi:nodetypes="csssssssssssccssssscccccssscssssssssssssssssssssssssccc" />
    <path
       id="path852-5"
       style="display:inline;fill:#3465a3;fill-opacity:1;fill-rule:evenodd;stroke:none;stroke-width:0.30409762px;stroke-linecap:butt;stroke-linejoin:miter;stroke-opacity:1"
       d="M 56.282105,133.36149 81.978351,95.881452 V 133.36149 Z M 95.510694,7.160982 H 125.84444 V 204.21622 H 95.510694 V 157.00508 H 8.9949301 v -23.94769 z"
       inkscape:connector-curvature="0" />
    <path
       inkscape:connector-curvature="0"
       id="path852-7"
       style="display:inline;fill:#5da2de;fill-opacity:1;fill-rule:evenodd;stroke:none;stroke-width:0.30409762px;stroke-linecap:butt;stroke-linejoin:miter;stroke-opacity:1"
       d="M 56.282105,133.36149 81.978351,95.881452 v 37.480038 z m 31.322051,-114.79683 9.50305,5.169659 4.409414,2.204708 c 0,0 1.74857,-1.74856 5.39775,-3.953268 3.64917,-2.204708 7.67846,-4.48544 11.70775,-5.549782 4.0293,-1.064341 7.22232,-1.21639 7.22232,-1.21639 V 204.21622 h -1.67254 c 0,0 -2.20471,-1.48247 -2.5088,-1.63452 -0.3041,-0.15205 -1.52048,-0.038 -1.52048,-0.038 l 0.60818,1.67253 -20.868704,-0.19006 -4.523452,-3.07898 0.15205,-43.9421 -47.819317,-0.076 c 0,0 -1.140367,-0.6082 -1.90061,-2.66085 -0.760224,-2.05266 -0.836249,-4.40942 0,-4.94159 0.836268,-0.53218 3.117,-0.98832 3.040976,-2.28073 -0.07602,-1.29244 -1.444464,-1.44447 -2.736879,-1.52049 -1.292394,-0.076 -3.11698,0.53216 -4.105298,-0.15206 -0.988316,-0.68421 -1.444462,-2.35675 -1.520487,-3.49712 -0.07602,-1.14036 -0.836269,-1.74856 -1.596512,-1.90061 -0.760244,-0.15205 -4.181342,-0.076 -5.777854,-1.52049 -1.596512,-1.44447 -1.368439,-4.25736 -1.596512,-6.53809 -0.228074,-2.28073 0,-2.20471 -0.684221,-2.96495 -0.684219,-0.76024 -3.421097,-1.14037 -4.257366,-2.66085 -0.836268,-1.5205 -0.152049,-5.16966 -0.152049,-6.69015 0,-1.52048 -0.608194,-4.3334 -0.684219,-4.86555 -0.07602,-0.53218 -0.608196,-3.95329 -0.608196,-3.95329 l -0.152048,-1.14036 z" />
    <path
       id="path856-3"
       style="display:inline;fill:#3465a3;fill-opacity:1;fill-rule:evenodd;stroke:none;stroke-width:0.30409762px;stroke-linecap:butt;stroke-linejoin:miter;stroke-opacity:1"
       d="M 182.55864,61.670474 H 216.3895 V 157.00508 H 182.55864 Z M 134.67847,7.0089332 262.76438,7.160982 V 204.21623 H 134.89133 Z"
       inkscape:connector-curvature="0" />
    <path
       style="display:inline;fill:#5da2de;fill-opacity:1;fill-rule:evenodd;stroke:none;stroke-width:0.30409762px;stroke-linecap:butt;stroke-linejoin:miter;stroke-opacity:1"
       d="m 134.73932,15.143543 c 0,0 5.16966,0.380122 8.66679,1.368439 3.49711,0.988317 11.2516,4.485439 14.29258,6.690147 3.04097,2.204708 6.91823,5.70183 9.80715,8.362684 2.88892,2.660853 7.1463,7.222317 8.97088,9.198952 1.82459,1.976634 6.08195,5.777854 9.42703,8.362683 3.34506,2.58483 7.60244,3.953269 8.51472,4.333391 0.9123,0.380122 8.81884,2.052659 12.77211,-2.432781 3.95326,-4.485439 4.94159,-5.777854 6.31001,-13.380294 1.36845,-7.60244 -1.36842,-12.772098 -3.04096,-15.356928 -1.67254,-2.584829 -5.70184,-7.526416 -7.37437,-8.81883 -1.67255,-1.292415 -3.7252,-2.812902 -6.46208,-4.1813407 C 193.88631,7.921226 191.52955,7.160982 191.52955,7.160982 l 42.42162,0.076025 c 0,0 2.5088,1.9766343 4.48544,4.86556 1.97663,2.888927 4.18133,6.310025 5.09363,8.210635 0.91229,1.90061 3.11699,9.198951 3.34507,20.75466 0.22808,11.555708 -3.80122,18.093807 -7.22232,22.731295 -3.42109,4.637487 -6.53809,9.198951 -12.468,13.076196 -5.9299,3.877245 -10.94752,6.386049 -10.94752,6.386049 l 0.15203,-21.590928 h -33.83086 l -0.22805,36.339661 0.076,2.204715 c 0,0 -1.97663,-0.988324 -3.80121,-1.292422 -1.82458,-0.304098 -6.46207,-1.292414 -9.50305,-2.204708 -3.04098,-0.912292 -7.14629,-3.573147 -10.18727,-4.941585 -3.04097,-1.368439 -3.64917,-0.836268 -3.64917,-0.836268 0,0 -0.53217,0.380121 0.22808,1.444463 0.76024,1.064341 0.91228,1.748561 1.36843,3.725195 0.45615,1.976635 0.3041,3.953275 1.29243,5.549785 0.9883,1.59651 1.44445,2.28073 3.04096,2.73689 1.59652,0.45614 3.34507,0 5.16966,-0.22808 1.82458,-0.22808 5.54979,-1.52049 8.7428,-0.15205 3.19304,1.36843 4.40943,4.63749 4.94159,7.90653 0.53218,3.26905 0.076,6.91823 -0.98831,8.89486 -1.06435,1.97663 -5.70183,5.16966 -8.81883,6.69014 -3.117,1.5205 -5.32171,2.73689 -5.47376,3.49714 -0.15204,0.76023 0.53217,1.97663 1.44446,2.5088 0.9123,0.53217 3.95328,2.20469 5.39774,3.42108 1.44446,1.21639 1.44446,3.95328 0.76024,5.01761 -0.68422,1.06435 -3.87724,2.58483 -5.70183,3.11701 -1.82459,0.53217 -4.86556,1.29241 -5.09363,1.82458 -0.22808,0.53218 0.15204,1.52049 0.30409,2.73689 0.15205,1.21639 -0.15205,4.18134 -0.30409,5.85387 -0.15206,1.67254 -1.06434,4.02931 -2.20471,4.86557 -1.14036,0.83626 -5.09364,0.76024 -6.8422,0.68422 -1.74856,-0.076 -7.45039,0.15204 -9.351,0.98831 -1.90061,0.83626 -3.26905,2.73688 -3.87724,3.49712 -0.6082,0.76025 -0.68422,2.35676 -0.38012,3.26906 0.3041,0.91228 1.2924,2.12868 2.28073,3.95326 0.98832,1.82458 1.29241,3.95327 1.21638,5.24569 -0.076,1.29241 -4.18134,4.63748 -4.18134,4.63748 l -3.37044,1.70634 z"
       id="path1978-6"
       inkscape:connector-curvature="0"
       sodipodi:nodetypes="csssssssssssccssssscccccssscssssssssssssssssssssssssccc" />
    <path
       style="display:inline;fill:#0b2869;fill-opacity:1;fill-rule:evenodd;stroke:none;stroke-width:0.30409762px;stroke-linecap:butt;stroke-linejoin:miter;stroke-opacity:1"
       d="m 118.2268,24.616183 c 0,0 1.94622,-0.608196 3.22343,-0.912293 1.27721,-0.304098 2.43278,-0.669014 3.16262,-0.669014 0.72982,0 1.21638,-0.06078 1.21638,-0.06078 l 0.0304,5.899494 c 0,0 -2.21991,-1.21639 -4.22696,-2.128683 -2.00703,-0.912294 -2.91933,-1.277211 -3.16261,-1.459669 -0.24327,-0.182458 -0.24327,-0.669014 -0.24327,-0.669014 z"
       id="path1596-5"
       inkscape:connector-curvature="0"
       sodipodi:nodetypes="cssccssc" />
    <path
       style="display:inline;fill:#0b2869;fill-opacity:1;fill-rule:evenodd;stroke:none;stroke-width:0.30409762px;stroke-linecap:butt;stroke-linejoin:miter;stroke-opacity:1"
       d="m 117.67942,114.50744 c 0,0 0.97311,1.15557 0.36491,2.4936 -0.60819,1.33802 -3.64916,1.64212 -5.65621,0.91228 -2.00704,-0.72983 -3.34508,-1.94621 -3.22343,-3.95326 0.12164,-2.00704 2.61524,-2.98015 4.6831,-3.16262 2.06787,-0.18246 4.62228,0.12164 6.93342,0.85147 2.31115,0.72985 5.10884,2.31115 5.10884,2.31115 l -0.0304,3.83162 c 0,0 -2.21991,-1.52048 -4.28777,-2.61523 -2.06786,-1.09476 -3.89245,-0.66901 -3.89245,-0.66901 z"
       id="path1637-6"
       inkscape:connector-curvature="0"
       sodipodi:nodetypes="csssssccsc" />
    <path
       style="display:inline;fill:#0b2869;fill-opacity:1;fill-rule:evenodd;stroke:none;stroke-width:0.30409762px;stroke-linecap:butt;stroke-linejoin:miter;stroke-opacity:1"
       d="m 94.203073,87.807662 c 0,0 3.040976,-0.973113 3.89245,-1.581308 0.851473,-0.608196 1.581313,-1.33803 1.702943,-2.250322 0.12165,-0.912293 0.486564,-2.250322 0.486564,-2.250322 0,0 0,-0.729835 0.0608,-0.182459 0.0608,0.547375 0.3041,2.980156 0.0608,3.77081 -0.24328,0.790654 -1.398854,1.824586 -1.946221,2.128683 -0.54738,0.304098 -2.615244,0.486556 -2.615244,0.486556 l -1.702946,0.121639 z"
       id="path1641-2"
       inkscape:connector-curvature="0" />
    <path
       style="display:inline;fill:#0b2869;fill-opacity:1;fill-rule:evenodd;stroke:none;stroke-width:0.30409762px;stroke-linecap:butt;stroke-linejoin:miter;stroke-opacity:1"
       d="m 134.7697,144.85637 c 0,0 2.43279,-0.6082 4.74393,-1.09476 2.31113,-0.48656 7.66325,-0.72983 10.09604,-0.79066 2.43278,-0.0608 9.60947,0.24328 11.37325,0.24328 1.76376,0 5.59539,-0.91229 7.11588,-1.64213 1.52049,-0.72982 1.52049,-2.61523 1.21639,-3.28424 -0.3041,-0.66902 -2.25032,-1.64213 -3.22343,-2.00705 -0.97311,-0.36492 -3.28427,-2.18949 -3.52754,-2.61522 -0.24327,-0.42574 -1.15557,-1.39885 -1.15557,-1.39885 0,0 -2.18951,0.54737 -3.64917,0.54737 -1.45967,0 -4.62228,0.30409 -4.62228,0.30409 0,0 -3.28426,0.24329 -3.71,0.12165 -0.42573,-0.12165 -1.45966,-0.24328 -0.48654,-0.48656 0.9731,-0.24328 6.2644,-1.82459 9.67029,-2.73688 3.40589,-0.91228 8.69719,-3.46671 9.67031,-3.95326 0.97311,-0.48657 6.5685,-4.68312 7.48081,-5.8995 0.91228,-1.21639 1.70293,-2.1895 1.58129,-5.23048 -0.12163,-3.04098 -0.18244,-4.74393 -0.66901,-6.08196 -0.48655,-1.33801 -0.91228,-2.43277 -3.22344,-2.98014 -2.31114,-0.54738 -3.7708,-0.36492 -5.71702,0.0608 -1.94623,0.42574 -4.68311,1.39885 -7.78491,-0.12163 -3.10179,-1.5205 -6.02112,-3.4059 -7.54161,-5.10885 -1.52049,-1.702952 -2.25033,-3.588352 -3.89246,-6.021133 -1.64212,-2.432781 -4.25736,-5.838673 -4.86556,-6.629328 -0.60819,-0.790653 -3.10179,-3.527531 -5.16966,-5.534575 -2.06786,-2.007044 -3.64917,-3.345074 -3.64917,-3.345074 v -4.074907 l 1.64213,1.581307 1.03393,0.790654 c 0,0 0,-1.824586 0.42573,-2.55442 0.42574,-0.729834 0.60821,-1.155571 0.60821,-1.155571 0,0 -0.97312,-0.06078 -1.45967,-0.121639 -0.48656,-0.06078 -2.31115,0.364917 -2.31115,0.364917 l -0.0304,-2.615239 c 0,0 3.07139,-0.973113 4.16614,-1.338029 1.09475,-0.364918 3.52753,-0.304098 5.10884,-0.304098 1.58131,0 2.7977,0.608196 3.58835,0.121639 0.79066,-0.486556 1.45967,-1.27721 1.45967,-1.27721 0,0 1.15556,-1.033932 1.52049,-1.763766 0.36491,-0.729833 0.36491,-2.128683 0.36491,-3.709991 0,-1.581306 -0.42574,-3.223433 -1.03393,-4.318185 -0.60819,-1.094751 -1.52048,-1.946225 -2.91933,-2.736878 -1.39885,-0.790654 -3.71,-2.128683 -4.50065,-3.709991 -0.79065,-1.581307 -1.09475,-3.345074 -1.33803,-3.953269 -0.24327,-0.608194 -0.66902,-2.371961 -0.85147,-2.676058 -0.18246,-0.304097 0.0608,-0.182459 -0.48656,-0.669015 -0.54737,-0.486557 -2.61523,-0.547376 -2.61523,-0.547376 h -2.4936 l 0.0304,-21.895025 c 0,0 4.83515,0.669014 6.78137,1.277208 1.94623,0.608196 8.75802,3.770811 11.61654,5.291299 2.85852,1.520489 6.93342,4.987201 9.12292,7.055064 2.18951,2.067864 9.06212,8.758011 10.76506,10.278499 1.70295,1.520488 5.04802,4.196546 6.26441,4.9872 1.21639,0.790654 4.43982,3.101795 6.08195,3.77081 1.64213,0.669015 5.96031,2.007045 7.35916,2.736879 1.39885,0.729833 3.28426,2.007043 3.28426,2.007043 l 2.61523,1.824586 -16.07155,-0.167254 -0.28889,9.411821 c 0,0 -0.72984,-2.676059 -0.85147,-3.040977 -0.12165,-0.364917 -0.97312,-1.885405 -1.27722,-2.371961 -0.3041,-0.486556 -1.76376,-2.858518 -2.91933,-3.953268 -1.15558,-1.094751 -3.46672,-3.89245 -5.35212,-5.534577 -1.88541,-1.642126 -3.4059,-2.797698 -4.74392,-3.770809 -1.33803,-0.973113 -5.59539,-2.736878 -7.41998,-3.588353 -1.82459,-0.851472 -5.96032,-1.459668 -9.18376,-1.702945 -3.22342,-0.243279 -4.56146,0.182458 -5.41293,1.155571 -0.85147,0.973112 -0.48656,2.919336 -0.18246,3.223434 0.3041,0.304098 1.58131,1.763766 2.37197,2.371961 0.79065,0.608195 2.55441,1.642127 3.64916,2.858517 1.09476,1.21639 1.94623,2.797698 2.31114,4.561464 0.36492,1.763766 -0.18245,4.804743 -0.36491,5.656215 -0.18247,0.851474 -1.45966,2.371962 -1.82459,2.4936 -0.36491,0.12164 -1.52049,1.155572 -1.52049,1.155572 0,0 0.72984,0.486556 1.70295,0.973111 0.97311,0.486557 1.45966,0.425738 2.18951,1.27721 0.72983,0.851474 1.2772,2.493601 1.39885,2.980157 0.12163,0.486557 0.0608,0.547375 0,0.973111 -0.0608,0.425738 -0.42575,0.729835 -0.42575,0.729835 l -1.2772,-0.243278 c 0,0 -1.39885,-0.729834 -1.64213,-1.033931 -0.24328,-0.304098 -0.3041,-0.669015 -0.97312,-0.973113 -0.66901,-0.304098 -1.82458,-0.486555 -1.82458,-0.486555 l -0.42573,0.364916 c 0,0 0.48655,1.581308 0.24327,2.676059 -0.24327,1.094751 -1.33803,2.128683 -2.06785,2.311141 -0.72985,0.182459 -3.70999,0.364918 -3.70999,0.364918 h -2.25034 c 0,0 0.0608,0.06078 0.18247,0.486556 0.12164,0.425736 1.5813,1.581307 2.55441,1.520488 0.97312,-0.06078 2.85851,-0.304097 3.34508,-0.608195 0.48655,-0.304098 2.7977,-0.973113 3.52753,-1.459669 0.72983,-0.486556 2.55442,-0.729834 3.22343,-0.851473 0.66902,-0.121639 1.70295,-0.182459 1.58132,0.06078 -0.12165,0.243278 -0.18247,0.364917 -0.6082,0.669015 -0.42574,0.304098 -1.39885,0.608195 -2.00704,1.09475 -0.6082,0.486556 -0.9123,0.486556 -0.79066,1.094752 0.12163,0.608195 0.66901,0.790653 0.9123,1.642127 0.24327,0.851473 1.15556,2.311141 1.2772,2.615239 0.12165,0.304098 1.09475,1.27721 1.39885,1.459669 0.3041,0.182458 2.43278,1.216391 4.01409,1.763765 1.58131,0.547376 4.74392,1.885406 5.35212,2.493602 0.60819,0.608194 3.95326,1.763765 4.80474,2.189502 0.85147,0.425736 3.10179,1.033931 4.13573,1.338029 1.03393,0.304098 3.34507,0.425737 4.50064,0.729835 1.15557,0.304098 2.55442,0.608194 2.55442,0.608194 l 2.09828,0.699424 -0.0304,2.56963 c 0,0 -4.37901,-1.140364 -5.5954,-1.566114 -1.2164,-0.42573 -5.77786,-1.277203 -6.75096,-1.5813 -0.97312,-0.304098 -4.19655,-1.398849 -5.10885,-1.946225 -0.91229,-0.547376 -5.59539,-3.223434 -5.59539,-3.223434 0,0 -2.98016,-1.155572 -3.46671,-1.277211 -0.48657,-0.121639 -0.66901,0.243279 -0.66901,0.243279 0,0 0.42572,-0.12164 0.85146,0.912293 0.42574,1.033932 0.97311,2.980156 1.03393,3.588351 0.0608,0.608195 0.24328,1.520488 0.42575,2.980155 0.18244,1.459676 0.72983,2.615246 1.39885,3.466716 0.66901,0.85148 1.64212,1.76377 3.16261,1.94623 1.52049,0.18246 3.77081,-0.36492 5.47375,-0.6082 1.70295,-0.24327 4.47024,-0.72983 7.20712,0.24328 2.73687,0.97312 3.98367,2.91934 4.65268,5.16966 0.66902,2.25032 1.15558,5.10883 0.85148,8.21063 -0.3041,3.10179 -2.12868,5.59539 -6.5685,8.45392 -4.43983,2.85852 -6.08195,3.83163 -7.05507,4.25737 -0.97311,0.42573 -1.76376,0.66901 -1.76376,0.91228 0,0.24329 0.0608,0.72984 0.42573,1.33804 0.36492,0.60819 2.00705,1.5813 2.61524,2.00704 0.60819,0.42573 2.91933,1.5813 3.70999,2.43277 0.79065,0.85147 1.52049,2.67606 1.2164,4.07491 -0.30411,1.39885 -2.43278,3.22344 -4.0141,3.89245 -1.5813,0.66901 -3.83162,1.09475 -4.43983,1.33803 -0.60819,0.24327 -2.06786,0.79065 -2.43277,0.97311 -0.36493,0.18247 -0.79066,0.36493 -0.54737,1.15558 0.24327,0.79065 1.09475,4.43983 0.0608,8.27146 -1.03393,3.83163 -2.00704,4.19655 -3.70999,4.74392 -1.70295,0.54738 -8.14981,0.72983 -10.15686,0.60819 -2.00705,-0.12163 -4.31818,0.48656 -5.83868,1.58131 -1.52048,1.09476 -2.49359,2.67605 -2.67605,3.70999 -0.18247,1.03393 0.24327,2.85851 0.72984,3.46671 0.48654,0.6082 1.70295,2.55441 2.18949,3.34508 0.48657,0.79065 0.85148,3.52753 0.42574,4.62228 -0.42574,1.09475 -2.31113,2.85852 -3.16261,3.46671 -0.85147,0.6082 -2.12869,1.52049 -2.73688,1.76377 -0.60819,0.24328 -1.78911,0.73323 -1.78911,0.73323 l 0.0252,-3.63737 c 0,0 3.58836,-1.17077 4.0141,-3.29946 0.42573,-2.12867 -0.48655,-3.7708 -1.45966,-5.04801 -0.97312,-1.27721 -2.57808,-2.7335 -2.57808,-2.7335 l -0.0371,-10.64679 c 0,0 2.98016,-0.0608 6.14277,-0.36493 3.16262,-0.3041 6.26442,-0.54737 8.87965,-0.18244 2.61524,0.36491 3.77081,0.48654 5.41294,0.18244 1.64212,-0.3041 2.67606,-0.54737 3.22344,-2.1895 0.54738,-1.64212 0.72982,-3.95326 0.42573,-5.53457 -0.3041,-1.58131 -0.12164,-1.76377 -0.42573,-2.43278 -0.3041,-0.66901 0.30409,-1.15557 -0.72984,-1.21639 -1.03393,-0.0608 -2.98016,-0.0608 -3.52753,-0.12165 -0.54738,-0.0608 -7.11589,-0.36492 -7.90654,-0.48656 -0.79065,-0.12164 -5.83867,0.36493 -6.81178,0.24328 -0.97311,-0.12164 -4.74393,0.54738 -4.74393,0.54738 z"
       id="path1645-9"
       inkscape:connector-curvature="0"
       sodipodi:nodetypes="cssssssscscssssssssssssssccccscsccssscsssssssscccsssssssccccsssssssssssssscssssccssccssccssssssssssssssssscccssscscssssssssssssssssssssssssssssssccssccsssssssssscc" />
    <path
       style="display:inline;fill:#0b2869;fill-opacity:1;fill-rule:evenodd;stroke:none;stroke-width:0.30409762px;stroke-linecap:butt;stroke-linejoin:miter;stroke-opacity:1"
       d="m 134.7697,55.26922 c 0,0 -0.12163,-0.364918 2.43279,-0.669015 2.55441,-0.304098 3.64916,0.304097 4.25736,0.912293 0.60819,0.608194 0.60819,2.189503 0,2.615239 -0.6082,0.425736 -3.22344,1.763765 -3.52754,2.493599 -0.30409,0.729835 -0.66901,1.338031 -0.30409,1.520489 0.36492,0.182458 2.06787,0 3.77081,0.182458 1.70295,0.182459 2.7977,0.608196 3.4059,1.155571 0.60819,0.547376 0.79065,1.216391 0.79065,1.216391 0,0 0.3041,0.547375 -0.18246,0.425736 -0.48656,-0.121638 -0.54738,-0.425736 -1.21639,-0.973112 -0.66902,-0.547375 -2.43278,-0.973112 -3.83163,-0.790654 -1.39885,0.182459 -2.12869,-0.06078 -2.73688,0.425737 -0.6082,0.486556 -0.79066,0.364917 -0.85147,0.669014 -0.0608,0.304098 -0.48657,0.669015 -0.54738,1.033932 -0.0608,0.364917 0.0608,0.425737 -0.18245,0.790654 -0.24328,0.364917 -1.33803,1.642127 -1.33803,1.642127 V 55.451677 Z"
       id="path1653-1"
       inkscape:connector-curvature="0" />
    <path
       style="display:inline;fill:#0b2869;fill-opacity:1;fill-rule:evenodd;stroke:none;stroke-width:0.30409762px;stroke-linecap:butt;stroke-linejoin:miter;stroke-opacity:1"
       d="m 200.21151,61.776907 16.17799,-0.106433 -0.12164,8.377888 c 0,0 1.21639,0.851474 2.00703,1.33803 0.79066,0.486555 2.06787,1.27721 2.06787,1.27721 0,0 -1.21638,-3.405893 -1.27721,-3.709991 -0.0608,-0.304097 -0.48655,-2.4936 -0.48655,-2.4936 0,0 3.58835,0.243278 4.0749,0.243278 0.48656,0 3.1018,0.425737 3.1018,0.425737 0,0 1.03394,0.425736 0.66902,-0.182459 -0.36492,-0.608196 -2.98016,-3.405893 -2.98016,-3.405893 L 222.958,62.628381 h 6.99425 l -1.03393,-1.763766 -1.8854,-2.4936 -1.15558,-1.398849 V 56.54643 c 0,0 1.52049,-0.243278 2.85851,-0.364917 1.33804,-0.12164 3.16263,-0.486557 3.16263,-0.486557 0,0 -0.18246,-0.364917 -0.9123,-1.094751 -0.72984,-0.729834 -2.73688,-2.919337 -2.73688,-2.919337 l -0.72983,-1.033932 c 0,0 1.39885,-0.669015 2.98016,-1.033931 1.5813,-0.364918 2.25031,-0.547377 3.10178,-0.729834 0.85148,-0.182459 1.70295,0 1.45968,-0.425737 -0.24328,-0.425738 -3.04097,-2.371961 -3.04097,-2.371961 l -2.73689,-2.067864 -0.66902,-0.729835 c 0,0 2.67607,-1.581307 3.40591,-2.007043 0.72982,-0.425737 2.25031,-1.338031 2.25031,-1.338031 l 0.42574,-0.243277 c 0,0 0.18246,-0.182459 -0.0608,-0.364918 -0.24328,-0.182457 -1.09475,-0.790653 -1.09475,-0.790653 l -2.31114,-1.21639 c 0,0 -0.97312,-0.608195 -0.97312,-0.851474 0,-0.243277 0.24329,-0.486556 0.36493,-0.851472 0.12163,-0.364918 1.64212,-1.763767 2.06786,-2.189503 0.42574,-0.425737 1.64213,-1.398849 1.64213,-1.398849 0,0 0.48655,-0.304098 0.36491,-0.669015 -0.12164,-0.364917 -0.36491,-0.608195 -0.79066,-0.973112 -0.42573,-0.364917 -1.88539,-1.642127 -2.31113,-2.128683 -0.42574,-0.486556 -1.64213,-1.824586 -1.64213,-1.824586 0,0 -0.36492,-0.425736 -0.24329,-0.790654 0.12165,-0.364917 0.79067,-2.615238 0.79067,-2.615238 l 0.48655,-1.033933 c 0,0 0.3041,-0.364917 0.36491,-0.790653 0.0608,-0.425737 -0.24328,-1.094751 -0.24328,-1.094751 0,0 -0.48654,-0.486557 -0.85147,-0.669015 -0.36491,-0.18246 -2.06786,-1.398849 -2.06786,-1.398849 l -0.79065,-0.851474 c 0,0 -0.12164,-0.243277 -0.24328,-0.729834 -0.12163,-0.486556 -0.6082,-2.432781 -0.6082,-2.919336 0,-0.486556 -0.60819,-2.55442 -0.60819,-2.55442 0,0 -0.24328,-0.182459 -0.42574,-0.425737 -0.18245,-0.243277 -2.4936,-1.3988487 -2.4936,-1.3988487 l -2.12868,-1.2163895 -0.72984,-0.7906538 -15.14406,0.1824586 0.72985,1.6421266 c 0,0 5.83866,1.3988488 6.56849,1.6421268 0.72984,0.243278 1.03394,1.338028 1.15558,1.642126 0.12164,0.304098 0.0608,3.892449 0.0608,4.196547 0,0.304098 -0.3041,0.973112 0.79065,1.27721 1.09475,0.304098 3.83163,1.581307 4.19654,2.007044 0.36493,0.425737 0.0608,2.493601 0,2.858517 -0.0608,0.364918 -1.33802,2.676059 -1.03392,3.709991 0.3041,1.033931 1.70295,2.371961 2.12867,2.797698 0.42575,0.425737 1.64214,1.642127 1.76378,2.432781 0.12164,0.790653 0.12164,1.155571 0.12164,1.398848 0,0.243279 -1.52049,2.432781 -1.88542,2.980157 -0.36491,0.547375 -1.45966,1.15557 -1.09475,1.885404 0.36493,0.729835 2.61525,2.493601 3.04098,3.162616 0.42574,0.669014 0.6082,1.27721 0.18246,1.581307 -0.42574,0.304098 -2.67606,0.912293 -3.40588,1.39885 -0.72984,0.486555 -0.91231,0.425736 -0.91231,1.15557 0,0.729835 0.0608,2.311142 0.30411,3.892449 0.24327,1.581308 0.48655,3.162615 0.24327,3.284253 -0.24327,0.12164 -4.31818,0.790655 -4.31818,0.790655 l -1.33804,0.486556 c 0,0 0.0608,-0.121638 -0.12163,0.182459 -0.18246,0.304097 -1.03393,2.55442 -1.03393,3.284253 0,0.729834 -0.18246,1.277211 -0.3041,1.581308 -0.12163,0.304098 -0.18246,0.669014 -0.42574,0.729835 -0.24327,0.06078 -6.62932,-0.669015 -6.93342,-0.547377 -0.3041,0.12164 -1.52049,1.155571 -1.70295,1.459669 -0.18245,0.304098 -1.5813,1.520487 -1.5813,1.520487 z"
       id="path1655-2"
       inkscape:connector-curvature="0" />
    <path
       style="display:inline;fill:#0b2869;fill-opacity:1;fill-rule:evenodd;stroke:none;stroke-width:0.30409762px;stroke-linecap:butt;stroke-linejoin:miter;stroke-opacity:1"
       d="m 216.32868,80.752598 c 0.24327,-0.06078 4.98719,-2.61524 7.23752,-4.014089 2.25032,-1.398849 7.84571,-6.507688 9.36621,-8.210635 1.52048,-1.702946 5.16965,-6.446869 6.08195,-7.967356 0.91229,-1.520488 4.19655,-8.636372 4.56146,-10.400139 0.36491,-1.763765 0.79065,-6.021131 0.85147,-9.001288 0.0608,-2.980156 -0.12164,-9.244567 -0.79065,-12.285542 -0.66902,-3.040976 -2.67605,-8.453912 -3.77081,-10.400137 -1.09475,-1.946226 -3.34507,-4.561464 -4.92638,-6.446869 -1.58131,-1.885405 -4.68311,-4.8047415 -4.68311,-4.8047415 l 3.61877,0.091269 c 0,0 2.524,1.7941758 3.92285,3.5579415 1.39885,1.763766 4.0141,5.412937 5.5954,9.244565 1.58131,3.83163 2.4936,6.933426 3.04097,11.373252 0.54738,4.439823 0.79066,8.393091 0.72984,9.487844 -0.0608,1.094751 0.36491,7.4808 -2.37196,14.718323 -2.73688,7.237522 -6.62932,11.008332 -10.76505,15.387337 -4.13573,4.379006 -9.54867,8.149817 -11.79898,9.366207 -2.25033,1.21639 -6.06676,2.888926 -6.06676,2.888926 z"
       id="path1657-7"
       inkscape:connector-curvature="0" />
    <path
       style="display:inline;fill:#0b2869;fill-opacity:1;fill-rule:evenodd;stroke:none;stroke-width:0.30409762px;stroke-linecap:butt;stroke-linejoin:miter;stroke-opacity:1"
       d="m 191.75759,7.2370065 4.50064,0.045635 c 0,0 2.31115,0.6081951 6.08196,3.4667115 3.77081,2.858516 6.38604,4.257365 10.03522,11.616527 3.64916,7.359161 3.22343,11.920625 3.10178,15.144059 -0.12163,3.223436 -1.58129,8.088997 -4.37899,11.920626 -2.7977,3.83163 -6.56851,5.16966 -9.91359,5.777855 -3.34507,0.608195 -6.62932,0.547376 -11.00833,-2.007045 -4.37901,-2.554419 -9.00128,-5.717034 -11.43407,-8.149814 -2.43277,-2.432781 -6.38605,-6.386049 -8.21062,-8.149816 -1.8246,-1.763766 -5.29131,-6.325229 -11.85982,-10.947513 -6.5685,-4.622283 -10.27849,-6.38605 -14.04931,-7.480801 -3.77081,-1.094751 -6.02112,-1.581307 -8.21063,-1.702946 -2.18951,-0.12164 -1.67254,-0.03039 -1.67254,-0.03039 l -0.0608,-2.067864 c 0,0 3.25384,0.456146 7.75449,1.429259 4.50065,0.973111 7.78489,2.615239 12.7721,5.108839 4.9872,2.4936 8.02818,5.960313 11.06915,8.575553 3.04098,2.615239 6.87261,6.568507 9.24457,8.81883 2.37196,2.250321 10.5826,10.704234 15.56979,12.954557 4.98721,2.250322 8.51474,2.615238 12.34636,0.851472 3.83164,-1.763765 6.75098,-5.108838 7.60245,-6.933424 0.85147,-1.824586 2.1895,-4.804742 2.12868,-10.03522 -0.0608,-5.230479 -1.09475,-9.487845 -2.4936,-12.042265 -1.39885,-2.55442 -2.7977,-5.352118 -7.41998,-9.183748 -4.62229,-3.831629 -6.93343,-4.9263787 -8.3931,-5.6562134 -1.45966,-0.7298338 -3.10179,-1.3228241 -3.10179,-1.3228241 z"
       id="path1659-0"
       inkscape:connector-curvature="0"
       sodipodi:nodetypes="ccsssssssssssccsssssssssssc" />
    <path
       style="display:inline;fill:#0a2869;fill-opacity:1;fill-rule:evenodd;stroke:none;stroke-width:0.30409762px;stroke-linecap:butt;stroke-linejoin:miter;stroke-opacity:1"
       d="m 69.327891,67.129026 c 0,0 1.459668,-1.277211 3.588351,-2.311142 2.128683,-1.033932 6.203592,-2.007045 8.028177,-2.371962 1.824585,-0.364917 4.622283,-0.243277 6.26441,-0.243277 1.642128,0 3.588351,0.304097 4.926381,1.946224 1.338029,1.642127 1.946225,4.439825 2.250321,5.473756 0.304098,1.033932 0.243279,1.642128 0.790655,2.189503 0.547375,0.547376 1.581307,1.15557 1.702946,1.520488 0.121639,0.364916 -0.425736,1.763765 -0.425736,1.763765 0,0 0.486556,-0.547374 -0.608195,-1.398849 -1.094752,-0.851472 -3.709991,-0.790652 -4.074909,-0.790652 -0.364916,0 -2.858517,0.547375 -2.858517,0.547375 0,0 1.702947,1.398849 2.128683,3.588351 0.425737,2.189503 -1.702946,3.405894 -5.838673,4.014088 -4.135728,0.608196 -6.264411,-2.067862 -6.507689,-2.676057 -0.243278,-0.608196 0.182459,-2.736879 -0.243278,-2.980158 -0.425736,-0.243277 -1.946224,-0.182458 -3.284253,0 -1.33803,0.182459 -3.466713,0.912293 -3.649171,1.33803 -0.182459,0.425737 -0.486556,0.12164 -0.182459,0.912293 0.304098,0.790653 1.094752,1.581307 2.007044,2.189502 0.912293,0.608196 3.405893,1.885406 5.169659,2.371961 1.763766,0.486556 4.804742,0.912293 7.237523,1.033933 2.432781,0.121639 5.352117,-0.182459 6.750966,-0.547377 1.398848,-0.364916 2.250322,-1.094751 3.101795,-2.007044 0.851474,-0.912292 1.033932,-2.4936 1.033932,-2.4936 0,0 0.851473,1.216391 -0.547376,3.284255 -1.398849,2.067864 -4.014088,2.250321 -7.115883,2.797698 -3.101796,0.547374 -6.994244,0.364916 -10.643415,-0.608196 -3.649172,-0.973113 -8.210635,-2.61524 -9.548665,-4.622283 -1.338029,-2.007045 -2.007043,-4.500644 -0.547376,-5.777855 1.459669,-1.277209 6.325231,-2.250321 10.096041,-2.493599 3.770809,-0.243279 6.933424,0.182458 9.305386,-0.12164 2.371961,-0.304098 3.162614,0.364918 3.405892,-1.15557 0.243279,-1.520489 0.669016,-2.676059 -0.729833,-4.257367 -1.39885,-1.581307 -0.912294,-1.338028 -3.709992,-1.702946 -2.797697,-0.364917 -5.960312,0.121639 -9.305385,0.912292 -3.345074,0.790654 -7.967357,2.67606 -7.967357,2.67606 z"
       id="path2016-9"
       inkscape:connector-curvature="0" />
    <path
       style="display:inline;fill:#0a2869;fill-opacity:1;fill-rule:evenodd;stroke:none;stroke-width:0.30409762px;stroke-linecap:butt;stroke-linejoin:miter;stroke-opacity:1"
       d="m 91.466195,52.471522 c 1.155571,0.243278 1.885405,0.669015 3.527532,1.27721 1.642127,0.608195 1.702947,0.790653 2.797698,0.547375 1.094751,-0.243278 1.946231,-1.27721 2.615245,-0.851472 0.66902,0.425736 2.12869,3.527531 2.55442,4.683102 0.42574,1.15557 1.88541,3.405893 2.55443,4.622282 0.66901,1.216391 0.97311,1.642128 2.00704,2.189504 1.03393,0.547375 0.66902,-0.06078 1.52048,1.094752 0.85148,1.15557 1.70295,4.80474 1.82459,5.169658 0.12164,0.364916 0.9123,2.736878 1.15558,3.101795 0.24328,0.364917 1.39885,1.520488 1.21638,1.824585 -0.18246,0.304098 -1.76376,-1.763765 -2.98015,-2.615238 -1.2164,-0.851473 -3.4059,-4.014088 -3.64918,-4.804743 -0.24326,-0.790653 -0.72983,-2.311141 -0.91228,-2.736878 -0.18246,-0.425736 -2.61525,-4.561464 -2.85853,-4.9872 -0.24327,-0.425736 -1.76376,-2.493601 -2.06786,-2.615239 -0.30411,-0.12164 -1.946224,0.304098 -3.162623,-0.12164 -1.216391,-0.425736 -2.55442,-0.912292 -4.135728,-1.702945 -1.581307,-0.790655 -2.007044,-4.074908 -2.007044,-4.074908 z"
       id="path2018-3"
       inkscape:connector-curvature="0" />
    <path
       style="display:inline;fill:#0a2869;fill-opacity:1;fill-rule:evenodd;stroke:none;stroke-width:0.30409762px;stroke-linecap:butt;stroke-linejoin:miter;stroke-opacity:1"
       d="m 64.279871,52.958078 c 0,0 2.128683,-0.364918 3.588352,-1.033932 1.459668,-0.669015 1.459668,-0.790654 2.371961,-1.459669 0.912292,-0.669014 0.851472,-1.338029 1.27721,-1.277209 0.425736,0.06078 0.304097,2.371961 0.364916,3.466712 0.06078,1.094752 -1.21639,5.108839 -2.189502,6.690148 -0.973113,1.581306 -3.345074,2.919336 -4.683103,3.831629 -1.338029,0.912293 -4.92638,2.007043 -5.717035,2.250322 -0.790654,0.243278 -1.338029,0.364917 -1.094751,0 0.243279,-0.364917 0.851474,-1.216391 1.094751,-2.067864 0.243278,-0.851473 0.364918,-2.128683 0.364918,-2.554419 0,-0.425738 -0.06078,-1.763766 -0.06078,-1.763766 z"
       id="path2020-6"
       inkscape:connector-curvature="0" />
    <path
       style="display:inline;fill:#0a2869;fill-opacity:1;fill-rule:evenodd;stroke:none;stroke-width:0.30409762px;stroke-linecap:butt;stroke-linejoin:miter;stroke-opacity:1"
       d="m 68.962973,46.267931 c 0,0 3.466714,0.364916 5.960313,0.364916 2.493601,0 4.257366,-0.121638 5.838675,-0.851472 1.581306,-0.729834 7.602439,-2.554419 8.514732,-2.858517 0.912292,-0.304098 5.412936,-0.608196 5.777854,-0.669015 0.364916,-0.06078 0.729834,0.06078 0.729834,0.06078 0,0 0.364917,-0.304098 0.608195,0.304096 0.243278,0.608196 -0.243278,3.223436 3.16261,5.595396 3.405904,2.371962 5.291314,2.67606 6.750974,3.101796 1.45969,0.425736 4.9264,1.094751 6.5077,1.459668 1.58131,0.364917 4.25736,1.27721 4.92637,2.371962 0.66903,1.094751 0.85148,1.277209 0.24329,2.128683 -0.6082,0.851473 -2.37196,1.155571 -2.67606,1.216391 -0.30411,0.06078 -0.91229,0.06078 -1.33803,0.06078 -0.42574,0 -1.09475,0.182458 -0.72984,0.304096 0.36491,0.12164 1.88541,0.669015 2.61524,0.851474 0.72984,0.182458 3.95327,0.364917 4.9872,0.243279 1.03394,-0.121641 3.52753,-1.33803 3.83163,-2.919338 0.3041,-1.581307 0.97311,-0.973113 0.0608,-2.4936 -0.91229,-1.520488 -3.77081,-2.919337 -4.25736,-3.649171 -0.48656,-0.729834 0.48655,-2.55442 1.8854,-3.345074 1.39885,-0.790654 3.46671,-1.642127 3.46671,-1.642127 v -2.524009 c 0,0 -3.58835,2.098273 -3.89245,2.280732 -0.3041,0.182457 -3.58835,2.007044 -4.01408,2.858517 -0.42574,0.851472 -0.18247,2.554419 0.12163,3.162615 0.3041,0.608195 0.24329,0.790653 1.33804,1.21639 1.09475,0.425737 3.04098,1.398849 3.22343,2.250322 0.18246,0.851474 0.3041,1.27721 -0.0608,1.946224 -0.36492,0.669015 -1.39885,1.277211 -1.82458,1.45967 -0.42574,0.182458 -2.31114,0.121638 -2.31114,0.121638 0,0 2.43277,-0.851473 2.31114,-2.371961 -0.12165,-1.520487 -1.5205,-2.55442 -3.34508,-3.70999 -1.82459,-1.155571 -7.4808,-1.763766 -9.85276,-2.736879 -2.37196,-0.973113 -6.87261,-3.040976 -7.724094,-4.257366 -0.85147,-1.216391 -1.702943,-4.561463 -1.824582,-5.108839 -0.12164,-0.547377 -0.182459,-4.804743 -0.06078,-6.264411 0.121639,-1.459669 0.182458,-1.702947 0.608199,-2.432781 0.425733,-0.729834 0.425733,-1.155571 0.121635,-0.851473 l -1.094751,1.094751 c 0,0 -0.669015,0.669016 -1.398849,0.243279 -0.729834,-0.425738 -4.804742,-3.527532 -7.967357,-5.10884 -3.162627,-1.581302 -4.683115,-2.371957 -4.683115,-2.371957 l -14.90077,21.530105 z"
       id="path2022-0"
       inkscape:connector-curvature="0"
       sodipodi:nodetypes="csssscsssssssssssssssccssssssscsssssssscssccc" />
    <path
       style="display:inline;fill:#0a2869;fill-opacity:1;fill-rule:evenodd;stroke:none;stroke-width:0.30409762px;stroke-linecap:butt;stroke-linejoin:miter;stroke-opacity:1"
       d="m 86.235717,20.480455 c 0,0 4.014088,1.946225 5.656215,2.858518 1.642127,0.912292 5.169659,2.919336 6.325229,4.318185 1.155575,1.398849 3.466729,1.520489 4.074919,1.216391 0.6082,-0.304098 3.22344,-0.729834 5.77785,0.608194 2.55443,1.33803 5.77786,4.622285 5.83868,4.865562 0.0608,0.243279 0.24327,3.588353 0.42573,4.196547 0.18247,0.608196 -0.18246,1.216391 0.6082,2.007044 0.79065,0.790654 2.4936,1.642128 3.16262,2.007044 0.66901,0.364918 1.33802,1.033932 1.39885,1.27721 0.0608,0.243278 0.66901,0.729834 0.72982,0.06078 0.0608,-0.669015 -0.9731,-2.311141 -1.52048,-2.615239 -0.54738,-0.304098 -2.1895,-1.27721 -2.31115,-1.824586 -0.12163,-0.547375 0.24328,-3.101795 0.0608,-4.318186 -0.18247,-1.21639 0,-2.31114 -1.27722,-3.892449 -1.27722,-1.581307 -2.25033,-2.250321 -2.98016,-2.554419 -0.72983,-0.304098 -4.13572,-1.581308 -4.74392,-1.763766 -0.6082,-0.182459 -0.85148,-0.486556 -0.6082,-0.608196 0.24328,-0.121638 5.04802,0.851474 6.8118,1.520488 1.76376,0.669015 5.35211,2.007044 6.69015,2.676059 1.33802,0.669015 3.83162,2.311143 3.83162,2.311143 l 1.64212,1.15557 0.0608,-4.014089 c 0,0 -8.63638,-4.074907 -9.73113,-4.683103 -1.09474,-0.608195 -6.32522,-0.973111 -6.44687,-1.642127 -0.12164,-0.669015 -0.12164,-0.790653 -0.12164,-0.790653 0,0 3.46671,-1.946224 5.53458,-3.040977 2.06786,-1.094751 4.31818,-1.824585 5.10883,-2.128683 0.79067,-0.304096 2.37197,-0.608194 2.73689,-0.669014 0.36491,-0.06078 2.82811,-0.304096 2.82811,-0.304096 l 0.0608,-1.96143 c 0,0 -6.05153,0.988317 -9.09251,2.143887 -3.04097,1.155571 -7.4808,3.649171 -9.36621,4.500645 -1.88541,0.851472 -5.3065,2.873732 -5.59539,3.70999 -0.2889,0.836268 -2.858534,-0.243278 -3.040994,-0.608195 -0.182453,-0.364917 1.839824,1.30954 -5.534574,-3.223434 -2.532513,-1.556709 -5.625805,-2.706469 -5.625805,-2.706469 z"
       id="path2024-6"
       inkscape:connector-curvature="0"
       sodipodi:nodetypes="cssssssssssssssssssscccsscsssccsscsscc" />
    <path
       style="display:inline;fill:#0a2869;fill-opacity:1;fill-rule:evenodd;stroke:none;stroke-width:0.30409762px;stroke-linecap:butt;stroke-linejoin:miter;stroke-opacity:1"
       d="m 101.13651,117.06186 c 0,0 -4.0141,-3.46672 -4.987212,-5.47377 -0.973112,-2.00703 -0.851473,-5.23047 1.033932,-7.60244 1.885396,-2.37195 4.01409,-3.7708 7.90655,-4.439824 3.89245,-0.669013 6.99424,-0.851471 9.48784,-0.669013 2.4936,0.182453 4.86556,0.486563 6.75096,1.033933 1.88542,0.547374 4.53106,1.550904 4.53106,1.550904 v 2.85851 c 0,0 -3.37548,-1.73336 -5.68662,-2.52401 -2.31113,-0.79065 -5.47377,-0.97311 -8.63638,-0.79065 -3.16261,0.18245 -6.02112,0.6082 -8.08899,1.64213 -2.06787,1.03393 -3.466724,3.04097 -3.831644,3.95326 -0.36491,0.91231 -0.36491,1.03394 -0.12163,1.2164 0.24328,0.18245 0.48655,0.79066 0.851474,-0.0608 0.36491,-0.85147 1.21639,-1.70296 3.83164,-2.4936 2.61524,-0.79065 5.77785,-0.60821 7.05507,0.12163 1.2772,0.72985 1.94621,1.8246 2.12868,2.18951 0.18245,0.36492 0.3041,0.91229 0.3041,0.91229 0,0 -0.42575,0.36491 -1.15558,-0.36492 -0.72983,-0.72983 -2.31114,-1.45966 -3.64917,-1.21638 -1.33803,0.24327 -4.19655,1.09474 -4.43982,1.64212 -0.24328,0.54737 -0.79065,0.97311 -0.66902,2.37196 0.12164,1.39885 -1.03393,2.43278 -1.5813,2.31114 -0.54738,-0.12163 -1.2164,-0.48655 -1.2164,-0.48655 0,0 -0.66902,0.24327 -0.54738,0.91229 0.12164,0.66901 0.42574,1.03393 0.48655,1.94623 0.0608,0.91229 0.24329,1.45967 0.24329,1.45967 z"
       id="path2026-2"
       inkscape:connector-curvature="0"
       sodipodi:nodetypes="csssssccssssssssscssssscssc" />
    <path
       style="display:inline;fill:#0a2869;fill-opacity:1;fill-rule:evenodd;stroke:none;stroke-width:0.30409762px;stroke-linecap:butt;stroke-linejoin:miter;stroke-opacity:1"
       d="m 81.978351,121.38003 c 0,0 1.338029,-0.30409 3.223434,0.97312 1.885405,1.27721 3.588351,4.13572 4.257366,4.92638 0.669014,0.79066 1.216391,2.12868 1.885405,2.12868 0.669015,0 1.581308,-1.94622 1.642126,-2.43278 0.06078,-0.48656 0.729835,-2.4936 1.642128,-3.40588 0.912294,-0.9123 1.824586,-1.70295 2.189502,-1.82459 0.364918,-0.12164 1.216391,-0.3041 1.216391,-0.3041 0,0 0.608192,-0.12164 0.243278,0.12164 -0.364917,0.24328 -1.27721,1.15557 -1.702946,1.8854 -0.425737,0.72983 -1.216391,1.58131 -1.763766,3.04097 -0.547376,1.45968 -0.851474,1.88541 -1.033932,2.85853 -0.182459,0.97311 -0.425737,1.76376 -0.425737,2.55442 0,0.79066 3.101796,3.1626 4.804742,5.29129 1.702944,2.12868 5.352118,5.16966 6.690158,6.08194 1.33803,0.9123 6.81178,2.67607 9.00129,2.7977 2.1895,0.12165 9.00128,0.0608 9.00128,0.0608 l 2.85853,-0.12164 0.0608,3.10181 c 0,0 -9.00128,0.6082 -11.85981,0 -2.85851,-0.6082 -7.84571,-2.06786 -10.03521,-2.98017 -2.1895,-0.91229 -7.602452,-6.08195 -8.575564,-6.93342 -0.973113,-0.85147 -5.048021,-6.5685 -6.50769,-9.18374 -1.459668,-2.61523 -4.622282,-6.44686 -5.595395,-6.93343 -0.973111,-0.48654 -1.206254,-0.55076 -1.206254,-0.55076 z"
       id="path2028-6"
       inkscape:connector-curvature="0"
       sodipodi:nodetypes="csssssscsssssssscccssssscc" />
    <path
       style="display:inline;fill:#0a2869;fill-opacity:1;fill-rule:evenodd;stroke:none;stroke-width:0.30409762px;stroke-linecap:butt;stroke-linejoin:miter;stroke-opacity:1"
       d="m 107.52256,163.40632 c 0,0 3.58835,-1.39885 5.77785,-1.8854 2.18951,-0.48655 9.00128,-1.15557 9.00128,-1.15557 l 3.55795,-0.3041 0.0304,5.35213 c 0,0 -1.82459,0.18245 -2.43278,0.42573 -0.6082,0.24328 -2.18951,0.66902 -4.43983,0.18245 -2.25032,-0.48655 -4.19654,-1.94621 -5.41295,-2.06787 -1.21638,-0.12163 -6.08194,-0.54737 -6.08194,-0.54737 z"
       id="path2030-1"
       inkscape:connector-curvature="0"
       sodipodi:nodetypes="cscccsssc" />
    <path
       style="display:inline;fill:#0a2869;fill-opacity:1;fill-rule:evenodd;stroke:none;stroke-width:0.30409762px;stroke-linecap:butt;stroke-linejoin:miter;stroke-opacity:1"
       d="m 125.82923,174.17138 c 0,0.66902 -0.12163,3.77081 -1.52048,5.8995 -1.39885,2.12868 -5.53458,4.25736 -7.66327,4.9872 -2.12867,0.72982 -7.41997,2.1895 -9.12292,4.19654 -1.70294,2.00705 -1.70294,2.67606 -1.52049,3.95327 0.18246,1.27721 1.09475,2.67605 1.70294,3.46671 0.60821,0.79066 1.27722,1.70294 1.27722,1.70294 0,0 -2.25032,-1.03392 -4.25736,-2.37195 -2.00705,-1.33803 -2.85853,-3.22344 -3.22344,-4.43982 -0.36492,-1.2164 -0.24329,-4.50065 -0.18246,-4.98721 0.0608,-0.48656 -0.0608,-0.24328 -2.067874,-1.45967 -2.007047,-1.21638 -3.709992,-1.64213 -3.709992,-1.64213 l -0.06078,0.66902 -0.121639,16.8014 2.797698,2.23512 2.128687,1.03392 h 20.46577 l -0.38012,-1.29241 c 0,0 0.2889,-0.59299 1.68775,0.076 1.39885,0.66901 2.11347,1.21639 2.11347,1.21639 h 1.67254 l -0.0153,-19.76634 -1.03394,0.42573 0.42575,-1.03393 0.60819,-1.03392 z"
       id="path2032-8"
       inkscape:connector-curvature="0"
       sodipodi:nodetypes="cssssscsssscccccccsccccccc" />
    <path
       style="display:inline;fill:#0a2869;fill-opacity:1;fill-rule:evenodd;stroke:none;stroke-width:0.30409762px;stroke-linecap:butt;stroke-linejoin:miter;stroke-opacity:1"
       d="m 9.0160541,148.29744 -0.02118,8.70764 3.8256109,0.0152 -2.008677,-3.73414 z"
       id="path2034-7"
       inkscape:connector-curvature="0"
       sodipodi:nodetypes="ccccc" />
    <path
       style="display:inline;fill:#0a2869;fill-opacity:1;fill-rule:evenodd;stroke:none;stroke-width:0.30409762px;stroke-linecap:butt;stroke-linejoin:miter;stroke-opacity:1"
       d="m 24.401728,110.62427 c 0.258038,0.6021 1.204166,3.87053 1.290188,4.30059 0.08602,0.43007 0.08602,3.09643 0,5.16072 -0.08602,2.06427 -0.172045,5.8488 0.602078,6.6229 1.548204,2.32232 3.698498,1.89226 4.386598,2.49435 0.430052,1.29016 0.516064,4.04254 0.68809,5.93479 0.172024,1.89227 0.58818,3.28444 1.3762,3.95655 4.880865,4.16305 5.418738,0.34405 6.794918,2.58036 1.37619,2.2363 1.37619,2.92439 2.838392,4.04254 1.462202,1.11816 4.644636,-0.86011 5.934814,0.60209 1.290177,1.46221 -1.118154,1.89226 -1.548206,2.15031 -0.430063,0.25803 -2.064291,1.11815 -1.892265,3.09642 0.172025,1.97827 1.118152,3.6125 1.118152,3.6125 l 1.335743,1.81147 13.716317,-0.0105 c 0,0 -4.128562,0.43528 -7.48302,-1.28494 -3.354457,-1.72024 -4.902672,-2.92442 -4.300594,-4.38661 0.602088,-1.46221 3.010417,-1.89226 3.784521,-3.6125 0.774102,-1.72025 0.172024,-3.01042 -0.774104,-3.69852 -0.946127,-0.68808 -2.150302,-0.77409 -2.580356,-0.86011 -0.430061,-0.0859 -4.472609,0.086 -4.902682,-0.60208 -0.430042,-0.6881 0.430073,-1.72025 -1.462191,-4.04255 -1.892256,-2.32233 -6.020826,-0.94613 -6.880941,-1.54822 -0.860125,-0.60209 -1.72024,-1.72023 -1.72024,-4.30059 0,-2.58035 0.688099,-3.01041 -0.08602,-4.55863 -0.774113,-1.54821 -1.892255,-1.63422 -3.440479,-2.92438 -1.548216,-1.29018 -0.688091,-3.95654 -0.860115,-4.98869 -0.172016,-1.03214 0,-2.06429 -0.344052,-3.78453 -0.344049,-1.72024 -1.204164,-4.38659 -1.032129,-5.9348 0.172014,-1.54821 -0.34405,-1.80626 0.258027,-3.26846 0.602088,-1.46219 4.816661,-3.26845 6.708916,-4.73065 1.892265,-1.4622 5.590763,-4.73064 6.106848,-5.246716 0.516065,-0.516064 2.666356,-3.096428 2.666356,-3.096428 0,0 0.774104,-0.774104 1.634229,0.344049 0.860116,1.118152 1.376179,3.784521 2.75238,5.590775 1.376191,1.80625 1.72023,2.49434 3.268445,3.61249 1.548216,1.11815 3.354457,3.01042 3.354457,3.01042 l -2.666366,-3.87054 c 0,0 -2.752382,-3.440464 -3.44047,-5.246715 -0.6881,-1.806252 -0.774103,-5.762798 -0.6881,-8.343144 0.08602,-2.580355 1.892264,-7.827076 1.978277,-9.031242 0.08602,-1.204164 0,-4.558614 0,-4.558614 v -3.354467 l -1.032141,1.37618 c 0,0 -0.172024,4.816671 -0.946136,7.052976 -0.774094,2.236305 -3.268446,7.052966 -5.332727,9.805345 -2.064289,2.752371 -4.902662,5.762789 -6.708914,7.138968 -1.806254,1.376202 -4.300597,3.612503 -4.300597,3.612503 l -2.666366,1.3762 z"
       id="path2036-9"
       inkscape:connector-curvature="0"
       sodipodi:nodetypes="ccccccssccccccccssccsscssscscsccccccccssccccsscccc" />
    <path
       style="display:inline;fill:#5da3de;fill-opacity:1;fill-rule:evenodd;stroke:none;stroke-width:0.30409762px;stroke-linecap:butt;stroke-linejoin:miter;stroke-opacity:1"
       d="m 145.67835,85.508824 c 0,0 -0.21502,0 2.15031,-0.430052 2.36532,-0.430063 3.87053,2.795381 4.51561,4.085558 0.64509,1.290178 0.86012,1.935266 1.29018,4.085549 0.43006,2.150303 0.86012,2.795392 1.07516,4.08557 0.21501,1.290176 2.15029,3.655501 2.15029,3.655501 0,0 -3.65551,-2.58036 -4.30059,-4.300581 -0.64509,-1.72024 -3.22545,-5.16072 -3.87054,-6.235861 -0.64507,-1.075152 -3.01042,-4.945684 -3.01042,-4.945684 z"
       id="path2083-2"
       inkscape:connector-curvature="0" />
    <path
       style="display:inline;fill:#0a2869;fill-opacity:1;fill-rule:evenodd;stroke:none;stroke-width:0.30409762px;stroke-linecap:butt;stroke-linejoin:miter;stroke-opacity:1"
       d="m 134.7697,105.6886 c 0,0 1.27722,0.85148 2.7977,1.58131 1.52048,0.72983 3.83163,2.25032 5.35211,3.16262 1.5205,0.91229 2.1287,2.1895 3.58836,2.37196 1.45967,0.18245 5.04802,0.66902 5.04802,0.66902 0,0 -1.21638,0.54737 -2.4936,0.54737 -1.27721,0 -3.52753,-0.54737 -4.74393,-0.91229 -1.21638,-0.36492 -3.83163,-1.64213 -4.9872,-2.43278 -1.15556,-0.79066 -4.53104,-2.40238 -4.53104,-2.40238 z"
       id="path2086-0"
       inkscape:connector-curvature="0"
       sodipodi:nodetypes="cssscssscc" />
    <path
       style="display:inline;fill:#0a2869;fill-opacity:1;fill-rule:evenodd;stroke:none;stroke-width:0.30409762px;stroke-linecap:butt;stroke-linejoin:miter;stroke-opacity:1"
       d="m 134.83052,193.51199 0.0608,10.70423 5.83868,0.0608 c 0,0 3.16262,-1.64212 4.07492,-2.25032 0.91228,-0.6082 4.43983,-2.91934 4.80474,-3.40589 0.36491,-0.48656 2.1895,-2.31115 2.31113,-2.55442 0.12165,-0.24328 1.03394,-1.76377 1.03394,-1.76377 0,0 -2.85852,1.82459 -3.52754,2.25033 -0.66901,0.42573 -4.01408,1.70294 -4.01408,1.70294 l -3.28426,0.85147 c 0,0 2.12869,-1.8854 2.67607,-2.43278 0.54737,-0.54737 1.09475,-1.8854 1.09475,-1.8854 0,0 -2.85852,0.54737 -3.83164,0.54737 -0.9731,0 -3.40589,-0.36492 -3.83163,-0.54737 -0.42573,-0.18246 -3.40589,-1.27721 -3.40589,-1.27721 z"
       id="path2088-2"
       inkscape:connector-curvature="0" />
  </g>
  <g
     inkscape:groupmode="layer"
     id="layer3"
     inkscape:label="texto"
     style="display:inline" />
  <g
     aria-label="th"
     transform="translate(15.314641,53.186602)"
     style="font-style:normal;font-weight:normal;font-size:16px;line-height:125%;font-family:Sans;letter-spacing:0px;word-spacing:0px;fill:#3465a3;fill-opacity:1;stroke:none;stroke-width:1px;stroke-linecap:butt;stroke-linejoin:miter;stroke-opacity:1"
     id="flowRoot5305">
    <path
       d="m 273.86523,32.517578 v 15.527344 h 18.50586 v 6.982422 h -18.50586 v 29.6875 q 0,6.689453 1.80664,8.59375 1.85547,1.904297 7.47071,1.904297 h 9.22851 v 7.519529 h -9.22851 q -10.40039,0 -14.35547,-3.85742 -3.95508,-3.90625 -3.95508,-14.160156 v -29.6875 h -6.5918 v -6.982422 h 6.5918 V 32.517578 Z"
       style="font-size:100px;fill:#3465a3;fill-opacity:1"
       id="path5406" />
    <path
       d="m 349.69531,69.72461 v 33.00781 h -8.98437 V 70.017578 q 0,-7.763672 -3.02735,-11.621093 -3.02734,-3.857422 -9.08203,-3.857422 -7.27539,0 -11.47461,4.638672 -4.19922,4.638671 -4.19922,12.646484 v 30.908201 h -9.0332 V 26.75586 h 9.0332 v 29.785156 q 3.22266,-4.931641 7.56836,-7.373047 4.39453,-2.441406 10.10743,-2.441406 9.42382,0 14.25781,5.859375 4.83398,5.810547 4.83398,17.138672 z"
       style="font-size:100px;fill:#3465a3;fill-opacity:1"
       id="path5408" />
  </g>
  <g
     aria-label="GNU"
     transform="translate(22.122312,57.710112)"
     style="font-style:normal;font-weight:normal;font-size:16px;line-height:125%;font-family:Sans;letter-spacing:0px;word-spacing:0px;fill:#3465a3;fill-opacity:1;stroke:none;stroke-width:1px;stroke-linecap:butt;stroke-linejoin:miter;stroke-opacity:1"
     id="flowRoot5315">
    <path
       d="m 450.95703,92.478516 q -7.03125,3.417969 -14.59961,5.126953 -7.56836,1.708984 -15.625,1.708984 -18.21289,0 -28.85742,-10.15625 -10.64453,-10.205078 -10.64453,-27.636718 0,-17.626954 10.83984,-27.734375 10.83985,-10.107422 29.6875,-10.107422 7.27539,0 13.91602,1.367187 6.68945,1.367188 12.59765,4.052735 V 44.1875 q -6.10351,-3.466797 -12.1582,-5.175781 -6.00586,-1.708984 -12.06055,-1.708984 -11.23046,0 -17.33398,6.298828 -6.05469,6.25 -6.05469,17.919922 0,11.572265 5.85938,17.871093 5.85937,6.298828 16.65039,6.298828 2.92969,0 5.41992,-0.341796 2.53906,-0.390625 4.54102,-1.171875 V 70.017578 H 421.66016 V 57.419922 h 29.29687 z"
       style="font-style:normal;font-variant:normal;font-weight:bold;font-stretch:normal;font-size:100px;font-family:Sans;-inkscape-font-specification:'Sans Bold';fill:#3465a3;fill-opacity:1"
       id="path5399" />
    <path
       d="m 467.46094,24.998047 h 20.99609 l 26.51367,50 v -50 h 17.82227 v 72.900391 h -20.9961 l -26.51367,-50 v 50 h -17.82226 z"
       style="font-style:normal;font-variant:normal;font-weight:bold;font-stretch:normal;font-size:100px;font-family:Sans;-inkscape-font-specification:'Sans Bold';fill:#3465a3;fill-opacity:1"
       id="path5401" />
    <path
       d="m 551.25,24.998047 h 18.79883 v 43.701172 q 0,9.033203 2.92969,12.939453 2.97851,3.857422 9.66796,3.857422 6.73829,0 9.66797,-3.857422 2.97852,-3.90625 2.97852,-12.939453 V 24.998047 h 18.79883 v 43.701172 q 0,15.478516 -7.76368,23.046875 -7.76367,7.568359 -23.68164,7.568359 -15.86914,0 -23.63281,-7.568359 Q 551.25,84.177735 551.25,68.699219 Z"
       style="font-style:normal;font-variant:normal;font-weight:bold;font-stretch:normal;font-size:100px;font-family:Sans;-inkscape-font-specification:'Sans Bold';fill:#3465a3;fill-opacity:1"
       id="path5403" />
  </g>
  <g
     aria-label="Anniversary Hacker Meeting"
     transform="translate(29.018345,63.519932)"
     style="font-style:normal;font-weight:normal;font-size:16px;line-height:125%;font-family:Sans;letter-spacing:0px;word-spacing:0px;fill:#3465a3;fill-opacity:1;stroke:none;stroke-width:1px;stroke-linecap:butt;stroke-linejoin:miter;stroke-opacity:1"
     id="flowRoot5323">
    <path
       d="m 667.34766,36.560547 -11.77344,31.925781 h 23.58984 z m -4.89844,-8.550781 h 9.83984 l 24.44922,64.152344 h -9.02344 l -5.84375,-16.457032 h -28.91797 l -5.84375,16.457032 h -9.15234 z"
       style="font-size:88px;fill:#3465a3;fill-opacity:1"
       id="path5350" />
    <path
       d="M 745.72266,63.115235 V 92.16211 h -7.90625 V 63.373047 q 0,-6.832031 -2.66407,-10.226562 -2.66406,-3.394532 -7.99218,-3.394532 -6.40235,0 -10.09766,4.082032 -3.69531,4.082031 -3.69531,11.128906 V 92.16211 h -7.94922 v -48.125 h 7.94922 v 7.476562 q 2.83593,-4.339844 6.66015,-6.488281 3.86719,-2.148438 8.89453,-2.148438 8.29297,0 12.54688,5.15625 4.25391,5.113282 4.25391,15.082032 z"
       style="font-size:88px;fill:#3465a3;fill-opacity:1"
       id="path5352" />
    <path
       d="M 801.58203,63.115235 V 92.16211 h -7.90625 V 63.373047 q 0,-6.832031 -2.66406,-10.226562 -2.66406,-3.394532 -7.99219,-3.394532 -6.40234,0 -10.09766,4.082032 -3.69531,4.082031 -3.69531,11.128906 V 92.16211 h -7.94922 v -48.125 h 7.94922 v 7.476562 q 2.83594,-4.339844 6.66016,-6.488281 3.86719,-2.148438 8.89453,-2.148438 8.29297,0 12.54687,5.15625 4.25391,5.113282 4.25391,15.082032 z"
       style="font-size:88px;fill:#3465a3;fill-opacity:1"
       id="path5354" />
    <path
       d="m 817.4375,44.03711 h 7.90625 v 48.125 h -7.90625 z m 0,-18.734375 h 7.90625 v 10.011718 h -7.90625 z"
       style="font-size:88px;fill:#3465a3;fill-opacity:1"
       id="path5356" />
    <path
       d="m 836.17187,44.03711 h 8.37891 l 15.03906,40.390625 15.03907,-40.390625 h 8.3789 l -18.04687,48.125 h -10.74219 z"
       style="font-size:88px;fill:#3465a3;fill-opacity:1"
       id="path5358" />
    <path
       d="m 935.08594,66.123047 v 3.867188 h -36.35157 q 0.51563,8.164062 4.89844,12.460937 4.42578,4.253906 12.28906,4.253906 4.55469,0 8.8086,-1.117187 4.29687,-1.117188 8.50781,-3.351563 v 7.476563 q -4.25391,1.804687 -8.72266,2.75 -4.46875,0.945312 -9.0664,0.945312 -11.51563,0 -18.26172,-6.703125 -6.70313,-6.703125 -6.70313,-18.132812 0,-11.816406 6.35938,-18.734375 6.40234,-6.960938 17.23047,-6.960938 9.71094,0 15.33984,6.273438 5.67188,6.230469 5.67188,16.972656 z m -7.90625,-2.320312 q -0.0859,-6.488282 -3.65235,-10.355469 -3.52343,-3.867188 -9.36718,-3.867188 -6.61719,0 -10.61329,3.738282 -3.95312,3.738281 -4.55468,10.527343 z"
       style="font-size:88px;fill:#3465a3;fill-opacity:1"
       id="path5360" />
    <path
       d="m 975.94922,51.427735 q -1.33203,-0.773438 -2.92188,-1.117188 -1.54687,-0.386719 -3.4375,-0.386719 -6.70312,0 -10.3125,4.382813 -3.5664,4.339844 -3.5664,12.503906 V 92.16211 h -7.94922 v -48.125 h 7.94922 v 7.476562 q 2.49218,-4.382812 6.48828,-6.488281 3.99609,-2.148438 9.71094,-2.148438 0.8164,0 1.80468,0.128907 0.98828,0.08594 2.19141,0.300781 z"
       style="font-size:88px;fill:#3465a3;fill-opacity:1"
       id="path5362" />
    <path
       d="m 1015.0078,45.455078 v 7.476563 q -3.3516,-1.71875 -6.9609,-2.578125 -3.6094,-0.859375 -7.4766,-0.859375 -5.88671,0 -8.85155,1.804687 -2.92188,1.804688 -2.92188,5.414063 0,2.75 2.10547,4.339844 2.10547,1.546875 8.46485,2.964843 l 2.70701,0.601563 q 8.4219,1.804687 11.9453,5.113281 3.5664,3.265625 3.5664,9.152344 0,6.703125 -5.3281,10.613281 -5.2851,3.910156 -14.56639,3.910156 -3.86719,0 -8.07813,-0.773437 -4.16797,-0.730469 -8.80859,-2.234375 v -8.164063 q 4.38281,2.277344 8.63672,3.4375 4.2539,1.117188 8.42187,1.117188 5.58592,0 8.59372,-1.890625 3.0078,-1.933594 3.0078,-5.414063 0,-3.222656 -2.1914,-4.941406 -2.1484,-1.71875 -9.49606,-3.308594 l -2.75,-0.644531 q -7.34765,-1.546875 -10.61328,-4.726562 -3.26562,-3.222657 -3.26562,-8.808594 0,-6.789063 4.8125,-10.484375 4.8125,-3.695313 13.66406,-3.695313 4.3828,0 8.25,0.644532 3.8672,0.644531 7.1328,1.933593 z"
       style="font-size:88px;fill:#3465a3;fill-opacity:1"
       id="path5364" />
    <path
       d="m 1052.0898,67.970703 q -9.582,0 -13.2773,2.191407 -3.6953,2.191406 -3.6953,7.476562 0,4.210938 2.75,6.703125 2.793,2.449219 7.5625,2.449219 6.5742,0 10.5273,-4.640625 3.9961,-4.683594 3.9961,-12.417969 v -1.761719 z m 15.7696,-3.265625 V 92.16211 h -7.9063 v -7.304688 q -2.707,4.382813 -6.7461,6.488281 -4.039,2.0625 -9.8828,2.0625 -7.3906,0 -11.7734,-4.125 -4.3399,-4.167968 -4.3399,-11.128906 0,-8.121094 5.4141,-12.246094 5.457,-4.125 16.2422,-4.125 h 11.0859 v -0.773437 q 0,-5.457031 -3.6093,-8.421875 -3.5665,-3.007813 -10.0547,-3.007813 -4.125,0 -8.0352,0.988282 -3.9101,0.988281 -7.5195,2.964843 v -7.304687 q 4.3398,-1.675781 8.4219,-2.492188 4.082,-0.859375 7.9492,-0.859375 10.4414,0 15.5976,5.414063 5.1563,5.414062 5.1563,16.414062 z"
       style="font-size:88px;fill:#3465a3;fill-opacity:1"
       id="path5366" />
    <path
       d="m 1112.0742,51.427735 q -1.332,-0.773438 -2.9219,-1.117188 -1.5468,-0.386719 -3.4375,-0.386719 -6.7031,0 -10.3125,4.382813 -3.5664,4.339844 -3.5664,12.503906 V 92.16211 h -7.9492 v -48.125 h 7.9492 v 7.476562 q 2.4922,-4.382812 6.4883,-6.488281 3.9961,-2.148438 9.711,-2.148438 0.8164,0 1.8046,0.128907 0.9883,0.08594 2.1915,0.300781 z"
       style="font-size:88px;fill:#3465a3;fill-opacity:1"
       id="path5368" />
    <path
       d="m 1140.4766,96.63086 q -3.3516,8.59375 -6.5313,11.21484 -3.1797,2.6211 -8.5078,2.6211 h -6.3164 v -6.61719 h 4.6406 q 3.2656,0 5.0703,-1.54688 1.8047,-1.54687 3.9961,-7.304683 l 1.418,-3.609375 -19.4648,-47.351562 h 8.3789 l 15.039,37.640625 15.0391,-37.640625 h 8.3789 z"
       style="font-size:88px;fill:#3465a3;fill-opacity:1"
       id="path5370" />
    <path
       d="m 1200.8906,28.009766 h 8.6797 v 26.296875 h 31.5391 V 28.009766 h 8.6797 V 92.16211 h -8.6797 V 61.611328 h -31.5391 V 92.16211 h -8.6797 z"
       style="font-size:88px;fill:#3465a3;fill-opacity:1"
       id="path5372" />
    <path
       d="m 1288.5898,67.970703 q -9.582,0 -13.2773,2.191407 -3.6953,2.191406 -3.6953,7.476562 0,4.210938 2.75,6.703125 2.793,2.449219 7.5625,2.449219 6.5742,0 10.5273,-4.640625 3.9961,-4.683594 3.9961,-12.417969 v -1.761719 z m 15.7696,-3.265625 V 92.16211 h -7.9063 v -7.304688 q -2.707,4.382813 -6.7461,6.488281 -4.039,2.0625 -9.8828,2.0625 -7.3906,0 -11.7734,-4.125 -4.3399,-4.167968 -4.3399,-11.128906 0,-8.121094 5.4141,-12.246094 5.457,-4.125 16.2422,-4.125 h 11.0859 v -0.773437 q 0,-5.457031 -3.6093,-8.421875 -3.5665,-3.007813 -10.0547,-3.007813 -4.125,0 -8.0352,0.988282 -3.9101,0.988281 -7.5195,2.964843 v -7.304687 q 4.3398,-1.675781 8.4219,-2.492188 4.082,-0.859375 7.9492,-0.859375 10.4414,0 15.5976,5.414063 5.1563,5.414062 5.1563,16.414062 z"
       style="font-size:88px;fill:#3465a3;fill-opacity:1"
       id="path5374" />
    <path
       d="m 1355.3203,45.884766 v 7.390625 q -3.3515,-1.847656 -6.7461,-2.75 -3.3515,-0.945313 -6.789,-0.945313 -7.6914,0 -11.9454,4.898438 -4.2539,4.855469 -4.2539,13.664062 0,8.808594 4.2539,13.707032 4.254,4.855468 11.9454,4.855468 3.4375,0 6.789,-0.902343 3.3946,-0.945313 6.7461,-2.792969 v 7.304687 q -3.3086,1.546875 -6.875,2.320313 -3.5234,0.773437 -7.5195,0.773437 -10.8711,0 -17.2735,-6.832031 -6.4023,-6.832031 -6.4023,-18.433594 0,-11.773437 6.4453,-18.519531 6.4883,-6.746094 17.7461,-6.746094 3.6524,0 7.1328,0.773438 3.4805,0.730469 6.7461,2.234375 z"
       style="font-size:88px;fill:#3465a3;fill-opacity:1"
       id="path5376" />
    <path
       d="m 1368.8555,25.302735 h 7.9492 v 39.488281 l 23.5898,-20.753906 h 10.0977 l -25.5234,22.515625 26.5976,25.609375 h -10.3125 L 1376.8047,68.658203 V 92.16211 h -7.9492 z"
       style="font-size:88px;fill:#3465a3;fill-opacity:1"
       id="path5378" />
    <path
       d="m 1458.2734,66.123047 v 3.867188 h -36.3515 q 0.5156,8.164062 4.8984,12.460937 4.4258,4.253906 12.2891,4.253906 4.5547,0 8.8086,-1.117187 4.2968,-1.117188 8.5078,-3.351563 v 7.476563 q -4.2539,1.804687 -8.7227,2.75 -4.4687,0.945312 -9.0664,0.945312 -11.5156,0 -18.2617,-6.703125 -6.7031,-6.703125 -6.7031,-18.132812 0,-11.816406 6.3594,-18.734375 6.4023,-6.960938 17.2304,-6.960938 9.711,0 15.3399,6.273438 5.6718,6.230469 5.6718,16.972656 z m -7.9062,-2.320312 q -0.086,-6.488282 -3.6524,-10.355469 -3.5234,-3.867188 -9.3671,-3.867188 -6.6172,0 -10.6133,3.738282 -3.9531,3.738281 -4.5547,10.527343 z"
       style="font-size:88px;fill:#3465a3;fill-opacity:1"
       id="path5380" />
    <path
       d="m 1499.1367,51.427735 q -1.332,-0.773438 -2.9219,-1.117188 -1.5468,-0.386719 -3.4375,-0.386719 -6.7031,0 -10.3125,4.382813 -3.5664,4.339844 -3.5664,12.503906 V 92.16211 h -7.9492 v -48.125 h 7.9492 v 7.476562 q 2.4922,-4.382812 6.4883,-6.488281 3.9961,-2.148438 9.711,-2.148438 0.8164,0 1.8046,0.128907 0.9883,0.08594 2.1915,0.300781 z"
       style="font-size:88px;fill:#3465a3;fill-opacity:1"
       id="path5382" />
    <path
       d="m 1535.875,28.009766 h 12.9336 l 16.3711,43.65625 16.457,-43.65625 h 12.9336 V 92.16211 h -8.4648 V 35.830078 l -16.543,44 h -8.7227 l -16.5429,-44 V 92.16211 h -8.4219 z"
       style="font-size:88px;fill:#3465a3;fill-opacity:1"
       id="path5384" />
    <path
       d="m 1652.6641,66.123047 v 3.867188 h -36.3516 q 0.5156,8.164062 4.8984,12.460937 4.4258,4.253906 12.2891,4.253906 4.5547,0 8.8086,-1.117187 4.2969,-1.117188 8.5078,-3.351563 v 7.476563 q -4.2539,1.804687 -8.7226,2.75 -4.4688,0.945312 -9.0665,0.945312 -11.5156,0 -18.2617,-6.703125 -6.7031,-6.703125 -6.7031,-18.132812 0,-11.816406 6.3594,-18.734375 6.4023,-6.960938 17.2304,-6.960938 9.711,0 15.3399,6.273438 5.6719,6.230469 5.6719,16.972656 z m -7.9063,-2.320312 q -0.086,-6.488282 -3.6523,-10.355469 -3.5235,-3.867188 -9.3672,-3.867188 -6.6172,0 -10.6133,3.738282 -3.9531,3.738281 -4.5547,10.527343 z"
       style="font-size:88px;fill:#3465a3;fill-opacity:1"
       id="path5386" />
    <path
       d="m 1706.8047,66.123047 v 3.867188 h -36.3516 q 0.5157,8.164062 4.8985,12.460937 4.4257,4.253906 12.289,4.253906 4.5547,0 8.8086,-1.117187 4.2969,-1.117188 8.5078,-3.351563 v 7.476563 q -4.2539,1.804687 -8.7226,2.75 -4.4688,0.945312 -9.0664,0.945312 -11.5157,0 -18.2617,-6.703125 -6.7032,-6.703125 -6.7032,-18.132812 0,-11.816406 6.3594,-18.734375 6.4023,-6.960938 17.2305,-6.960938 9.7109,0 15.3398,6.273438 5.6719,6.230469 5.6719,16.972656 z m -7.9063,-2.320312 q -0.086,-6.488282 -3.6523,-10.355469 -3.5234,-3.867188 -9.3672,-3.867188 -6.6172,0 -10.6133,3.738282 -3.9531,3.738281 -4.5547,10.527343 z"
       style="font-size:88px;fill:#3465a3;fill-opacity:1"
       id="path5388" />
    <path
       d="M 1727.6016,30.373047 V 44.03711 h 16.2851 v 6.144531 h -16.2851 v 26.125 q 0,5.886719 1.5898,7.5625 1.6328,1.675781 6.5742,1.675781 h 8.1211 v 6.617188 h -8.1211 q -9.1523,0 -12.6328,-3.394532 -3.4805,-3.4375 -3.4805,-12.460937 v -26.125 h -5.8007 V 44.03711 h 5.8007 V 30.373047 Z"
       style="font-size:88px;fill:#3465a3;fill-opacity:1"
       id="path5390" />
    <path
       d="m 1754.3281,44.03711 h 7.9063 v 48.125 h -7.9063 z m 0,-18.734375 h 7.9063 v 10.011718 h -7.9063 z"
       style="font-size:88px;fill:#3465a3;fill-opacity:1"
       id="path5392" />
    <path
       d="M 1818.7383,63.115235 V 92.16211 h -7.9063 V 63.373047 q 0,-6.832031 -2.664,-10.226562 -2.6641,-3.394532 -7.9922,-3.394532 -6.4024,0 -10.0977,4.082032 -3.6953,4.082031 -3.6953,11.128906 V 92.16211 h -7.9492 v -48.125 h 7.9492 v 7.476562 q 2.836,-4.339844 6.6602,-6.488281 3.8672,-2.148438 8.8945,-2.148438 8.293,0 12.5469,5.15625 4.2539,5.113282 4.2539,15.082032 z"
       style="font-size:88px;fill:#3465a3;fill-opacity:1"
       id="path5394" />
    <path
       d="m 1866.2617,67.541016 q 0,-8.59375 -3.5664,-13.320313 -3.5234,-4.726562 -9.9258,-4.726562 -6.3593,0 -9.9257,4.726562 -3.5235,4.726563 -3.5235,13.320313 0,8.550781 3.5235,13.277344 3.5664,4.726562 9.9257,4.726562 6.4024,0 9.9258,-4.726562 3.5664,-4.726563 3.5664,-13.277344 z m 7.9063,18.648437 q 0,12.289063 -5.4571,18.261717 -5.457,6.01563 -16.7148,6.01563 -4.168,0 -7.8633,-0.64453 -3.6953,-0.60157 -7.1758,-1.89063 v -7.69141 q 3.4805,1.89063 6.875,2.79297 3.3946,0.90235 6.918,0.90235 7.7773,0 11.6445,-4.082034 3.8672,-4.039063 3.8672,-12.246094 v -3.910156 q -2.4492,4.253906 -6.2734,6.359375 -3.8242,2.105469 -9.1524,2.105469 -8.8515,0 -14.2656,-6.746094 -5.414,-6.746094 -5.414,-17.875 0,-11.171875 5.414,-17.917969 5.4141,-6.746094 14.2656,-6.746094 5.3282,0 9.1524,2.105469 3.8242,2.105469 6.2734,6.359375 V 44.03711 h 7.9063 z"
       style="font-size:88px;fill:#3465a3;fill-opacity:1"
       id="path5396" />
  </g>
</svg>
