<?xml version="1.0" encoding="UTF-8" standalone="no"?>
<!-- Created with Inkscape (http://www.inkscape.org/) -->

<svg
   xmlns:osb="http://www.openswatchbook.org/uri/2009/osb"
   xmlns:dc="http://purl.org/dc/elements/1.1/"
   xmlns:cc="http://creativecommons.org/ns#"
   xmlns:rdf="http://www.w3.org/1999/02/22-rdf-syntax-ns#"
   xmlns:svg="http://www.w3.org/2000/svg"
   xmlns="http://www.w3.org/2000/svg"
   xmlns:xlink="http://www.w3.org/1999/xlink"
   xmlns:sodipodi="http://sodipodi.sourceforge.net/DTD/sodipodi-0.dtd"
   xmlns:inkscape="http://www.inkscape.org/namespaces/inkscape"
   version="1.1"
   id="svg2"
   width="599.41461"
   height="202.14635"
   viewBox="0 0 599.41461 202.14635"
   sodipodi:docname="Banner4-acoplado.svg"
   inkscape:version="0.92.1 r15371">
  <metadata
     id="metadata8">
    <rdf:RDF>
      <cc:Work
         rdf:about="">
        <dc:format>image/svg+xml</dc:format>
        <dc:type
           rdf:resource="http://purl.org/dc/dcmitype/StillImage" />
        <dc:title></dc:title>
      </cc:Work>
    </rdf:RDF>
  </metadata>
  <defs
     id="defs6">
    <linearGradient
       id="linearGradient5960"
       inkscape:collect="always">
      <stop
         id="stop5956"
         offset="0"
         style="stop-color:#3465a3;stop-opacity:1;" />
      <stop
         id="stop5958"
         offset="1"
         style="stop-color:#7bffff;stop-opacity:0.13529412" />
    </linearGradient>
    <linearGradient
       id="linearGradient6029"
       osb:paint="solid">
      <stop
         style="stop-color:#55ffff;stop-opacity:1;"
         offset="0"
         id="stop6027" />
    </linearGradient>
    <linearGradient
       inkscape:collect="always"
       xlink:href="#linearGradient6071"
       id="linearGradient6149"
       gradientUnits="userSpaceOnUse"
       x1="-182.79446"
       y1="22.264931"
       x2="-249.79485"
       y2="242.20091"
       gradientTransform="translate(-0.59173316,0.37120207)" />
    <linearGradient
       inkscape:collect="always"
       id="linearGradient6071">
      <stop
         style="stop-color:#3465a3;stop-opacity:1;"
         offset="0"
         id="stop6067" />
      <stop
         style="stop-color:#7bffff;stop-opacity:0"
         offset="1"
         id="stop6069" />
    </linearGradient>
    <linearGradient
       inkscape:collect="always"
       xlink:href="#linearGradient5960"
       id="linearGradient5946"
       gradientUnits="userSpaceOnUse"
       gradientTransform="translate(-1.1921875e-5,2.9719238e-6)"
       x1="-182.79446"
       y1="22.264931"
       x2="-249.79485"
       y2="242.20091" />
  </defs>
  <sodipodi:namedview
     pagecolor="#ffffff"
     bordercolor="#666666"
     borderopacity="1"
     objecttolerance="10"
     gridtolerance="10"
     guidetolerance="10"
     inkscape:pageopacity="0"
     inkscape:pageshadow="2"
     inkscape:window-width="1920"
     inkscape:window-height="1012"
     id="namedview4"
     showgrid="false"
     inkscape:zoom="1.69"
     inkscape:cx="271.31926"
     inkscape:cy="30.683632"
     inkscape:window-x="0"
     inkscape:window-y="0"
     inkscape:window-maximized="1"
     inkscape:current-layer="g6113" />
  <g
     inkscape:groupmode="layer"
     id="g6113"
     inkscape:label="fondo"
     style="display:inline;opacity:1">
    <rect
       transform="scale(-1,1)"
       y="0"
       x="-599.41461"
       height="202.14635"
       width="599.41461"
       id="rect6141"
       style="display:inline;opacity:1;fill:url(#linearGradient5946);fill-opacity:1;stroke:none;stroke-opacity:1" />
    <g
       style="display:inline;opacity:1"
       id="g4604"
       transform="translate(8.7401696,-1.9541016e-6)">
      <path
         d="m 260.19202,22.445833 6.09729,3.316923 2.82914,1.414577 c 0,0 1.12191,-1.121907 3.46327,-2.536472 2.34137,-1.414576 4.9266,-2.877927 7.51185,-3.560822 2.58526,-0.682897 4.63394,-0.780453 4.63394,-0.780453 V 141.56249 h -1.07312 c 0,0 -1.41457,-0.95118 -1.60968,-1.04874 -0.19511,-0.0975 -0.97556,-0.0242 -0.97556,-0.0242 l 0.39022,1.07313 -13.38964,-0.12195 -2.90231,-1.97552 0.0975,-28.19388 -30.68156,-0.0489 c 0,0 -0.73166,-0.39022 -1.21944,-1.70723 -0.4878,-1.31701 -0.53657,-2.82914 0,-3.17059 0.53654,-0.34146 1.9999,-0.63412 1.95112,-1.46336 -0.0489,-0.82922 -0.92679,-0.92677 -1.75601,-0.97555 -0.82924,-0.0489 -1.99992,0.34145 -2.63404,-0.0976 -0.63412,-0.43899 -0.92678,-1.51212 -0.97556,-2.2438 -0.0489,-0.73168 -0.53657,-1.1219 -1.02436,-1.21946 -0.48777,-0.0976 -2.6828,-0.0488 -3.70714,-0.975565 -1.02434,-0.926792 -0.87802,-2.73159 -1.02434,-4.194938 -0.14635,-1.463351 0,-1.414572 -0.439,-1.902355 -0.43901,-0.487784 -2.19504,-0.731676 -2.73159,-1.707241 -0.53656,-0.975567 -0.0975,-3.316926 -0.0975,-4.292492 0,-0.975567 -0.39023,-2.780364 -0.439,-3.121812 -0.0489,-0.341447 -0.39023,-2.536472 -0.39023,-2.536472 l -0.0975,-0.731675 z m -3.60958,49.607549 -16.48708,24.047707 h 16.48708 z"
         style="display:inline;fill:#5da2de;fill-opacity:1;fill-rule:evenodd;stroke:none;stroke-width:0.19511324px;stroke-linecap:butt;stroke-linejoin:miter;stroke-opacity:1"
         id="path1557"
         inkscape:connector-curvature="0" />
      <path
         sodipodi:nodetypes="csssssssssssccssssscccccssscssssssssssssssssssssssssccc"
         inkscape:connector-curvature="0"
         id="path1978"
         d="m 290.43462,20.250813 c 0,0 3.31691,0.243886 5.56072,0.87801 2.24381,0.634111 7.21919,2.877915 9.17033,4.292491 1.95112,1.414565 4.43882,3.658368 6.29239,5.365614 1.85357,1.707236 4.58516,4.633934 5.75584,5.90217 1.17068,1.268236 3.90226,3.707152 6.04851,5.365614 2.14624,1.658463 4.87783,2.536472 5.46317,2.780369 0.58534,0.243887 5.65829,1.317009 8.19476,-1.560906 2.53646,-2.877925 3.1706,-3.707152 4.0486,-8.584982 0.87801,-4.87783 -0.878,-8.194756 -1.95113,-9.853219 -1.07312,-1.658463 -3.65838,-4.829058 -4.7315,-5.658284 -1.07313,-0.829237 -2.39013,-1.804803 -4.14615,-2.682813 -1.75602,-0.878009 -3.26815,-1.365792 -3.26815,-1.365792 l 27.21829,0.0488 c 0,0 1.6097,1.268237 2.87792,3.121812 1.26825,1.853576 2.68282,4.048595 3.26815,5.268058 0.58535,1.219453 1.99992,5.902171 2.14625,13.316473 0.14634,7.414304 -2.43892,11.609238 -4.63395,14.58472 -2.19501,2.975473 -4.19492,5.902173 -7.99963,8.389871 -3.8047,2.487689 -7.02408,4.097378 -7.02408,4.097378 l 0.0975,-13.853042 h -21.70635 l -0.009,23.345297 -0.0879,1.385304 c 0,0 -1.26824,-0.634112 -2.43891,-0.829225 -1.1707,-0.195114 -4.14617,-0.829236 -6.09728,-1.414576 -1.95114,-0.585341 -4.58518,-2.292576 -6.53631,-3.170587 -1.95114,-0.878009 -2.34136,-0.536566 -2.34136,-0.536566 0,0 -0.34145,0.243896 0.14633,0.926794 0.4878,0.682896 0.58534,1.121896 0.87801,2.390131 0.29267,1.268236 0.19511,2.536473 0.82924,3.560823 0.63412,1.024338 0.92678,1.463349 1.95114,1.756019 1.02433,0.292669 2.14624,0 3.31691,-0.146341 1.17069,-0.146329 3.56082,-0.975566 5.60951,-0.09752 2.04869,0.878016 2.82915,2.975483 3.17059,5.07295 0.34145,2.097468 0.0489,4.438827 -0.63412,5.707064 -0.6829,1.268236 -3.65837,3.316924 -5.65828,4.292491 -1.99991,0.975566 -3.41448,1.756019 -3.51204,2.243803 -0.0976,0.487782 0.34145,1.268235 0.92679,1.609683 0.58534,0.341449 2.53647,1.414571 3.46326,2.195024 0.92679,0.780453 0.92679,2.536477 0.48777,3.219367 -0.439,0.6829 -2.48768,1.65846 -3.65836,1.99992 -1.17068,0.34145 -3.12181,0.82922 -3.26815,1.17068 -0.14634,0.34144 0.0975,0.97557 0.19512,1.75602 0.0976,0.78045 -0.0975,2.6828 -0.19512,3.75592 -0.0976,1.07313 -0.6829,2.58526 -1.41456,3.12181 -0.73169,0.53657 -3.26816,0.48778 -4.39006,0.43902 -1.1219,-0.0489 -4.78028,0.0975 -5.99974,0.63411 -1.21943,0.53656 -2.09744,1.75603 -2.48767,2.2438 -0.39023,0.48778 -0.439,1.51214 -0.2439,2.09747 0.19514,0.58535 0.82923,1.36579 1.46337,2.53648 0.63409,1.17068 0.8292,2.53647 0.78043,3.36569 -0.0489,0.82924 -2.6828,2.97549 -2.6828,2.97549 l -2.16251,1.0948 z"
         style="display:inline;fill:#5da2de;fill-opacity:1;fill-rule:evenodd;stroke:none;stroke-width:0.19511324px;stroke-linecap:butt;stroke-linejoin:miter;stroke-opacity:1" />
      <path
         inkscape:connector-curvature="0"
         d="m 240.09536,96.101089 16.48708,-24.047707 v 24.047707 z m 25.1696,-80.972004 h 19.46255 V 141.56249 H 265.26496 V 111.27114 H 209.75525 V 95.905976 Z"
         style="display:inline;fill:#3465a3;fill-opacity:1;fill-rule:evenodd;stroke:none;stroke-width:0.19511324px;stroke-linecap:butt;stroke-linejoin:miter;stroke-opacity:1"
         id="path852" />
      <path
         d="m 240.09536,96.101089 16.48708,-24.047707 v 24.047707 z m 20.09666,-73.655236 6.09729,3.316925 2.82914,1.414566 c 0,0 1.12191,-1.121897 3.46327,-2.536472 2.34137,-1.414566 4.9266,-2.877917 7.51185,-3.560813 2.58526,-0.682896 4.63394,-0.780453 4.63394,-0.780453 V 141.56249 h -1.07312 c 0,0 -1.41457,-0.95118 -1.60968,-1.04874 -0.19511,-0.0975 -0.97556,-0.0242 -0.97556,-0.0242 l 0.39022,1.07313 -13.38964,-0.12195 -2.90231,-1.97552 0.0975,-28.19388 -30.68152,-0.0489 c 0,0 -0.73167,-0.39022 -1.21945,-1.70723 -0.4878,-1.31701 -0.53656,-2.82914 0,-3.17059 0.53656,-0.34146 1.99991,-0.63412 1.95112,-1.46336 -0.0489,-0.82922 -0.92678,-0.92677 -1.75601,-0.97555 -0.82923,-0.0489 -1.99991,0.34145 -2.63404,-0.0976 -0.63411,-0.43899 -0.92677,-1.51212 -0.97556,-2.2438 -0.0489,-0.73167 -0.53656,-1.1219 -1.02435,-1.21946 -0.48777,-0.0976 -2.68281,-0.0488 -3.70714,-0.975565 -1.02435,-0.926791 -0.87802,-2.731589 -1.02435,-4.194937 -0.14633,-1.463351 0,-1.414572 -0.43899,-1.902355 -0.43902,-0.487783 -2.19505,-0.731676 -2.73159,-1.707241 -0.53657,-0.975567 -0.0976,-3.316927 -0.0976,-4.292493 0,-0.975567 -0.39023,-2.780364 -0.43901,-3.121812 -0.0489,-0.341447 -0.39023,-2.536472 -0.39023,-2.536472 l -0.0974,-0.731675 z"
         style="display:inline;fill:#5da2de;fill-opacity:1;fill-rule:evenodd;stroke:none;stroke-width:0.19511324px;stroke-linecap:butt;stroke-linejoin:miter;stroke-opacity:1"
         id="path852-7"
         inkscape:connector-curvature="0" />
      <path
         inkscape:connector-curvature="0"
         d="m 321.11614,50.103139 h 21.70635 v 61.168001 h -21.70635 z m -30.72059,-35.07161 82.18171,0.09752 V 141.56245 h -82.04512 z"
         style="display:inline;fill:#3465a3;fill-opacity:1;fill-rule:evenodd;stroke:none;stroke-width:0.19511324px;stroke-linecap:butt;stroke-linejoin:miter;stroke-opacity:1"
         id="path856" />
      <path
         sodipodi:nodetypes="csssssssssssccssssscccccssscssssssssssssssssssssssssccc"
         inkscape:connector-curvature="0"
         id="path1978-6"
         d="m 290.43462,20.250813 c 0,0 3.31691,0.243886 5.56072,0.87801 2.24381,0.634111 7.21919,2.877915 9.17033,4.292491 1.95112,1.414565 4.43882,3.658368 6.29239,5.365614 1.85357,1.707236 4.58516,4.633934 5.75584,5.90217 1.17068,1.268236 3.90226,3.707152 6.04851,5.365614 2.14624,1.658463 4.87783,2.536472 5.46317,2.780369 0.58534,0.243887 5.65829,1.317009 8.19476,-1.560906 2.53646,-2.877925 3.1706,-3.707152 4.0486,-8.584982 0.87801,-4.87783 -0.878,-8.194756 -1.95113,-9.853219 -1.07312,-1.658463 -3.65838,-4.829058 -4.7315,-5.658284 -1.07313,-0.829237 -2.39013,-1.804803 -4.14615,-2.682813 -1.75602,-0.878009 -3.26815,-1.365792 -3.26815,-1.365792 l 27.21829,0.0488 c 0,0 1.6097,1.268237 2.87792,3.121812 1.26825,1.853576 2.68282,4.048595 3.26815,5.268058 0.58535,1.219453 1.99992,5.902171 2.14625,13.316473 0.14634,7.414304 -2.43892,11.609238 -4.63395,14.58472 -2.19501,2.975473 -4.19492,5.902173 -7.99963,8.389871 -3.8047,2.487689 -7.02408,4.097378 -7.02408,4.097378 l 0.0975,-13.853042 h -21.70635 l -0.14631,23.316036 0.0489,1.414565 c 0,0 -1.26824,-0.634112 -2.43892,-0.829225 -1.17067,-0.195114 -4.14615,-0.829236 -6.09729,-1.414576 -1.95113,-0.585341 -4.58516,-2.292576 -6.53628,-3.170587 -1.95114,-0.878009 -2.34137,-0.536566 -2.34137,-0.536566 0,0 -0.34145,0.243896 0.14634,0.926794 0.48778,0.682896 0.58534,1.121896 0.87802,2.390131 0.29266,1.268236 0.1951,2.536473 0.82923,3.560823 0.6341,1.024338 0.92677,1.463349 1.95111,1.756019 1.02436,0.292669 2.14626,0 3.31695,-0.146341 1.17067,-0.146329 3.5608,-0.975566 5.60949,-0.09752 2.04869,0.878016 2.82914,2.975483 3.1706,5.07295 0.34145,2.097468 0.0489,4.438827 -0.63413,5.707064 -0.68289,1.268236 -3.65837,3.316924 -5.65828,4.292491 -1.99991,0.975566 -3.41449,1.756019 -3.51203,2.243803 -0.0976,0.487782 0.34144,1.268235 0.92678,1.609683 0.58534,0.341449 2.53648,1.414571 3.46326,2.195024 0.9268,0.780453 0.9268,2.536477 0.48778,3.219367 -0.439,0.6829 -2.48769,1.65846 -3.65837,1.99992 -1.17068,0.34145 -3.12181,0.82922 -3.26815,1.17068 -0.14633,0.34144 0.0976,0.97557 0.19512,1.75602 0.0975,0.78045 -0.0976,2.6828 -0.19512,3.75592 -0.0975,1.07313 -0.68289,2.58526 -1.41457,3.12181 -0.73168,0.53657 -3.26814,0.48778 -4.39004,0.43902 -1.12191,-0.0489 -4.78027,0.0975 -5.99974,0.63411 -1.21946,0.53656 -2.09747,1.75603 -2.4877,2.2438 -0.39022,0.48778 -0.43898,1.51214 -0.24387,2.09747 0.19511,0.58535 0.82923,1.36579 1.46334,2.53648 0.63413,1.17068 0.82923,2.53647 0.78044,3.36569 -0.0489,0.82924 -2.6828,2.97549 -2.6828,2.97549 l -2.1625,1.0948 z"
         style="display:inline;fill:#5da2de;fill-opacity:1;fill-rule:evenodd;stroke:none;stroke-width:0.19511324px;stroke-linecap:butt;stroke-linejoin:miter;stroke-opacity:1" />
      <path
         sodipodi:nodetypes="cssccssc"
         inkscape:connector-curvature="0"
         id="path1596"
         d="m 279.83994,26.328585 c 0,0 1.24872,-0.390226 2.06819,-0.58534 0.81949,-0.195114 1.5609,-0.429249 2.02918,-0.429249 0.46827,0 0.78045,-0.03902 0.78045,-0.03902 l 0.0196,3.785197 c 0,0 -1.42432,-0.780453 -2.71207,-1.365794 -1.28775,-0.585339 -1.87309,-0.819474 -2.02919,-0.936543 -0.15608,-0.117068 -0.15608,-0.429249 -0.15608,-0.429249 z"
         style="display:inline;fill:#0b2869;fill-opacity:1;fill-rule:evenodd;stroke:none;stroke-width:0.19511324px;stroke-linecap:butt;stroke-linejoin:miter;stroke-opacity:1" />
      <path
         sodipodi:nodetypes="csssssccsc"
         inkscape:connector-curvature="0"
         id="path1637"
         d="m 279.48873,84.004068 c 0,0 0.62436,0.74143 0.23413,1.599928 -0.39022,0.858498 -2.34135,1.053612 -3.6291,0.58534 -1.28775,-0.468272 -2.14624,-1.248724 -2.06821,-2.536472 0.0781,-1.287748 1.67798,-1.912111 3.00476,-2.029178 1.32677,-0.117068 2.96571,0.07805 4.44859,0.546316 1.48285,0.468272 3.27789,1.482862 3.27789,1.482862 l -0.0196,2.458427 c 0,0 -1.42434,-0.975567 -2.7511,-1.677974 -1.32678,-0.702408 -2.49746,-0.429249 -2.49746,-0.429249 z"
         style="display:inline;fill:#0b2869;fill-opacity:1;fill-rule:evenodd;stroke:none;stroke-width:0.19511324px;stroke-linecap:butt;stroke-linejoin:miter;stroke-opacity:1" />
      <path
         inkscape:connector-curvature="0"
         id="path1641"
         d="m 264.42598,66.873119 c 0,0 1.95113,-0.624363 2.49745,-1.014589 0.54631,-0.390227 1.01459,-0.858499 1.09264,-1.443838 0.078,-0.58534 0.31218,-1.443839 0.31218,-1.443839 0,0 0,-0.468272 0.0391,-0.117068 0.0391,0.351205 0.19511,1.912111 0.0391,2.419406 -0.15609,0.507294 -0.89752,1.170679 -1.24874,1.365792 -0.35119,0.195113 -1.67795,0.312181 -1.67795,0.312181 l -1.09265,0.07805 z"
         style="display:inline;fill:#0b2869;fill-opacity:1;fill-rule:evenodd;stroke:none;stroke-width:0.19511324px;stroke-linecap:butt;stroke-linejoin:miter;stroke-opacity:1" />
      <path
         sodipodi:nodetypes="cssssssscscssssssssssssssccccscsccssscsssssssscccsssssssccccsssssssssssssscssssccssccssccssssssssssssssssscccssscscssssssssssssssssssssssssssssssccssccsssssssssscc"
         inkscape:connector-curvature="0"
         id="path1645"
         d="m 290.4541,103.47638 c 0,0 1.5609,-0.39023 3.04377,-0.70241 1.48285,-0.31219 4.91685,-0.46827 6.47775,-0.50729 1.56091,-0.039 6.16559,0.15609 7.29723,0.15609 1.13167,0 3.59009,-0.58535 4.56566,-1.05362 0.97555,-0.46827 0.97555,-1.677975 0.78045,-2.107226 -0.19512,-0.429249 -1.44384,-1.053612 -2.0682,-1.287748 -0.62438,-0.234135 -2.10723,-1.404815 -2.26331,-1.677974 -0.1561,-0.273158 -0.74143,-0.89752 -0.74143,-0.89752 0,0 -1.40481,0.351202 -2.34136,0.351202 -0.93654,0 -2.96572,0.195114 -2.96572,0.195114 0,0 -2.10722,0.156091 -2.38039,0.07805 -0.27315,-0.07805 -0.93654,-0.156091 -0.31218,-0.312181 0.62436,-0.15609 4.01934,-1.17068 6.2046,-1.756019 2.18528,-0.58534 5.58024,-2.224292 6.2046,-2.536473 0.62437,-0.312182 4.21444,-3.004745 4.7998,-3.785197 0.58533,-0.780453 1.09263,-1.404816 1.01457,-3.355948 -0.0781,-1.951132 -0.11706,-3.043768 -0.42924,-3.902265 -0.31218,-0.858499 -0.58533,-1.560906 -2.0682,-1.91211 -1.48286,-0.351205 -2.4194,-0.234136 -3.66813,0.03902 -1.24873,0.273158 -3.00474,0.89752 -4.9949,-0.07805 -1.99016,-0.975571 -3.86325,-2.185273 -4.83881,-3.277907 -0.97556,-1.092636 -1.44384,-2.302337 -2.49744,-3.863243 -1.05362,-1.560906 -2.7316,-3.746174 -3.12181,-4.253469 -0.39024,-0.507294 -1.99017,-2.263313 -3.31694,-3.551061 -1.32677,-1.287748 -2.34135,-2.146246 -2.34135,-2.146246 v -2.614514 l 1.05361,1.014588 0.66338,0.507295 c 0,0 0,-1.17068 0.27316,-1.638951 0.27315,-0.468273 0.39023,-0.741431 0.39023,-0.741431 0,0 -0.62436,-0.03902 -0.93654,-0.07805 -0.31219,-0.03903 -1.48286,0.234136 -1.48286,0.234136 l -0.0195,-1.677975 c 0,0 1.97065,-0.624362 2.67304,-0.858498 0.70242,-0.234137 2.26332,-0.195113 3.27791,-0.195113 1.01459,0 1.79504,0.390225 2.30232,0.07805 0.50731,-0.312181 0.93655,-0.819476 0.93655,-0.819476 0,0 0.74144,-0.663384 0.97557,-1.131657 0.23414,-0.468271 0.23414,-1.365793 0.23414,-2.380382 0,-1.014589 -0.27316,-2.0682 -0.66339,-2.770607 -0.39022,-0.702408 -0.97556,-1.248725 -1.87308,-1.75602 -0.89752,-0.507294 -2.38039,-1.365792 -2.88768,-2.380382 -0.50729,-1.014588 -0.70241,-2.146245 -0.85849,-2.536472 -0.1561,-0.390226 -0.42925,-1.521884 -0.54633,-1.716996 -0.11706,-0.195113 0.0391,-0.117069 -0.31218,-0.429249 -0.35119,-0.312182 -1.67797,-0.351205 -1.67797,-0.351205 h -1.59993 l 0.0196,-14.048153 c 0,0 3.10229,0.42925 4.35102,0.819476 1.24872,0.390227 5.61926,2.419405 7.45333,3.39497 1.83406,0.975567 4.44859,3.199859 5.8534,4.526628 1.40482,1.32677 5.81436,5.61926 6.907,6.594827 1.09264,0.975566 3.23889,2.692563 4.01934,3.199858 0.78045,0.507294 2.84864,1.990155 3.90226,2.419404 1.05362,0.429249 3.82423,1.287747 4.72174,1.756019 0.89753,0.468272 2.10722,1.287748 2.10722,1.287748 l 1.67798,1.170679 -10.31174,-0.107307 -0.18536,6.03875 c 0,0 -0.46827,-1.716997 -0.54631,-1.951132 -0.0782,-0.234136 -0.62436,-1.209704 -0.81947,-1.521884 -0.19513,-0.312181 -1.13167,-1.834064 -1.87309,-2.536472 -0.74144,-0.702409 -2.22429,-2.497449 -3.43399,-3.551062 -1.20971,-1.053611 -2.18526,-1.795042 -3.04378,-2.419404 -0.8585,-0.624362 -3.59007,-1.756019 -4.76075,-2.302336 -1.17069,-0.546317 -3.82422,-0.936544 -5.89242,-1.092634 -2.06821,-0.156091 -2.9267,0.117068 -3.47302,0.74143 -0.54632,0.624363 -0.31218,1.873087 -0.11708,2.068201 0.19512,0.195112 1.0146,1.131656 1.52189,1.521883 0.5073,0.390226 1.63896,1.053611 2.34136,1.834064 0.70241,0.780453 1.24874,1.795043 1.48286,2.926698 0.23414,1.131658 -0.11707,3.082791 -0.23412,3.629107 -0.11708,0.546318 -0.93655,1.521883 -1.17069,1.599929 -0.23414,0.07805 -0.97556,0.74143 -0.97556,0.74143 0,0 0.46826,0.312182 1.09262,0.624363 0.62437,0.312181 0.93655,0.273158 1.40482,0.819475 0.46827,0.546318 0.81948,1.59993 0.89753,1.912112 0.078,0.312181 0.0391,0.351203 0,0.624362 -0.0391,0.273159 -0.27316,0.468272 -0.27316,0.468272 l -0.81948,-0.15609 c 0,0 -0.89752,-0.468272 -1.05361,-0.663386 -0.1561,-0.195113 -0.19512,-0.429248 -0.62436,-0.624362 -0.42925,-0.195114 -1.17069,-0.312181 -1.17069,-0.312181 l -0.27316,0.234135 c 0,0 0.31218,1.01459 0.1561,1.716996 -0.1561,0.702409 -0.8585,1.365794 -1.32677,1.482862 -0.46827,0.117067 -2.38039,0.234135 -2.38039,0.234135 h -1.44383 c 0,0 0.0391,0.03902 0.11707,0.312181 0.0782,0.27316 1.01458,1.014589 1.63894,0.975567 0.62437,-0.03903 1.83407,-0.195114 2.14625,-0.390227 0.31219,-0.195112 1.79505,-0.624361 2.26331,-0.936542 0.46828,-0.312182 1.63896,-0.468273 2.0682,-0.546318 0.42925,-0.07805 1.09263,-0.117068 1.0146,0.03902 -0.0782,0.15609 -0.11707,0.234135 -0.39024,0.429248 -0.27314,0.195114 -0.8975,0.390228 -1.28774,0.702408 -0.39022,0.312181 -0.58534,0.312181 -0.50729,0.702408 0.0781,0.390227 0.42925,0.507295 0.58535,1.053611 0.15608,0.546318 0.74141,1.482862 0.81946,1.677974 0.0781,0.195113 0.7024,0.819476 0.89753,0.936544 0.19511,0.117068 1.5609,0.780453 2.57549,1.131657 1.01459,0.351204 3.04376,1.209703 3.434,1.599929 0.39022,0.390226 2.53646,1.131657 3.08278,1.404815 0.54631,0.273158 1.99016,0.663385 2.65354,0.858499 0.66338,0.195112 2.14625,0.273158 2.88767,0.468272 0.74144,0.195112 1.63896,0.390226 1.63896,0.390226 l 1.34628,0.448761 -0.0196,1.648712 c 0,0 -2.80962,-0.731681 -3.59008,-1.004839 -0.78045,-0.273159 -3.70715,-0.819476 -4.33151,-1.014589 -0.62436,-0.195114 -2.69257,-0.897521 -3.2779,-1.248724 -0.58536,-0.351205 -3.59009,-2.068202 -3.59009,-2.068202 0,0 -1.91212,-0.741429 -2.2243,-0.819475 -0.31218,-0.07805 -0.42923,0.15609 -0.42923,0.15609 0,0 0.27314,-0.07805 0.54631,0.58534 0.27315,0.663385 0.62436,1.912111 0.66339,2.302337 0.0391,0.390226 0.15608,0.975565 0.27315,1.912109 0.11706,0.936544 0.46827,1.677975 0.89752,2.224292 0.42926,0.546317 1.05362,1.131657 2.02917,1.248724 0.97558,0.117068 2.41941,-0.234135 3.51204,-0.390225 1.09264,-0.156091 2.86817,-0.468273 4.62419,0.15609 1.75602,0.624363 2.55598,1.873093 2.98524,3.31693 0.42923,1.443838 0.74141,3.277902 0.54631,5.268058 -0.19511,1.990155 -1.3658,3.590084 -4.21444,5.424148 -2.84866,1.834064 -3.90227,2.458427 -4.52663,2.731586 -0.62437,0.273158 -1.13166,0.429249 -1.13166,0.58534 0,0.156091 0.0391,0.468272 0.27317,0.858497 0.23412,0.390228 1.28774,1.01459 1.67796,1.287748 0.39022,0.273159 1.87308,1.014589 2.38039,1.560907 0.50728,0.546316 0.97557,1.716998 0.78044,2.614523 -0.19511,0.89752 -1.5609,2.06821 -2.57547,2.49747 -1.0146,0.42924 -2.45845,0.70239 -2.84867,0.85849 -0.39023,0.15608 -1.32678,0.50729 -1.5609,0.62436 -0.23415,0.11706 -0.5073,0.23414 -0.3512,0.74142 0.15608,0.50731 0.7024,2.84866 0.0391,5.30708 -0.66338,2.45844 -1.28775,2.69257 -2.38039,3.04378 -1.09263,0.35121 -5.22903,0.46827 -6.51678,0.39021 -1.28774,-0.078 -2.77061,0.31218 -3.74618,1.0146 -0.97556,0.7024 -1.59993,1.717 -1.717,2.38039 -0.11705,0.66336 0.15609,1.83406 0.46828,2.22428 0.31218,0.39022 1.09264,1.63895 1.40482,2.14626 0.31218,0.50728 0.54631,2.2633 0.27315,2.96571 -0.27315,0.70241 -1.48285,1.83406 -2.02918,2.22429 -0.54631,0.39023 -1.36579,0.97557 -1.75601,1.13166 -0.39024,0.1561 -1.14789,0.47044 -1.14789,0.47044 l 0.0159,-2.33378 c 0,0 2.30234,-0.75118 2.5755,-2.11697 0.27316,-1.3658 -0.31218,-2.4194 -0.93654,-3.23889 -0.62437,-0.81947 -1.65413,-1.75385 -1.65413,-1.75385 l -0.0237,-6.83113 c 0,0 1.9121,-0.0391 3.94129,-0.23413 2.02916,-0.19512 4.01932,-0.3512 5.6973,-0.11706 1.67797,0.23412 2.41939,0.31218 3.47301,0.11706 1.0536,-0.19512 1.71699,-0.3512 2.0682,-1.40482 0.35121,-1.05361 0.46826,-2.53647 0.27315,-3.55105 -0.19511,-1.01459 -0.0782,-1.13167 -0.27315,-1.56091 -0.19511,-0.42926 0.19511,-0.74144 -0.46828,-0.78045 -0.66338,-0.0391 -1.9121,-0.0391 -2.26331,-0.0781 -0.35119,-0.0391 -4.56565,-0.23413 -5.07294,-0.31218 -0.50729,-0.0781 -3.74616,0.23415 -4.37053,0.1561 -0.62437,-0.0781 -3.04376,0.3512 -3.04376,0.3512 z"
         style="display:inline;fill:#0b2869;fill-opacity:1;fill-rule:evenodd;stroke:none;stroke-width:0.19511324px;stroke-linecap:butt;stroke-linejoin:miter;stroke-opacity:1" />
      <path
         inkscape:connector-curvature="0"
         id="path1653"
         d="m 290.4541,45.996 c 0,0 -0.0782,-0.234136 1.5609,-0.429249 1.63896,-0.195114 2.34136,0.195113 2.73159,0.585339 0.39022,0.390228 0.39022,1.404816 0,1.677974 -0.39023,0.273159 -2.06821,1.131657 -2.26332,1.599928 -0.19511,0.468273 -0.42925,0.858499 -0.19511,0.975568 0.23413,0.117067 1.32676,0 2.4194,0.117067 1.09264,0.117068 1.79504,0.390227 2.18527,0.741431 0.39022,0.351203 0.5073,0.780452 0.5073,0.780452 0,0 0.1951,0.351204 -0.11708,0.273159 -0.31218,-0.07805 -0.35119,-0.273159 -0.78045,-0.624361 -0.42924,-0.351205 -1.56091,-0.624363 -2.45843,-0.507295 -0.89752,0.117067 -1.36579,-0.03902 -1.75601,0.273157 -0.39024,0.312182 -0.50728,0.234138 -0.54632,0.429249 -0.0391,0.195114 -0.31218,0.42925 -0.3512,0.663386 -0.0391,0.234137 0.0391,0.273158 -0.11708,0.507294 -0.15608,0.234136 -0.85849,1.053612 -0.85849,1.053612 v -7.999643 z"
         style="display:inline;fill:#0b2869;fill-opacity:1;fill-rule:evenodd;stroke:none;stroke-width:0.19511324px;stroke-linecap:butt;stroke-linejoin:miter;stroke-opacity:1" />
      <path
         inkscape:connector-curvature="0"
         id="path1655"
         d="m 332.44247,50.171423 10.38002,-0.06827 -0.0782,5.375366 c 0,0 0.78046,0.546316 1.28774,0.858498 0.5073,0.312181 1.32678,0.819476 1.32678,0.819476 0,0 -0.78046,-2.185269 -0.81948,-2.380383 -0.0391,-0.195113 -0.31218,-1.599928 -0.31218,-1.599928 0,0 2.30233,0.15609 2.61451,0.15609 0.31218,0 1.99017,0.27316 1.99017,0.27316 0,0 0.66338,0.273158 0.42924,-0.11707 -0.23413,-0.390225 -1.91211,-2.185268 -1.91211,-2.185268 l -0.31214,-0.585341 h 4.48761 L 350.8611,49.5861 349.65139,47.986172 348.90997,47.08865 v -0.273158 c 0,0 0.97555,-0.156091 1.83406,-0.234136 0.85849,-0.07805 2.02917,-0.312181 2.02917,-0.312181 0,0 -0.11706,-0.234136 -0.58534,-0.702408 -0.46826,-0.468272 -1.75601,-1.873087 -1.75601,-1.873087 l -0.46828,-0.663386 c 0,0 0.89753,-0.429249 1.91211,-0.663384 1.0146,-0.234136 1.44384,-0.351204 1.99016,-0.468271 0.54632,-0.117069 1.09263,0 0.93654,-0.27316 -0.15609,-0.273158 -1.95113,-1.521883 -1.95113,-1.521883 l -1.75601,-1.326769 -0.42926,-0.468273 c 0,0 1.717,-1.014589 2.18527,-1.287747 0.46827,-0.273158 1.44384,-0.858498 1.44384,-0.858498 l 0.27315,-0.15609 c 0,0 0.11708,-0.117068 -0.0391,-0.234136 -0.1561,-0.117067 -0.70241,-0.507295 -0.70241,-0.507295 l -1.48286,-0.780452 c 0,0 -0.62436,-0.390227 -0.62436,-0.546317 0,-0.156091 0.15608,-0.312181 0.23414,-0.546317 0.0782,-0.234137 1.0536,-1.131658 1.32676,-1.404817 0.27316,-0.273157 1.0536,-0.89752 1.0536,-0.89752 0,0 0.31218,-0.195114 0.23414,-0.429249 -0.078,-0.234136 -0.23414,-0.390226 -0.50729,-0.624363 -0.27316,-0.234136 -1.2097,-1.053611 -1.48285,-1.365792 -0.27317,-0.312182 -1.05362,-1.17068 -1.05362,-1.17068 0,0 -0.23414,-0.273158 -0.15609,-0.507295 0.0781,-0.234135 0.50729,-1.677974 0.50729,-1.677974 l 0.31218,-0.663385 c 0,0 0.19512,-0.234135 0.23414,-0.507294 0.0391,-0.273159 -0.15608,-0.702407 -0.15608,-0.702407 0,0 -0.31218,-0.312182 -0.54632,-0.429249 -0.23414,-0.117069 -1.32677,-0.897522 -1.32677,-0.897522 l -0.50731,-0.546316 c 0,0 -0.0781,-0.156091 -0.15609,-0.468273 -0.0782,-0.312181 -0.39022,-1.560905 -0.39022,-1.873086 0,-0.312182 -0.39023,-1.638952 -0.39023,-1.638952 0,0 -0.15609,-0.117068 -0.27316,-0.273159 -0.11706,-0.15609 -1.59993,-0.89752 -1.59993,-0.89752 l -1.36578,-0.780454 -0.46828,-0.507294 -9.71664,0.117068 0.46827,1.053612 c 0,0 3.74617,0.897521 4.21444,1.053611 0.46828,0.156091 0.6634,0.858498 0.74144,1.053611 0.0782,0.195114 0.0391,2.49745 0.0391,2.692563 0,0.195114 -0.1951,0.624363 0.5073,0.819477 0.70241,0.195112 2.45842,1.014588 2.69256,1.287746 0.23414,0.273159 0.0391,1.599929 0,1.834066 -0.0391,0.234135 -0.8585,1.716996 -0.66338,2.38038 0.1951,0.663386 1.09263,1.521884 1.36578,1.795043 0.27318,0.273158 1.05363,1.053612 1.13167,1.560906 0.0781,0.507295 0.0781,0.74143 0.0781,0.897521 0,0.15609 -0.97557,1.560905 -1.20971,1.912109 -0.23413,0.351205 -0.93654,0.741431 -0.7024,1.209703 0.23414,0.468271 1.67797,1.599929 1.95113,2.029176 0.27316,0.429249 0.39022,0.819476 0.11708,1.01459 -0.27317,0.195113 -1.717,0.585339 -2.18527,0.89752 -0.46829,0.312182 -0.58534,0.273159 -0.58534,0.74143 0,0.468273 0.0391,1.482862 0.19511,2.49745 0.15609,1.01459 0.31218,2.029178 0.15609,2.107224 -0.15609,0.07805 -2.77061,0.507294 -2.77061,0.507294 l -0.85851,0.312181 c 0,0 0.0391,-0.07805 -0.0781,0.117069 -0.11707,0.195111 -0.66338,1.63895 -0.66338,2.107222 0,0.468272 -0.11708,0.819476 -0.19513,1.01459 -0.0781,0.195112 -0.11705,0.429249 -0.27315,0.468271 -0.15608,0.03902 -4.25347,-0.42925 -4.44857,-0.351204 -0.19513,0.07805 -0.97558,0.741431 -1.09265,0.936544 -0.11707,0.195113 -1.01459,0.975567 -1.01459,0.975567 z"
         style="display:inline;fill:#0b2869;fill-opacity:1;fill-rule:evenodd;stroke:none;stroke-width:0.19511324px;stroke-linecap:butt;stroke-linejoin:miter;stroke-opacity:1" />
      <path
         inkscape:connector-curvature="0"
         id="path1657"
         d="m 342.78346,62.346491 c 0.1561,-0.03902 3.19986,-1.677974 4.6437,-2.575494 1.44384,-0.897522 5.03392,-4.175425 6.00949,-5.268059 0.97557,-1.092634 3.31692,-4.136402 3.90227,-5.111968 0.58534,-0.975566 2.69255,-5.541216 2.92669,-6.672873 0.23413,-1.131657 0.5073,-3.863242 0.54631,-5.775353 0.0391,-1.912108 -0.078,-5.931441 -0.50728,-7.882573 -0.42926,-1.951133 -1.71699,-5.424149 -2.41941,-6.672874 -0.7024,-1.248725 -2.14625,-2.926698 -3.16083,-4.1364 -1.0146,-1.209703 -3.00474,-3.08279 -3.00474,-3.08279 l 2.32184,0.05859 c 0,0 1.61944,1.151169 2.51697,2.282825 0.89751,1.131658 2.57549,3.473017 3.59008,5.931443 1.01459,2.458427 1.59991,4.448583 1.95113,7.297235 0.3512,2.848655 0.50729,5.385127 0.46828,6.087533 -0.0391,0.702408 0.23413,4.799786 -1.52189,9.443482 -1.75603,4.643695 -4.25347,7.0631 -6.90701,9.87273 -2.65354,2.809633 -6.12657,5.229036 -7.57039,6.009489 -1.44385,0.780454 -3.89251,1.853577 -3.89251,1.853577 z"
         style="display:inline;fill:#0b2869;fill-opacity:1;fill-rule:evenodd;stroke:none;stroke-width:0.19511324px;stroke-linecap:butt;stroke-linejoin:miter;stroke-opacity:1" />
      <path
         sodipodi:nodetypes="ccsssssssssssccsssssssssssc"
         inkscape:connector-curvature="0"
         id="path1659"
         d="m 327.01832,15.177868 2.88766,0.02924 c 0,0 1.48287,0.390227 3.90228,2.224291 2.4194,1.834065 4.09738,2.731585 6.43874,7.453326 2.34136,4.721741 2.0682,7.648439 1.99015,9.71664 -0.0781,2.0682 -1.01459,5.190012 -2.80964,7.648438 -1.79503,2.458427 -4.21444,3.316926 -6.36068,3.707152 -2.14625,0.390228 -4.25348,0.351204 -7.0631,-1.287747 -2.80963,-1.638951 -5.77537,-3.668129 -7.33627,-5.229036 -1.56091,-1.560905 -4.09736,-4.097377 -5.26805,-5.229034 -1.17068,-1.131656 -3.39497,-4.058355 -7.60941,-7.024077 -4.21446,-2.965721 -6.59483,-4.097378 -9.01423,-4.799785 -2.41941,-0.702408 -3.86325,-1.014589 -5.26807,-1.092634 -1.40481,-0.07805 -1.07311,-0.01956 -1.07311,-0.01956 l -0.0391,-1.32677 c 0,0 2.08772,0.29267 4.9754,0.917032 2.88768,0.624363 4.99489,1.677975 8.19476,3.277903 3.19986,1.599928 5.15099,3.82422 7.10211,5.502194 1.95114,1.677973 4.40956,4.214446 5.93145,5.658284 1.52188,1.443838 6.78994,6.867996 9.9898,8.311824 3.19986,1.443837 5.46317,1.677984 7.92159,0.546317 2.45843,-1.131658 4.33152,-3.277903 4.87784,-4.448582 0.54632,-1.170679 1.40482,-3.082779 1.36579,-6.438736 -0.0391,-3.355949 -0.70241,-6.087534 -1.59992,-7.726485 -0.89753,-1.638952 -1.79504,-3.433994 -4.76077,-5.892421 -2.96572,-2.458426 -4.44858,-3.160835 -5.38513,-3.629107 -0.93655,-0.468271 -1.99015,-0.848737 -1.99015,-0.848737 z"
         style="display:inline;fill:#0b2869;fill-opacity:1;fill-rule:evenodd;stroke:none;stroke-width:0.19511324px;stroke-linecap:butt;stroke-linejoin:miter;stroke-opacity:1" />
      <path
         inkscape:connector-curvature="0"
         id="path2016"
         d="m 248.46572,53.605416 c 0,0 0.93655,-0.819474 2.30234,-1.48286 1.3658,-0.663386 3.98031,-1.287747 5.15098,-1.521884 1.17069,-0.234136 2.96573,-0.15609 4.01934,-0.15609 1.0536,0 2.30233,0.195113 3.16083,1.248726 0.85851,1.05361 1.24872,2.848652 1.44384,3.512037 0.19512,0.663385 0.15609,1.053611 0.5073,1.404815 0.3512,0.351205 1.01458,0.741431 1.09263,0.975568 0.0781,0.234136 -0.27315,1.131657 -0.27315,1.131657 0,0 0.31218,-0.351204 -0.39023,-0.897521 -0.70241,-0.546319 -2.38039,-0.507295 -2.61453,-0.507295 -0.23413,0 -1.83405,0.351204 -1.83405,0.351204 0,0 1.09264,0.897521 1.36578,2.302336 0.27317,1.404817 -1.09263,2.18527 -3.74617,2.575495 -2.65354,0.390227 -4.01932,-1.326769 -4.17542,-1.716997 -0.15608,-0.390225 0.11707,-1.756019 -0.15608,-1.912109 -0.27318,-0.156091 -1.24873,-0.117068 -2.10724,0 -0.85849,0.117069 -2.22429,0.58534 -2.34135,0.858499 -0.11708,0.273158 -0.31218,0.07805 -0.11708,0.585339 0.19512,0.507295 0.70242,1.01459 1.28776,1.404815 0.58533,0.390228 2.18527,1.209702 3.31691,1.521883 1.13168,0.312181 3.08281,0.585341 4.64371,0.663385 1.56092,0.07805 3.434,-0.117067 4.33152,-0.351204 0.89751,-0.234135 1.44383,-0.702406 1.99014,-1.287746 0.54633,-0.58534 0.66339,-1.599929 0.66339,-1.599929 0,0 0.54631,0.780453 -0.35121,2.107223 -0.89751,1.32677 -2.57548,1.443838 -4.56564,1.795042 -1.99016,0.351204 -4.4876,0.234136 -6.82897,-0.390227 -2.34136,-0.624363 -5.26805,-1.677974 -6.12655,-2.965722 -0.8585,-1.287747 -1.28774,-2.887675 -0.3512,-3.707151 0.93654,-0.819477 4.05836,-1.443839 6.47775,-1.59993 2.41941,-0.15609 4.44859,0.117069 5.97047,-0.07805 1.52189,-0.195114 2.02917,0.234135 2.18526,-0.74143 0.15609,-0.975567 0.42925,-1.716997 -0.46827,-2.731586 -0.89751,-1.014588 -0.58533,-0.858498 -2.38037,-1.092634 -1.79504,-0.234135 -3.82422,0.07805 -5.97047,0.585339 -2.14624,0.507295 -5.11197,1.716997 -5.11197,1.716997 z"
         style="display:inline;fill:#0a2869;fill-opacity:1;fill-rule:evenodd;stroke:none;stroke-width:0.19511324px;stroke-linecap:butt;stroke-linejoin:miter;stroke-opacity:1" />
      <path
         inkscape:connector-curvature="0"
         id="path2018"
         d="m 262.66997,44.200958 c 0.74142,0.15609 1.2097,0.429249 2.26332,0.819475 1.0536,0.390227 1.09263,0.507295 1.79504,0.351204 0.7024,-0.156091 1.24872,-0.819476 1.67795,-0.546316 0.42926,0.273158 1.36581,2.263313 1.63896,3.004743 0.27317,0.741432 1.20971,2.185268 1.63896,2.965721 0.42926,0.780453 0.62436,1.053613 1.28775,1.404816 0.66339,0.351204 0.42924,-0.03902 0.97557,0.702408 0.54631,0.74143 1.09263,3.082789 1.17067,3.316926 0.0782,0.234135 0.58534,1.756019 0.74144,1.990155 0.15608,0.234136 0.89752,0.975567 0.78045,1.170679 -0.11708,0.195114 -1.13166,-1.131655 -1.91212,-1.677974 -0.78044,-0.546317 -2.18527,-2.575495 -2.34136,-3.082789 -0.15609,-0.507295 -0.46827,-1.482862 -0.58532,-1.75602 -0.11708,-0.273158 -1.67799,-2.926699 -1.83408,-3.199856 -0.15609,-0.27316 -1.13166,-1.599929 -1.32677,-1.677976 -0.19511,-0.07805 -1.24872,0.195114 -2.02918,-0.07805 -0.78045,-0.273147 -1.63896,-0.585339 -2.65353,-1.092634 -1.0146,-0.507295 -1.28775,-2.614517 -1.28775,-2.614517 z"
         style="display:inline;fill:#0a2869;fill-opacity:1;fill-rule:evenodd;stroke:none;stroke-width:0.19511324px;stroke-linecap:butt;stroke-linejoin:miter;stroke-opacity:1" />
      <path
         inkscape:connector-curvature="0"
         id="path2020"
         d="m 245.22684,44.51314 c 0,0 1.3658,-0.234137 2.30234,-0.663386 0.93654,-0.429248 0.93654,-0.507295 1.52188,-0.936543 0.58534,-0.429249 0.54632,-0.858499 0.81948,-0.819477 0.27316,0.03902 0.1951,1.521883 0.23413,2.224292 0.0391,0.702407 -0.78045,3.277902 -1.40481,4.292491 -0.62436,1.014589 -2.14626,1.873087 -3.00475,2.458428 -0.8585,0.585339 -3.16083,1.287747 -3.66813,1.443837 -0.50728,0.156091 -0.8585,0.234136 -0.70241,0 0.15609,-0.234135 0.54632,-0.780453 0.70241,-1.326769 0.15609,-0.546318 0.23413,-1.365793 0.23413,-1.638952 0,-0.273159 -0.0391,-1.131647 -0.0391,-1.131647 z"
         style="display:inline;fill:#0a2869;fill-opacity:1;fill-rule:evenodd;stroke:none;stroke-width:0.19511324px;stroke-linecap:butt;stroke-linejoin:miter;stroke-opacity:1" />
      <path
         sodipodi:nodetypes="csssscsssssssssssssssccssssssscsssssssscssccc"
         inkscape:connector-curvature="0"
         id="path2022"
         d="m 248.23158,40.220647 c 0,0 2.2243,0.234137 3.82423,0.234137 1.59993,0 2.73158,-0.07805 3.74618,-0.546318 1.01458,-0.468261 4.87781,-1.63894 5.46316,-1.834054 0.58533,-0.195114 3.47302,-0.390226 3.70714,-0.429259 0.23415,-0.03902 0.46828,0.03902 0.46828,0.03902 0,0 0.23414,-0.195113 0.39023,0.195113 0.15609,0.390228 -0.15609,2.068201 2.02917,3.590074 2.18527,1.521883 3.39498,1.716996 4.33152,1.990165 0.93654,0.273159 3.16084,0.702408 4.17542,0.936534 1.0146,0.234146 2.73159,0.819485 3.16085,1.521884 0.42924,0.702407 0.54631,0.819474 0.15608,1.365792 -0.39022,0.546316 -1.52189,0.74143 -1.71699,0.780453 -0.19513,0.03902 -0.58534,0.03902 -0.8585,0.03902 -0.27317,0 -0.7024,0.117079 -0.46827,0.195114 0.23413,0.07805 1.20969,0.42926 1.67797,0.546317 0.46827,0.117068 2.53647,0.234135 3.19985,0.15609 0.66339,-0.07805 2.26331,-0.858499 2.45844,-1.873087 0.1951,-1.01459 0.62436,-0.624362 0.0391,-1.599929 -0.58534,-0.975566 -2.4194,-1.873086 -2.73159,-2.341359 -0.31218,-0.468271 0.31219,-1.638951 1.20971,-2.146245 0.89752,-0.507294 2.22429,-1.053613 2.22429,-1.053613 v -1.619439 c 0,0 -2.30232,1.346281 -2.49745,1.463349 -0.1951,0.117069 -2.30233,1.287748 -2.57549,1.834065 -0.27316,0.546317 -0.11706,1.638951 0.0781,2.029178 0.19512,0.390227 0.1561,0.507294 0.8585,0.780453 0.7024,0.273159 1.95113,0.897521 2.06821,1.443838 0.11706,0.546317 0.1951,0.819475 -0.0391,1.248724 -0.23414,0.42925 -0.89752,0.819476 -1.17068,0.936544 -0.27317,0.117069 -1.48286,0.07805 -1.48286,0.07805 0,0 1.5609,-0.546318 1.48286,-1.521883 -0.0782,-0.975566 -0.97556,-1.638953 -2.14625,-2.380383 -1.17067,-0.741429 -4.79978,-1.131656 -6.32166,-1.756019 -1.52189,-0.624363 -4.40956,-1.951132 -4.95588,-2.731585 -0.54633,-0.780453 -1.09264,-2.9267 -1.17069,-3.277902 -0.0781,-0.351204 -0.11705,-3.082789 -0.0391,-4.019333 0.0781,-0.936544 0.11707,-1.092634 0.39024,-1.560907 0.27314,-0.468271 0.27314,-0.74143 0.0782,-0.546316 l -0.7024,0.702408 c 0,0 -0.42925,0.42925 -0.89753,0.15609 -0.46827,-0.273158 -3.08278,-2.263313 -5.11195,-3.277902 -2.02919,-1.014589 -3.00476,-1.521883 -3.00476,-1.521883 l -9.56054,13.814017 z"
         style="display:inline;fill:#0a2869;fill-opacity:1;fill-rule:evenodd;stroke:none;stroke-width:0.19511324px;stroke-linecap:butt;stroke-linejoin:miter;stroke-opacity:1" />
      <path
         sodipodi:nodetypes="cssssssssssssssssssscccsscsssccsscsscc"
         inkscape:connector-curvature="0"
         id="path2024"
         d="m 259.31402,23.675045 c 0,0 2.57549,1.248725 3.6291,1.834064 1.05362,0.585341 3.31693,1.873087 4.05835,2.770609 0.74145,0.89752 2.22431,0.975565 2.61453,0.780453 0.39022,-0.195114 2.0682,-0.468272 3.70715,0.390226 1.63894,0.858499 3.70716,2.965731 3.74618,3.121812 0.0391,0.15609 0.15608,2.302336 0.27316,2.692563 0.11705,0.390226 -0.11708,0.780453 0.39022,1.287747 0.50729,0.507293 1.59993,1.053611 2.02918,1.287747 0.42925,0.234146 0.8585,0.663385 0.89751,0.819485 0.0391,0.156081 0.42926,0.468262 0.46828,0.03902 0.0391,-0.429249 -0.62436,-1.482862 -0.97556,-1.677975 -0.35121,-0.195113 -1.40482,-0.819485 -1.48286,-1.170679 -0.0782,-0.351203 0.15608,-1.990164 0.0391,-2.770618 -0.11705,-0.780453 0,-1.48286 -0.81947,-2.497449 -0.81947,-1.014589 -1.44383,-1.443828 -1.91211,-1.638942 -0.46827,-0.195112 -2.65353,-1.014588 -3.04377,-1.131666 -0.39023,-0.117069 -0.54632,-0.312182 -0.39023,-0.390227 0.15609,-0.07805 3.2389,0.546328 4.37054,0.975567 1.13167,0.429259 3.43399,1.287757 4.29249,1.717006 0.8585,0.429239 2.45844,1.482861 2.45844,1.482861 l 1.0536,0.741431 0.0391,-2.575506 c 0,0 -5.54121,-2.614507 -6.24363,-3.004734 -0.7024,-0.390226 -4.05835,-0.624373 -4.1364,-1.053621 -0.0781,-0.429249 -0.0781,-0.507285 -0.0781,-0.507285 0,0 2.22427,-1.248736 3.55104,-1.951132 1.32678,-0.702419 2.77062,-1.17069 3.27791,-1.365803 0.5073,-0.195114 1.52189,-0.390227 1.75603,-0.42925 0.23412,-0.03902 1.81454,-0.195113 1.81454,-0.195113 l 0.0391,-1.258475 c 0,0 -3.88274,0.634114 -5.83388,1.375544 -1.95114,0.741429 -4.7998,2.341358 -6.00949,2.887675 -1.20971,0.546317 -3.40474,1.843826 -3.59009,2.380382 -0.18536,0.536567 -1.83407,-0.156091 -1.95113,-0.390226 -0.11708,-0.234136 1.18047,0.840226 -3.55107,-2.0682 -1.62486,-0.998803 -3.60959,-1.736508 -3.60959,-1.736508 z"
         style="display:inline;fill:#0a2869;fill-opacity:1;fill-rule:evenodd;stroke:none;stroke-width:0.19511324px;stroke-linecap:butt;stroke-linejoin:miter;stroke-opacity:1" />
      <path
         sodipodi:nodetypes="csssssccssssssssscssssscssc"
         inkscape:connector-curvature="0"
         id="path2026"
         d="m 268.87457,85.643018 c 0,0 -2.5755,-2.22429 -3.19986,-3.512037 -0.62436,-1.287748 -0.54632,-3.355949 0.66339,-4.877837 1.20969,-1.521883 2.5755,-2.419405 5.07294,-2.848654 2.49745,-0.429249 4.4876,-0.546316 6.08754,-0.429249 1.59992,0.117068 3.12181,0.312182 4.3315,0.663386 1.20972,0.351202 2.9072,0.995077 2.9072,0.995077 v 1.834065 c 0,0 -2.16576,-1.112146 -3.64862,-1.619441 -1.48286,-0.507295 -3.51204,-0.624362 -5.54121,-0.507295 -2.02918,0.117069 -3.86325,0.390228 -5.19003,1.053612 -1.32676,0.663385 -2.22428,1.951138 -2.45842,2.536478 -0.23413,0.585339 -0.23413,0.663385 -0.0781,0.780453 0.15609,0.117067 0.31218,0.507294 0.54632,-0.03902 0.23414,-0.546318 0.78044,-1.092634 2.45842,-1.599929 1.67797,-0.5073 3.70715,-0.390232 4.52663,0.07805 0.81948,0.468272 1.24872,1.17068 1.3658,1.404815 0.11705,0.234137 0.1951,0.58534 0.1951,0.58534 0,0 -0.27315,0.234136 -0.74142,-0.234136 -0.46828,-0.468271 -1.48287,-0.936544 -2.34136,-0.780452 -0.8585,0.15609 -2.69257,0.702407 -2.84867,1.053611 -0.15608,0.351204 -0.50728,0.624362 -0.42924,1.521884 0.0781,0.89752 -0.66338,1.560905 -1.01458,1.48286 -0.35121,-0.07805 -0.78046,-0.312181 -0.78046,-0.312181 0,0 -0.42925,0.15609 -0.35121,0.585339 0.0782,0.42925 0.27317,0.663385 0.31218,1.248725 0.0391,0.58534 0.1561,0.936543 0.1561,0.936543 z"
         style="display:inline;fill:#0a2869;fill-opacity:1;fill-rule:evenodd;stroke:none;stroke-width:0.19511324px;stroke-linecap:butt;stroke-linejoin:miter;stroke-opacity:1" />
      <path
         sodipodi:nodetypes="csssssscsssssssscccssssscc"
         inkscape:connector-curvature="0"
         id="path2028"
         d="m 256.58244,88.413626 c 0,0 0.8585,-0.195112 2.06819,0.624363 1.20971,0.819475 2.30234,2.653541 2.73159,3.160835 0.42926,0.507294 0.78045,1.365792 1.20971,1.365792 0.42924,0 1.01458,-1.248725 1.05361,-1.560906 0.0391,-0.31218 0.46826,-1.599927 1.0536,-2.185268 0.58533,-0.585339 1.17069,-1.092634 1.40483,-1.170679 0.23413,-0.07805 0.78045,-0.195114 0.78045,-0.195114 0,0 0.39022,-0.07805 0.15609,0.07804 -0.23414,0.156091 -0.81949,0.74143 -1.09264,1.209702 -0.27316,0.468272 -0.78045,1.014589 -1.13166,1.951133 -0.3512,0.936542 -0.54631,1.209702 -0.66338,1.834065 -0.11708,0.624361 -0.27316,1.131655 -0.27316,1.63895 0,0.507295 1.99016,2.029178 3.08279,3.39497 1.09264,1.365796 3.43399,3.316941 4.29249,3.902271 0.85851,0.58535 4.37053,1.71701 5.77536,1.79504 1.40481,0.0781 5.77534,0.0391 5.77534,0.0391 l 1.83406,-0.0781 0.0391,1.99014 c 0,0 -5.77534,0.39023 -7.60941,0 -1.83406,-0.39023 -5.03392,-1.32677 -6.43874,-1.91211 -1.40481,-0.58533 -4.87784,-3.90227 -5.5022,-4.448585 -0.62436,-0.54632 -3.23888,-4.214453 -4.17542,-5.892426 -0.93654,-1.677975 -2.96571,-4.136402 -3.59008,-4.448583 -0.62436,-0.31218 -0.77394,-0.353366 -0.77394,-0.353366 z"
         style="display:inline;fill:#0a2869;fill-opacity:1;fill-rule:evenodd;stroke:none;stroke-width:0.19511324px;stroke-linecap:butt;stroke-linejoin:miter;stroke-opacity:1" />
      <path
         sodipodi:nodetypes="cscccsssc"
         inkscape:connector-curvature="0"
         id="path2030"
         d="m 272.97195,115.37829 c 0,0 2.30232,-0.89752 3.70714,-1.2097 1.40481,-0.31218 5.77535,-0.74143 5.77535,-0.74143 l 2.28284,-0.19511 0.0196,3.43399 c 0,0 -1.17068,0.11707 -1.5609,0.27316 -0.39024,0.15609 -1.40481,0.42923 -2.84867,0.11705 -1.44382,-0.31218 -2.69255,-1.24872 -3.473,-1.32675 -0.78045,-0.0781 -3.90227,-0.35121 -3.90227,-0.35121 z"
         style="display:inline;fill:#0a2869;fill-opacity:1;fill-rule:evenodd;stroke:none;stroke-width:0.19511324px;stroke-linecap:butt;stroke-linejoin:miter;stroke-opacity:1" />
      <path
         sodipodi:nodetypes="cssssscsssscccccccsccccccc"
         inkscape:connector-curvature="0"
         id="path2032"
         d="m 284.71776,122.28529 c 0,0.42925 -0.0781,2.41941 -0.97557,3.78521 -0.89752,1.36578 -3.55105,2.73159 -4.91685,3.19985 -1.3658,0.46828 -4.76076,1.40482 -5.85339,2.69256 -1.09264,1.28776 -1.09264,1.71699 -0.97557,2.53649 0.11708,0.81946 0.7024,1.71699 1.09263,2.22427 0.39022,0.50731 0.81948,1.09264 0.81948,1.09264 0,0 -1.44384,-0.66338 -2.73157,-1.52188 -1.28776,-0.85849 -1.83408,-2.06821 -2.06822,-2.84866 -0.23413,-0.78045 -0.15609,-2.88768 -0.11706,-3.19986 0.0391,-0.31218 -0.0391,-0.15608 -1.32677,-0.93654 -1.28776,-0.78045 -2.3804,-1.0536 -2.3804,-1.0536 l -0.0391,0.42924 -0.0782,10.78 1.79505,1.43409 1.36579,0.66339 h 13.13112 l -0.2439,-0.82924 c 0,0 0.18537,-0.38046 1.08289,0.0489 0.89752,0.42926 1.35602,0.78046 1.35602,0.78046 h 1.07313 l -0.009,-12.68236 -0.66338,0.27315 0.27314,-0.66337 0.39024,-0.66339 z"
         style="display:inline;fill:#0a2869;fill-opacity:1;fill-rule:evenodd;stroke:none;stroke-width:0.19511324px;stroke-linecap:butt;stroke-linejoin:miter;stroke-opacity:1" />
      <path
         sodipodi:nodetypes="ccccc"
         inkscape:connector-curvature="0"
         id="path2034"
         d="m 209.76882,105.68422 -0.0131,5.58692 2.45456,0.009 -1.28881,-2.39586 z"
         style="display:inline;fill:#0a2869;fill-opacity:1;fill-rule:evenodd;stroke:none;stroke-width:0.19511324px;stroke-linecap:butt;stroke-linejoin:miter;stroke-opacity:1" />
      <path
         sodipodi:nodetypes="ccccccssccccccccssccsscssscscsccccccccssccccsscccc"
         inkscape:connector-curvature="0"
         id="path2036"
         d="m 219.64047,81.512582 c 0.16556,0.3863 0.77261,2.483384 0.82782,2.759321 0.055,0.275929 0.055,1.986706 0,3.311182 -0.0551,1.324466 -0.11039,3.752667 0.38628,4.249348 0.99336,1.490032 2.37301,1.214096 2.81452,1.600403 0.27592,0.827796 0.3311,2.593758 0.4415,3.807856 0.11037,1.214104 0.37739,2.107333 0.88295,2.538573 3.13166,2.671085 3.47677,0.220755 4.35974,1.655595 0.88296,1.43484 0.88296,1.87634 1.82115,2.59376 0.93818,0.71743 2.98009,-0.55187 3.80786,0.38631 0.8278,0.93817 -0.71742,1.2141 -0.99335,1.37966 -0.27593,0.16556 -1.32447,0.71741 -1.21411,1.9867 0.11039,1.26929 0.71742,2.31783 0.71742,2.31783 l 0.85703,1.16228 8.80058,-0.007 c 0,0 -2.64894,0.27928 -4.8012,-0.82445 -2.15229,-1.10373 -3.14562,-1.87633 -2.75932,-2.81451 0.38633,-0.93816 1.93154,-1.21409 2.42822,-2.31783 0.49662,-1.10372 0.11036,-1.93151 -0.49668,-2.37301 -0.60708,-0.44149 -1.37969,-0.49667 -1.65561,-0.55186 -0.27593,-0.0552 -2.86969,0.0551 -3.14563,-0.38631 -0.27592,-0.44149 0.27594,-1.10372 -0.93818,-2.593755 -1.21407,-1.490035 -3.86305,-0.607054 -4.4149,-0.993362 -0.55186,-0.386301 -1.10373,-1.103724 -1.10373,-2.759314 0,-1.655591 0.44151,-1.93152 -0.055,-2.924882 -0.49667,-0.993352 -1.21412,-1.048537 -2.20748,-1.876332 -0.99335,-0.827796 -0.44145,-2.538573 -0.55186,-3.20081 -0.11036,-0.662239 0,-1.324468 -0.22075,-2.428201 -0.22074,-1.103724 -0.7726,-2.814501 -0.66221,-3.807853 0.11036,-0.993361 -0.22076,-1.158919 0.16553,-2.097086 0.38633,-0.938166 3.09045,-2.09709 4.30455,-3.035257 1.21411,-0.938166 3.58712,-3.035243 3.91823,-3.366363 0.33112,-0.33111 1.7108,-1.986701 1.7108,-1.986701 0,0 0.49667,-0.49668 1.04853,0.220743 0.55186,0.717423 0.88296,2.428199 1.76598,3.587108 0.88296,1.158921 1.10371,1.600407 2.09708,2.31783 0.99335,0.717425 2.15224,1.931526 2.15224,1.931526 l -1.71075,-2.483389 c 0,0 -1.76598,-2.207453 -2.20747,-3.366374 -0.4415,-1.158911 -0.49668,-3.697484 -0.4415,-5.353075 0.055,-1.655591 1.21411,-5.021966 1.26928,-5.794573 0.055,-0.772596 0,-2.924866 0,-2.924866 v -2.152273 l -0.6622,0.882974 c 0,0 -0.1104,3.090439 -0.60708,4.525285 -0.49669,1.434849 -2.09708,4.525285 -3.42155,6.291254 -1.32447,1.765956 -3.14561,3.697484 -4.30455,4.580457 -1.15889,0.882983 -2.7593,2.317832 -2.7593,2.317832 l -1.71079,0.882982 z"
         style="display:inline;fill:#0a2869;fill-opacity:1;fill-rule:evenodd;stroke:none;stroke-width:0.19511324px;stroke-linecap:butt;stroke-linejoin:miter;stroke-opacity:1" />
      <path
         inkscape:connector-curvature="0"
         id="path2083"
         d="m 297.45325,65.398157 c 0,0 -0.13798,0 1.37967,-0.275927 1.5176,-0.275937 2.48338,1.793564 2.89727,2.621354 0.4139,0.827801 0.55186,1.241691 0.82779,2.621345 0.27594,1.379662 0.55186,1.793564 0.68982,2.621354 0.13799,0.827801 1.37967,2.345418 1.37967,2.345418 0,0 -2.34542,-1.655591 -2.75932,-2.759309 -0.4139,-1.103726 -2.06948,-3.311181 -2.48338,-4.001007 -0.41391,-0.689838 -1.93152,-3.173228 -1.93152,-3.173228 z"
         style="display:inline;fill:#5da3de;fill-opacity:1;fill-rule:evenodd;stroke:none;stroke-width:0.19511324px;stroke-linecap:butt;stroke-linejoin:miter;stroke-opacity:1" />
      <path
         sodipodi:nodetypes="cssscssscc"
         inkscape:connector-curvature="0"
         id="path2086"
         d="m 290.4541,78.345783 c 0,0 0.81946,0.546317 1.79504,1.014589 0.97556,0.468271 2.45842,1.443838 3.43399,2.029178 0.97556,0.58534 1.36579,1.404815 2.30234,1.521884 0.93654,0.117067 3.23888,0.429248 3.23888,0.429248 0,0 -0.78045,0.351204 -1.59995,0.351204 -0.81946,0 -2.26329,-0.351204 -3.04375,-0.58534 -0.78045,-0.234135 -2.45842,-1.053611 -3.19986,-1.560906 -0.74142,-0.507294 -2.90719,-1.541393 -2.90719,-1.541393 z"
         style="display:inline;fill:#0a2869;fill-opacity:1;fill-rule:evenodd;stroke:none;stroke-width:0.19511324px;stroke-linecap:butt;stroke-linejoin:miter;stroke-opacity:1" />
      <path
         inkscape:connector-curvature="0"
         id="path2088"
         d="m 290.49312,134.6945 0.0391,6.86799 3.74618,0.0391 c 0,0 2.02917,-1.05362 2.61451,-1.44384 0.58534,-0.39022 2.84865,-1.8731 3.08279,-2.18528 0.23414,-0.31218 1.40482,-1.48285 1.48286,-1.63893 0.0781,-0.1561 0.66338,-1.13167 0.66338,-1.13167 0,0 -1.83406,1.17069 -2.26331,1.44385 -0.42925,0.27316 -2.5755,1.09262 -2.5755,1.09262 l -2.10721,0.54631 c 0,0 1.36578,-1.20968 1.71699,-1.5609 0.35121,-0.35119 0.7024,-1.2097 0.7024,-1.2097 0,0 -1.83406,0.35121 -2.45842,0.35121 -0.62436,0 -2.18526,-0.23414 -2.45843,-0.35121 -0.27314,-0.11706 -2.18526,-0.81947 -2.18526,-0.81947 z"
         style="display:inline;fill:#0a2869;fill-opacity:1;fill-rule:evenodd;stroke:none;stroke-width:0.19511324px;stroke-linecap:butt;stroke-linejoin:miter;stroke-opacity:1" />
      <g
         aria-label="GNU"
         transform="translate(1.3644927,3.329001)"
         style="font-style:normal;font-variant:normal;font-weight:bold;font-stretch:normal;font-size:30.66666603px;line-height:125%;font-family:Sans;-inkscape-font-specification:'Sans Bold';letter-spacing:0px;word-spacing:0px;fill:#000000;fill-opacity:1;stroke:none;stroke-width:1px;stroke-linecap:butt;stroke-linejoin:miter;stroke-opacity:1"
         id="flowRoot2694-3">
        <path
           d="m 224.05555,135.55968 q -1.6198,1.28088 -3.36334,1.92134 -1.74353,0.64043 -3.59955,0.64043 -4.19574,0 -6.64793,-3.80607 -2.45221,-3.82438 -2.45221,-10.35691 0,-6.60574 2.4972,-10.39352 2.49719,-3.78777 6.83916,-3.78777 1.67604,0 3.20585,0.51236 1.54106,0.51235 2.90215,1.51877 v 5.65421 q -1.40608,-1.29919 -2.80092,-1.93962 -1.38356,-0.64045 -2.7784,-0.64045 -2.58718,0 -3.99326,2.3605 -1.39482,2.34219 -1.39482,6.71552 0,4.33673 1.34982,6.69723 1.34984,2.36049 3.83578,2.36049 0.67492,0 1.2486,-0.12809 0.58493,-0.14638 1.04612,-0.43915 v -5.30655 h -2.64342 v -4.721 h 6.74917 z"
           id="path5458"
           inkscape:connector-curvature="0"
           style="fill:#00004d;fill-opacity:1;stroke-width:0.95811999px" />
        <path
           d="m 227.85757,110.27124 h 4.83692 l 6.10799,18.7376 v -18.7376 h 4.10575 v 27.31956 h -4.8369 l -6.108,-18.73759 v 18.73759 h -4.10576 z"
           id="path5460"
           inkscape:connector-curvature="0"
           style="fill:#00004d;fill-opacity:1;stroke-width:0.95811999px" />
        <path
           d="m 247.16022,110.27124 h 4.3307 v 16.37709 q 0,3.38522 0.67493,4.84909 0.68616,1.44558 2.22722,1.44558 1.55231,0 2.22722,-1.44558 0.68617,-1.46387 0.68617,-4.84909 v -16.37709 h 4.33072 v 16.37709 q 0,5.80062 -1.78853,8.63687 -1.78854,2.83625 -5.45558,2.83625 -3.65581,0 -5.44433,-2.83625 -1.78852,-2.83625 -1.78852,-8.63687 z"
           id="path5462"
           inkscape:connector-curvature="0"
           style="fill:#00004d;fill-opacity:1;stroke-width:0.95811999px" />
      </g>
    </g>
    <g
       aria-label="Celebrating 40 years"
       transform="matrix(1.0451854,0,0,1,5.3909936,12.016368)"
       style="font-style:normal;font-weight:normal;font-size:16px;line-height:125%;font-family:Sans;letter-spacing:0px;word-spacing:0px;display:inline;opacity:1;fill:#000000;fill-opacity:1;stroke:none;stroke-width:0.97814524px;stroke-linecap:butt;stroke-linejoin:miter;stroke-opacity:1"
       id="flowRoot2726">
      <path
         inkscape:connector-curvature="0"
         d="m 184.3763,173.64453 q -0.96614,0.5013 -2.01432,0.75651 -1.04818,0.25521 -2.1875,0.25521 -3.39974,0 -5.38672,-1.89583 -1.98698,-1.90495 -1.98698,-5.15886 0,-3.26302 1.98698,-5.15885 1.98698,-1.90495 5.38672,-1.90495 1.13932,0 2.1875,0.25521 1.04818,0.25521 2.01432,0.75651 v 2.81641 q -0.97526,-0.66537 -1.92318,-0.97526 -0.94791,-0.3099 -1.99609,-0.3099 -1.8776,0 -2.95312,1.20312 -1.07552,1.20313 -1.07552,3.31771 0,2.10547 1.07552,3.3086 1.07552,1.20312 2.95312,1.20312 1.04818,0 1.99609,-0.30989 0.94792,-0.3099 1.92318,-0.97526 z"
         style="font-style:normal;font-variant:normal;font-weight:bold;font-stretch:normal;font-size:18.66666603px;font-family:Sans;-inkscape-font-specification:'Sans Bold';fill:#00004d;fill-opacity:1;stroke-width:0.97814524px"
         id="path5465" />
      <path
         inkscape:connector-curvature="0"
         d="m 197.33724,169.26042 v 0.92968 h -7.62891 q 0.11849,1.14844 0.82943,1.72266 0.71094,0.57422 1.98698,0.57422 1.02995,0 2.10547,-0.30078 1.08463,-0.3099 2.22396,-0.92969 v 2.51563 q -1.15756,0.4375 -2.31511,0.65625 -1.15755,0.22786 -2.3151,0.22786 -2.77084,0 -4.3112,-1.40365 -1.53125,-1.41276 -1.53125,-3.95572 0,-2.4974 1.50391,-3.92839 1.51302,-1.43099 4.15625,-1.43099 2.40625,0 3.84635,1.44922 1.44922,1.44922 1.44922,3.8737 z m -3.35417,-1.08464 q 0,-0.92969 -0.54687,-1.49479 -0.53776,-0.57422 -1.41276,-0.57422 -0.94792,0 -1.54037,0.53776 -0.59245,0.52865 -0.73828,1.53125 z"
         style="font-style:normal;font-variant:normal;font-weight:bold;font-stretch:normal;font-size:18.66666603px;font-family:Sans;-inkscape-font-specification:'Sans Bold';fill:#00004d;fill-opacity:1;stroke-width:0.97814524px"
         id="path5467" />
      <path
         inkscape:connector-curvature="0"
         d="m 199.79818,160.20964 h 3.26302 v 14.18229 h -3.26302 z"
         style="font-style:normal;font-variant:normal;font-weight:bold;font-stretch:normal;font-size:18.66666603px;font-family:Sans;-inkscape-font-specification:'Sans Bold';fill:#00004d;fill-opacity:1;stroke-width:0.97814524px"
         id="path5469" />
      <path
         inkscape:connector-curvature="0"
         d="m 216.40494,169.26042 v 0.92968 h -7.6289 q 0.11849,1.14844 0.82943,1.72266 0.71093,0.57422 1.98698,0.57422 1.02994,0 2.10546,-0.30078 1.08464,-0.3099 2.22396,-0.92969 v 2.51563 q -1.15755,0.4375 -2.3151,0.65625 -1.15755,0.22786 -2.31511,0.22786 -2.77083,0 -4.31119,-1.40365 -1.53125,-1.41276 -1.53125,-3.95572 0,-2.4974 1.5039,-3.92839 1.51302,-1.43099 4.15625,-1.43099 2.40625,0 3.84636,1.44922 1.44921,1.44922 1.44921,3.8737 z m -3.35416,-1.08464 q 0,-0.92969 -0.54688,-1.49479 -0.53776,-0.57422 -1.41276,-0.57422 -0.94791,0 -1.54036,0.53776 -0.59245,0.52865 -0.73828,1.53125 z"
         style="font-style:normal;font-variant:normal;font-weight:bold;font-stretch:normal;font-size:18.66666603px;font-family:Sans;-inkscape-font-specification:'Sans Bold';fill:#00004d;fill-opacity:1;stroke-width:0.97814524px"
         id="path5471" />
      <path
         inkscape:connector-curvature="0"
         d="m 224.29818,172.28646 q 1.04817,0 1.59505,-0.76563 0.55599,-0.76562 0.55599,-2.22395 0,-1.45834 -0.55599,-2.22396 -0.54688,-0.76563 -1.59505,-0.76563 -1.04818,0 -1.61329,0.77474 -0.55599,0.76563 -0.55599,2.21485 0,1.44921 0.55599,2.22395 0.56511,0.76563 1.61329,0.76563 z m -2.16928,-6.60807 q 0.67448,-0.89323 1.4948,-1.3125 0.82031,-0.42839 1.88672,-0.42839 1.88671,0 3.09895,1.50391 1.21224,1.49479 1.21224,3.85547 0,2.36067 -1.21224,3.86458 -1.21224,1.49479 -3.09895,1.49479 -1.06641,0 -1.88672,-0.41927 -0.82032,-0.42839 -1.4948,-1.32162 v 1.47657 h -3.26302 v -14.18229 h 3.26302 z"
         style="font-style:normal;font-variant:normal;font-weight:bold;font-stretch:normal;font-size:18.66666603px;font-family:Sans;-inkscape-font-specification:'Sans Bold';fill:#00004d;fill-opacity:1;stroke-width:0.97814524px"
         id="path5473" />
      <path
         inkscape:connector-curvature="0"
         d="m 239.82942,166.96354 q -0.42838,-0.20052 -0.85677,-0.29166 -0.41927,-0.10026 -0.84765,-0.10026 -1.25782,0 -1.94141,0.81119 -0.67448,0.80209 -0.67448,2.30599 v 4.70313 h -3.26302 v -10.20834 h 3.26302 v 1.67709 q 0.62891,-1.00261 1.44011,-1.45834 0.82031,-0.46484 1.95963,-0.46484 0.16406,0 0.35547,0.0182 0.19141,0.009 0.55599,0.0547 z"
         style="font-style:normal;font-variant:normal;font-weight:bold;font-stretch:normal;font-size:18.66666603px;font-family:Sans;-inkscape-font-specification:'Sans Bold';fill:#00004d;fill-opacity:1;stroke-width:0.97814524px"
         id="path5475" />
      <path
         inkscape:connector-curvature="0"
         d="m 246.04557,169.79818 q -1.02083,0 -1.54036,0.34635 -0.51042,0.34636 -0.51042,1.02083 0,0.6198 0.41016,0.97527 0.41927,0.34635 1.15755,0.34635 0.92057,0 1.54948,-0.65625 0.62891,-0.66537 0.62891,-1.65885 v -0.3737 z m 4.98568,-1.23047 v 5.82422 h -3.29036 v -1.51302 q -0.65625,0.92968 -1.47657,1.35807 -0.82031,0.41927 -1.99609,0.41927 -1.58594,0 -2.57943,-0.92057 -0.98437,-0.92969 -0.98437,-2.40625 0,-1.79558 1.23047,-2.63412 1.23958,-0.83854 3.88281,-0.83854 h 1.92318 v -0.25521 q 0,-0.77474 -0.61068,-1.13021 -0.61068,-0.36458 -1.90495,-0.36458 -1.04818,0 -1.95052,0.20964 -0.90234,0.20963 -1.67708,0.6289 v -2.48828 q 1.04817,-0.25521 2.10546,-0.38281 1.0573,-0.13672 2.11459,-0.13672 2.76172,0 3.98307,1.09375 1.23047,1.08464 1.23047,3.53646 z"
         style="font-style:normal;font-variant:normal;font-weight:bold;font-stretch:normal;font-size:18.66666603px;font-family:Sans;-inkscape-font-specification:'Sans Bold';fill:#00004d;fill-opacity:1;stroke-width:0.97814524px"
         id="path5477" />
      <path
         inkscape:connector-curvature="0"
         d="m 257.64843,161.28516 v 2.89843 h 3.36328 v 2.33334 h -3.36328 v 4.32942 q 0,0.71094 0.28255,0.96615 0.28256,0.24609 1.1211,0.24609 h 1.67708 v 2.33334 h -2.79818 q -1.93229,0 -2.74349,-0.80209 -0.80208,-0.81119 -0.80208,-2.74349 v -4.32942 h -1.62239 v -2.33334 h 1.62239 v -2.89843 z"
         style="font-style:normal;font-variant:normal;font-weight:bold;font-stretch:normal;font-size:18.66666603px;font-family:Sans;-inkscape-font-specification:'Sans Bold';fill:#00004d;fill-opacity:1;stroke-width:0.97814524px"
         id="path5479" />
      <path
         inkscape:connector-curvature="0"
         d="m 263.01693,164.18359 h 3.26302 v 10.20834 h -3.26302 z m 0,-3.97395 h 3.26302 v 2.66145 h -3.26302 z"
         style="font-style:normal;font-variant:normal;font-weight:bold;font-stretch:normal;font-size:18.66666603px;font-family:Sans;-inkscape-font-specification:'Sans Bold';fill:#00004d;fill-opacity:1;stroke-width:0.97814524px"
         id="path5481" />
      <path
         inkscape:connector-curvature="0"
         d="m 279.69661,168.17578 v 6.21615 h -3.28125 v -1.01172 -3.74609 q 0,-1.32162 -0.0638,-1.82292 -0.0547,-0.5013 -0.20052,-0.73828 -0.19141,-0.31901 -0.51953,-0.49219 -0.32813,-0.18229 -0.7474,-0.18229 -1.02083,0 -1.60416,0.79297 -0.58334,0.78385 -0.58334,2.17838 v 5.02214 h -3.26302 v -10.20834 h 3.26302 v 1.4948 q 0.73828,-0.89323 1.56771,-1.3125 0.82943,-0.42839 1.83203,-0.42839 1.76823,0 2.67969,1.08464 0.92057,1.08463 0.92057,3.15364 z"
         style="font-style:normal;font-variant:normal;font-weight:bold;font-stretch:normal;font-size:18.66666603px;font-family:Sans;-inkscape-font-specification:'Sans Bold';fill:#00004d;fill-opacity:1;stroke-width:0.97814524px"
         id="path5483" />
      <path
         inkscape:connector-curvature="0"
         d="m 289.68619,172.66016 q -0.67448,0.89323 -1.48567,1.3125 -0.8112,0.41927 -1.87761,0.41927 -1.86849,0 -3.08984,-1.46745 -1.22136,-1.47656 -1.22136,-3.75521 0,-2.28776 1.22136,-3.74609 1.22135,-1.46745 3.08984,-1.46745 1.06641,0 1.87761,0.41927 0.81119,0.41927 1.48567,1.32162 v -1.51303 h 3.28125 v 9.17839 q 0,2.46094 -1.55859,3.75521 -1.54948,1.30338 -4.50261,1.30338 -0.95703,0 -1.85026,-0.14583 -0.89322,-0.14583 -1.79557,-0.44661 v -2.54297 q 0.85677,0.49218 1.67708,0.72916 0.82032,0.2461 1.64974,0.2461 1.60417,0 2.35157,-0.70183 0.74739,-0.70182 0.74739,-2.19661 z m -2.15104,-6.35287 q -1.01172,0 -1.57682,0.7474 -0.56511,0.74739 -0.56511,2.11458 0,1.40365 0.54688,2.13281 0.54687,0.72006 1.59505,0.72006 1.02083,0 1.58594,-0.7474 0.5651,-0.7474 0.5651,-2.10547 0,-1.36719 -0.5651,-2.11458 -0.56511,-0.7474 -1.58594,-0.7474 z"
         style="font-style:normal;font-variant:normal;font-weight:bold;font-stretch:normal;font-size:18.66666603px;font-family:Sans;-inkscape-font-specification:'Sans Bold';fill:#00004d;fill-opacity:1;stroke-width:0.97814524px"
         id="path5485" />
      <path
         inkscape:connector-curvature="0"
         d="m 307.91536,163.67318 -3.84635,5.69661 h 3.84635 z m -0.58333,-2.88933 h 3.90104 v 8.58594 h 1.94141 v 2.54297 h -1.94141 v 2.47917 h -3.31771 v -2.47917 h -6.03385 v -3.00781 z"
         style="font-style:normal;font-variant:normal;font-weight:bold;font-stretch:normal;font-size:18.66666603px;font-family:Sans;-inkscape-font-specification:'Sans Bold';fill:#00004d;fill-opacity:1;stroke-width:0.97814524px"
         id="path5487" />
      <path
         inkscape:connector-curvature="0"
         d="m 322.60806,167.57422 q 0,-2.55208 -0.48307,-3.59115 -0.47396,-1.04817 -1.60417,-1.04817 -1.13021,0 -1.61328,1.04817 -0.48307,1.03907 -0.48307,3.59115 0,2.57943 0.48307,3.63672 0.48307,1.05729 1.61328,1.05729 1.1211,0 1.60417,-1.05729 0.48307,-1.05729 0.48307,-3.63672 z m 3.50912,0.0273 q 0,3.38151 -1.45834,5.22266 -1.45833,1.83203 -4.13802,1.83203 -2.6888,0 -4.14713,-1.83203 -1.45834,-1.84115 -1.45834,-5.22266 0,-3.39062 1.45834,-5.22265 1.45833,-1.84115 4.14713,-1.84115 2.67969,0 4.13802,1.84115 1.45834,1.83203 1.45834,5.22265 z"
         style="font-style:normal;font-variant:normal;font-weight:bold;font-stretch:normal;font-size:18.66666603px;font-family:Sans;-inkscape-font-specification:'Sans Bold';fill:#00004d;fill-opacity:1;stroke-width:0.97814524px"
         id="path5489" />
      <path
         inkscape:connector-curvature="0"
         d="m 333.71874,164.18359 h 3.26302 l 2.74349,6.92709 2.33333,-6.92709 h 3.26302 l -4.29296,11.17448 q -0.64714,1.70443 -1.51303,2.37891 -0.85677,0.68359 -2.26953,0.68359 h -1.88672 v -2.14192 h 1.02084 q 0.82943,0 1.20312,-0.26433 0.38282,-0.26432 0.59245,-0.94791 l 0.0912,-0.28256 z"
         style="font-style:normal;font-variant:normal;font-weight:bold;font-stretch:normal;font-size:18.66666603px;font-family:Sans;-inkscape-font-specification:'Sans Bold';fill:#00004d;fill-opacity:1;stroke-width:0.97814524px"
         id="path5491" />
      <path
         inkscape:connector-curvature="0"
         d="m 357.42578,169.26042 v 0.92968 h -7.62891 q 0.11849,1.14844 0.82943,1.72266 0.71094,0.57422 1.98698,0.57422 1.02995,0 2.10547,-0.30078 1.08464,-0.3099 2.22396,-0.92969 v 2.51563 q -1.15755,0.4375 -2.31511,0.65625 -1.15755,0.22786 -2.3151,0.22786 -2.77083,0 -4.3112,-1.40365 -1.53125,-1.41276 -1.53125,-3.95572 0,-2.4974 1.50391,-3.92839 1.51302,-1.43099 4.15625,-1.43099 2.40625,0 3.84635,1.44922 1.44922,1.44922 1.44922,3.8737 z m -3.35417,-1.08464 q 0,-0.92969 -0.54687,-1.49479 -0.53776,-0.57422 -1.41276,-0.57422 -0.94792,0 -1.54037,0.53776 -0.59244,0.52865 -0.73828,1.53125 z"
         style="font-style:normal;font-variant:normal;font-weight:bold;font-stretch:normal;font-size:18.66666603px;font-family:Sans;-inkscape-font-specification:'Sans Bold';fill:#00004d;fill-opacity:1;stroke-width:0.97814524px"
         id="path5493" />
      <path
         inkscape:connector-curvature="0"
         d="m 364.46223,169.79818 q -1.02083,0 -1.54037,0.34635 -0.51041,0.34636 -0.51041,1.02083 0,0.6198 0.41015,0.97527 0.41928,0.34635 1.15756,0.34635 0.92057,0 1.54948,-0.65625 0.6289,-0.66537 0.6289,-1.65885 v -0.3737 z m 4.98568,-1.23047 v 5.82422 h -3.29037 v -1.51302 q -0.65625,0.92968 -1.47656,1.35807 -0.82031,0.41927 -1.99609,0.41927 -1.58594,0 -2.57943,-0.92057 -0.98438,-0.92969 -0.98438,-2.40625 0,-1.79558 1.23047,-2.63412 1.23959,-0.83854 3.88281,-0.83854 h 1.92318 v -0.25521 q 0,-0.77474 -0.61068,-1.13021 -0.61067,-0.36458 -1.90494,-0.36458 -1.04818,0 -1.95052,0.20964 -0.90235,0.20963 -1.67709,0.6289 v -2.48828 q 1.04818,-0.25521 2.10547,-0.38281 1.05729,-0.13672 2.11458,-0.13672 2.76172,0 3.98308,1.09375 1.23047,1.08464 1.23047,3.53646 z"
         style="font-style:normal;font-variant:normal;font-weight:bold;font-stretch:normal;font-size:18.66666603px;font-family:Sans;-inkscape-font-specification:'Sans Bold';fill:#00004d;fill-opacity:1;stroke-width:0.97814524px"
         id="path5495" />
      <path
         inkscape:connector-curvature="0"
         d="m 380.08464,166.96354 q -0.42839,-0.20052 -0.85678,-0.29166 -0.41927,-0.10026 -0.84765,-0.10026 -1.25781,0 -1.94141,0.81119 -0.67448,0.80209 -0.67448,2.30599 v 4.70313 h -3.26302 v -10.20834 h 3.26302 v 1.67709 q 0.62891,-1.00261 1.44011,-1.45834 0.82031,-0.46484 1.95963,-0.46484 0.16406,0 0.35547,0.0182 0.19141,0.009 0.55599,0.0547 z"
         style="font-style:normal;font-variant:normal;font-weight:bold;font-stretch:normal;font-size:18.66666603px;font-family:Sans;-inkscape-font-specification:'Sans Bold';fill:#00004d;fill-opacity:1;stroke-width:0.97814524px"
         id="path5497" />
      <path
         inkscape:connector-curvature="0"
         d="m 389.70052,164.5026 v 2.47917 q -1.04818,-0.4375 -2.02344,-0.65625 -0.97526,-0.21875 -1.84115,-0.21875 -0.92969,0 -1.38541,0.23698 -0.44662,0.22787 -0.44662,0.71094 0,0.39193 0.33724,0.60156 0.34635,0.20964 1.23047,0.3099 l 0.57422,0.082 q 2.50651,0.31901 3.37239,1.04817 0.86589,0.72917 0.86589,2.28776 0,1.63152 -1.20313,2.45183 -1.20312,0.82031 -3.59114,0.82031 -1.01172,0 -2.09636,-0.16406 -1.07552,-0.15495 -2.21484,-0.47396 v -2.47917 q 0.97526,0.47396 1.99609,0.71094 1.02995,0.23698 2.08724,0.23698 0.95704,0 1.44011,-0.26432 0.48307,-0.26433 0.48307,-0.78386 0,-0.4375 -0.33724,-0.64713 -0.32812,-0.21875 -1.32161,-0.33724 l -0.57422,-0.0729 q -2.17839,-0.27344 -3.05339,-1.01172 -0.875,-0.73828 -0.875,-2.24219 0,-1.62239 1.11198,-2.40625 1.11198,-0.78385 3.40886,-0.78385 0.90234,0 1.89583,0.13672 0.99349,0.13672 2.16016,0.42838 z"
         style="font-style:normal;font-variant:normal;font-weight:bold;font-stretch:normal;font-size:18.66666603px;font-family:Sans;-inkscape-font-specification:'Sans Bold';fill:#00004d;fill-opacity:1;stroke-width:0.97814524px"
         id="path5499" />
    </g>
  </g>
</svg>
